taxon	min	max
Palaeocomaster	172.2	201.3
Bilecicrinus	190.8	195.3
Capsicocrinus	190.8	190.8
Cotylederma	180.5	195.3
Dinardocrinus	176.2	180.5
Eudesicrinus	172.2	190.8
Eugeniacrinites	172.2	190.8
Gutticrinus	187.55	187.55
Paraeotylederma	176.2	180.5
Plicatocrinus	172.2	190.8
Quenstedticrinus	187.55	195.3
Sacariaerinus	176.2	195.3
Tetracrinus	172.2	195.3
Cassianocrinus	226.5	232
Chelocrinus	232	239.25
Encrinus	203.35	239.25
Zardinicrinus	226.5	232
Ainigmacrinus	232	239.25
Traumatocrinus	232	239.25
Vostocovacrinus	232	232
Eocomatula	187.55	215.25
Holocrinus	232	239.25
Bakonycrinus	207.95	232
Balanocrinus	172.2	239.25
Chariocrinus	172.2	180.5
Chladocrinus	172.2	232
Isocrinus	172.2	239.25
Tyrolecrinus	172.2	239.25
Cenocrinus	172.2	190.8
Paracomatula	172.2	207.95
Pentacrinites	172.2	239.25
Seirocrinus	172.2	215.25
Tulipacrinus	203.35	232
Hispidocrinus	172.2	195.3
Laevigatocrinus	232	239.25
Margocrinus	172.2	172.2
Procomaster	176.2	180.5
Singularocrinus	215.25	215.25
Terocrinus	172.2	215.25
Tollmannicrinus	239.25	239.25
Amaltheocrinus	180.5	199.3
Shroshaecrinus	176.2	195.3
Praetetracrinus	172.2	180.5
Dadocrinus	239.25	239.25
Millericrinus	172.2	199.3
Neodadocrinus	187.55	195.3
Pomatocrinus	172.2	201.3
Souticrinus	195.3	195.3
Somphocrinus	226.5	226.5
Axicrinus	226.5	239.25
Ossicrinus	232	239.25
Osteocrinus	203.35	239.25
Poculicrinus	226.5	232
Lanternocrinus	203.35	215.25
Lotocrinus	203.35	203.35
Nasutocrinus	207.95	212.875
Leocrinus	203.35	215.25
Acariaeocrinus	195.3	199.3
Bihaticrinus	207.95	215.25
Nodolanx	226.5	239.25
