taxon	int1	int2	int3	int4	int5	int6	int7	int8	int9	int10
Amaltheus	0	295	1990	1618	305	265	116	478	558	292
Amauroceras	0	0	0	0	0	0	0	0	0	0
Pleuroceras	0	0	0	0	0	0	0	0	0	0
Aegasteroceras	0	0	0	0	0	0	0	0	0	0
Agassiceras	0	0	0	0	0	0	0	0	0	0
Alsatites	0	0	0	0	0	0	0	0	0	0
Arctoasteroceras	0	0	0	0	0	0	0	0	0	0
Arnioceras	0	0	0	0	0	0	0	0	0	0
Asteroceras	0	0	0	0	0	0	0	0	0	0
Bagnolites	0	0	0	0	0	0	0	0	0	0
Caenisites	0	0	0	0	0	0	0	0	0	0
Coroniceras	0	0	0	0	0	0	0	0	0	0
Eparietites	0	0	0	0	0	0	0	0	0	0
Epophioceras	0	0	0	0	0	0	0	0	0	0
Euagassiceras	0	0	0	0	0	0	0	0	0	0
Guexiceras	0	0	0	0	0	0	0	0	0	0
Hypasteroceras	0	0	0	0	0	0	0	0	0	0
Metophioceras	0	0	0	0	0	0	0	0	0	0
Parasteroceras	0	0	0	0	0	0	0	0	0	0
Pseudaetomoceras	0	0	0	0	0	0	0	0	0	0
Tipperoceras	0	0	0	0	0	0	0	0	0	0
Tmaegoceras	0	0	0	0	0	0	0	0	0	0
Vermiceras	0	0	0	0	0	0	0	0	0	0
Clydoniceras	0	0	0	0	0	0	0	0	0	0
Apoderoceras	0	0	0	0	0	0	0	0	0	0
Bakonyceras	0	0	0	0	0	0	0	0	0	0
Coeloceras	0	0	0	0	0	0	0	0	0	0
Miltoceras	0	0	0	0	0	0	0	0	0	0
Pseudoskirroceras	0	0	0	0	0	0	0	0	0	0
Tetraspidoceras	0	0	0	0	0	0	0	0	0	0
Zamaiceras	0	0	0	0	0	0	0	0	0	0
Cymbites	0	0	0	0	0	0	0	0	0	0
Hyerifalchia	0	0	0	0	0	0	0	0	0	0
Aveyroniceras	0	0	0	0	0	0	0	0	0	0
Bettoniceras	0	0	0	0	0	0	0	0	0	0
Catacoeloceras	0	0	0	0	0	0	0	0	0	0
Cetonoceras	0	0	0	0	0	0	0	0	0	0
Collina	0	0	0	0	0	0	0	0	0	0
Dactylioceras	0	0	0	0	0	0	0	0	0	0
Mesodactylites	0	0	0	0	0	0	0	0	0	0
Nodicoeloceras	0	0	0	0	0	0	0	0	0	0
Peronoceras	0	0	0	0	0	0	0	0	0	0
Porpoceras	0	0	0	0	0	0	0	0	0	0
Prodactylioceras	0	0	0	0	0	0	0	0	0	0
Reynesoceras	0	0	0	0	0	0	0	0	0	0
Reynesocoeloceras	0	0	0	0	0	0	0	0	0	0
Zugodactylites	0	0	0	0	0	0	0	0	0	0
Echioceras	0	0	0	0	0	0	0	0	0	0
Gagaticeras	0	0	0	0	0	0	0	0	0	0
Leptechioceras	0	0	0	0	0	0	0	0	0	0
Palaeoechioceras	0	0	0	0	0	0	0	0	0	0
Paltechioceras	0	0	0	0	0	0	0	0	0	0
Plesechioceras	0	0	0	0	0	0	0	0	0	0
Appenninoceras	0	0	0	0	0	0	0	0	0	0
Bifericeras	0	0	0	0	0	0	0	0	0	0
Callomoniceras	0	0	0	0	0	0	0	0	0	0
Crucilobiceras	0	0	0	0	0	0	0	0	0	0
Dubariceras	0	0	0	0	0	0	0	0	0	0
Eoamaltheus	0	0	0	0	0	0	0	0	0	0
Eoderoceras	0	0	0	0	0	0	0	0	0	0
Eteoderoceras	0	0	0	0	0	0	0	0	0	0
Fanninoceras	0	0	0	0	0	0	0	0	0	0
Hyperderoceras	0	0	0	0	0	0	0	0	0	0
Metaderoceras	0	0	0	0	0	0	0	0	0	0
Microderoceras	0	0	0	0	0	0	0	0	0	0
Paramicroderoceras	0	0	0	0	0	0	0	0	0	0
Promicroceras	0	0	0	0	0	0	0	0	0	0
Xipheroceras	0	0	0	0	0	0	0	0	0	0
Brasilia	0	0	0	0	0	0	0	0	0	0
Canavarella	0	0	0	0	0	0	0	0	0	0
Cylicoceras	0	0	0	0	0	0	0	0	0	0
Graphoceras	0	0	0	0	0	0	0	0	0	0
Hyperlioceras	0	0	0	0	0	0	0	0	0	0
Leioceras	0	0	0	0	0	0	0	0	0	0
Ludwigia	0	0	0	0	0	0	0	0	0	0
Staufenia	0	0	0	0	0	0	0	0	0	0
Abbasites	0	0	0	0	0	0	0	0	0	0
Abbasitoides	0	0	0	0	0	0	0	0	0	0
Accardia	0	0	0	0	0	0	0	0	0	0
Bredyia	0	0	0	0	0	0	0	0	0	0
Cagliceras	0	0	0	0	0	0	0	0	0	0
Crestaites	0	0	0	0	0	0	0	0	0	0
Csernyeiceras	0	0	0	0	0	0	0	0	0	0
Erycites	0	0	0	0	0	0	0	0	0	0
Erycitoides	0	0	0	0	0	0	0	0	0	0
Euaptetoceras	0	0	0	0	0	0	0	0	0	0
Eudmetoceras	0	0	0	0	0	0	0	0	0	0
Hammatoceras	0	0	0	0	0	0	0	0	0	0
Haplopleuroceras	0	0	0	0	0	0	0	0	0	0
Malladaites	0	0	0	0	0	0	0	0	0	0
Onychoceras	0	0	0	0	0	0	0	0	0	0
Planammatoceras	0	0	0	0	0	0	0	0	0	0
Pseudaptetoceras	0	0	0	0	0	0	0	0	0	0
Puchenquia	0	0	0	0	0	0	0	0	0	0
Sphaerocoeloceras	0	0	0	0	0	0	0	0	0	0
Spinammatoceras	0	0	0	0	0	0	0	0	0	0
Zurcheria	0	0	0	0	0	0	0	0	0	0
Arieticeras	0	0	0	0	0	0	0	0	0	0
Bouleiceras	0	0	0	0	0	0	0	0	0	0
Canavaria	0	0	0	0	0	0	0	0	0	0
Catulloceras	0	0	0	0	0	0	0	0	0	0
Cingolites	0	0	0	0	0	0	0	0	0	0
Cleviceras	0	0	0	0	0	0	0	0	0	0
Cotteswoldia	0	0	0	0	0	0	0	0	0	0
Dumortieria	0	0	0	0	0	0	0	0	0	0
Eleganticeras	0	0	0	0	0	0	0	0	0	0
Emaciaticeras	0	0	0	0	0	0	0	0	0	0
Fontanelliceras	0	0	0	0	0	0	0	0	0	0
Frechiella	0	0	0	0	0	0	0	0	0	0
Fuciniceras	0	0	0	0	0	0	0	0	0	0
Grammoceras	0	0	0	0	0	0	0	0	0	0
Gruneria	0	0	0	0	0	0	0	0	0	0
Harpoceras	0	0	0	0	0	0	0	0	0	0
Hildaites	0	0	0	0	0	0	0	0	0	0
Hildoceras	0	0	0	0	0	0	0	0	0	0
Hudlestonia	0	0	0	0	0	0	0	0	0	0
Jacobella	0	0	0	0	0	0	0	0	0	0
Kohaticeras	0	0	0	0	0	0	0	0	0	0
Leptaleoceras	0	0	0	0	0	0	0	0	0	0
Leukadiella	0	0	0	0	0	0	0	0	0	0
Lioceratoides	0	0	0	0	0	0	0	0	0	0
Mauretaniaceras	0	0	0	0	0	0	0	0	0	0
Mercaticeras	0	0	0	0	0	0	0	0	0	0
Nejdia	0	0	0	0	0	0	0	0	0	0
Orthildaites	0	0	0	0	0	0	0	0	0	0
Osperleioceras	0	0	0	0	0	0	0	0	0	0
Ovaticeras	0	0	0	0	0	0	0	0	0	0
Parahildaites	0	0	0	0	0	0	0	0	0	0
Paroniceras	0	0	0	0	0	0	0	0	0	0
Phlyseogrammoceras	0	0	0	0	0	0	0	0	0	0
Pleydellia	0	0	0	0	0	0	0	0	0	0
Podagrosites	0	0	0	0	0	0	0	0	0	0
Polyplectus	0	0	0	0	0	0	0	0	0	0
Protogrammoceras	0	0	0	0	0	0	0	0	0	0
Pseudogrammoceras	0	0	0	0	0	0	0	0	0	0
Pseudolillia	0	0	0	0	0	0	0	0	0	0
Pseudolioceras	0	0	0	0	0	0	0	0	0	0
Shakraceras	0	0	0	0	0	0	0	0	0	0
Taffertia	0	0	0	0	0	0	0	0	0	0
Tauromeniceras	0	0	0	0	0	0	0	0	0	0
Tiltoniceras	0	0	0	0	0	0	0	0	0	0
Tmetoceras	0	0	0	0	0	0	0	0	0	0
Troitsaia	0	0	0	0	0	0	0	0	0	0
Yakounia	0	0	0	0	0	0	0	0	0	0
Kepplerites	0	0	0	0	0	0	0	0	0	0
Aegoceras	0	0	0	0	0	0	0	0	0	0
Androgynoceras	0	0	0	0	0	0	0	0	0	0
Liparoceras	0	0	0	0	0	0	0	0	0	0
Vicininodiceras	0	0	0	0	0	0	0	0	0	0
Adnethiceras	0	0	0	0	0	0	0	0	0	0
Alocolytoceras	0	0	0	0	0	0	0	0	0	0
Analytoceras	0	0	0	0	0	0	0	0	0	0
Baltzerites	0	0	0	0	0	0	0	0	0	0
Bouhamidoceras	0	0	0	0	0	0	0	0	0	0
Castanyiceras	0	0	0	0	0	0	0	0	0	0
Ectocentrites	0	0	0	0	0	0	0	0	0	0
Eolytoceras	0	0	0	0	0	0	0	0	0	0
Exomiloceras	0	0	0	0	0	0	0	0	0	0
Galaticeras	0	0	0	0	0	0	0	0	0	0
Holcolytoceras	0	0	0	0	0	0	0	0	0	0
Kericserites	0	0	0	0	0	0	0	0	0	0
Lobolytoceras	0	0	0	0	0	0	0	0	0	0
Lytoceras	0	0	0	0	0	0	0	0	0	0
Lytotropites	0	0	0	0	0	0	0	0	0	0
Pachylytoceras	0	0	0	0	0	0	0	0	0	0
Pleuroacanthites	0	0	0	0	0	0	0	0	0	0
Pleurolytoceras	0	0	0	0	0	0	0	0	0	0
Tragolytoceras	0	0	0	0	0	0	0	0	0	0
Zaghouanites	0	0	0	0	0	0	0	0	0	0
Indocephalites	0	0	0	0	0	0	0	0	0	0
Bradfordia	0	0	0	0	0	0	0	0	0	0
Rollieria	0	0	0	0	0	0	0	0	0	0
Docidoceras	0	0	0	0	0	0	0	0	0	0
Cheltonia	0	0	0	0	0	0	0	0	0	0
Gleviceras	0	0	0	0	0	0	0	0	0	0
Oxynoticeras	0	0	0	0	0	0	0	0	0	0
Oxynoticeroides	0	0	0	0	0	0	0	0	0	0
Paracymbites	0	0	0	0	0	0	0	0	0	0
Paroxynoticeras	0	0	0	0	0	0	0	0	0	0
Radstockiceras	0	0	0	0	0	0	0	0	0	0
Capreoliceras	0	0	0	0	0	0	0	0	0	0
Foetterleiceras	0	0	0	0	0	0	0	0	0	0
Phricodoceras	0	0	0	0	0	0	0	0	0	0
Pseuduptonia	0	0	0	0	0	0	0	0	0	0
Villania	0	0	0	0	0	0	0	0	0	0
Brodieia	0	0	0	0	0	0	0	0	0	0
Crassiceras	0	0	0	0	0	0	0	0	0	0
Esericeras	0	0	0	0	0	0	0	0	0	0
Furloceras	0	0	0	0	0	0	0	0	0	0
Haugia	0	0	0	0	0	0	0	0	0	0
Haugiella	0	0	0	0	0	0	0	0	0	0
Phymatoceras	0	0	0	0	0	0	0	0	0	0
Pseudomercaticeras	0	0	0	0	0	0	0	0	0	0
Acanthopleuroceras	0	0	0	0	0	0	0	0	0	0
Catriceras	0	0	0	0	0	0	0	0	0	0
Dayiceras	0	0	0	0	0	0	0	0	0	0
Gemmellaroceras	0	0	0	0	0	0	0	0	0	0
Jamesonites	0	0	0	0	0	0	0	0	0	0
Paratropidoceras	0	0	0	0	0	0	0	0	0	0
Parinodiceras	0	0	0	0	0	0	0	0	0	0
Platypleuroceras	0	0	0	0	0	0	0	0	0	0
Polymorphites	0	0	0	0	0	0	0	0	0	0
Tropidoceras	0	0	0	0	0	0	0	0	0	0
Uptonia	0	0	0	0	0	0	0	0	0	0
Badouxia	0	0	0	0	0	0	0	0	0	0
Caloceras	0	0	0	0	0	0	0	0	0	0
Discamphiceras	0	0	0	0	0	0	0	0	0	0
Euphyllites	0	0	0	0	0	0	0	0	0	0
Franziceras	0	0	0	0	0	0	0	0	0	0
Kammerkaroceras	0	0	0	0	0	0	0	0	0	0
Mullerites	0	0	0	0	0	0	0	0	0	0
Neophyllites	0	0	0	0	0	0	0	0	0	0
Paradiscamphiceras	0	0	0	0	0	0	0	0	0	0
Psiloceras	0	0	0	0	0	0	0	0	0	0
Psilophyllites	0	0	0	0	0	0	0	0	0	0
Sunrisites	0	0	0	0	0	0	0	0	0	0
Angulaticeras	0	0	0	0	0	0	0	0	0	0
Kammerkarites	0	0	0	0	0	0	0	0	0	0
Macrogrammites	0	0	0	0	0	0	0	0	0	0
Saxoceras	0	0	0	0	0	0	0	0	0	0
Schlotheimia	0	0	0	0	0	0	0	0	0	0
Waehneroceras	0	0	0	0	0	0	0	0	0	0
Sinuiceras	0	0	0	0	0	0	0	0	0	0
Sphenoacanthites	0	0	0	0	0	0	0	0	0	0
Asthenoceras	0	0	0	0	0	0	0	0	0	0
Fontannesia	0	0	0	0	0	0	0	0	0	0
Sonninia	0	0	0	0	0	0	0	0	0	0
Chondroceras	0	0	0	0	0	0	0	0	0	0
Iniskinites	0	0	0	0	0	0	0	0	0	0
Lilloettia	0	0	0	0	0	0	0	0	0	0
Sphaeroceras	0	0	0	0	0	0	0	0	0	0
Xenocephalites	0	0	0	0	0	0	0	0	0	0
Cadomites	0	0	0	0	0	0	0	0	0	0
Bullatimorphites	0	0	0	0	0	0	0	0	0	0
Dudresnayiceras	0	0	0	0	0	0	0	0	0	0
Oxyarietites	0	0	0	0	0	0	0	0	0	0
Riccardiceras	0	0	0	0	0	0	0	0	0	0
Asteroconites	0	0	0	0	0	0	0	0	0	0
Aulacoceras	0	0	0	0	0	0	0	0	0	0
Dictyoconites	0	0	0	0	0	0	0	0	0	0
Atractites	0	0	0	0	0	0	0	0	0	0
Calliconites	0	0	0	0	0	0	0	0	0	0
Dillerites	0	0	0	0	0	0	0	0	0	0
Cylindroteuthis	0	0	0	0	0	0	0	0	0	0
Prototeuthis	0	0	0	0	0	0	0	0	0	0
Belemnopsis	0	0	0	0	0	0	0	0	0	0
Bairstowius	0	0	0	0	0	0	0	0	0	0
Hastites	0	0	0	0	0	0	0	0	0	0
Pleurobelus	0	0	0	0	0	0	0	0	0	0
Rhabdobelus	0	0	0	0	0	0	0	0	0	0
Subhastites	0	0	0	0	0	0	0	0	0	0
Acrocoelites	0	0	0	0	0	0	0	0	0	0
Cuspiteuthis	0	0	0	0	0	0	0	0	0	0
Dactyloteuthis	0	0	0	0	0	0	0	0	0	0
Nipponoteuthis	0	0	0	0	0	0	0	0	0	0
Angeloteuthis	0	0	0	0	0	0	0	0	0	0
Clastoteuthis	0	0	0	0	0	0	0	0	0	0
Parapassaloteuthis	0	0	0	0	0	0	0	0	0	0
Passaloteuthis	0	0	0	0	0	0	0	0	0	0
Pseudohastites	0	0	0	0	0	0	0	0	0	0
Schwegleria	0	0	0	0	0	0	0	0	0	0
Salpingoteuthis	0	0	0	0	0	0	0	0	0	0
Belemnites	0	0	0	0	0	0	0	0	0	0
Brachybelus	0	0	0	0	0	0	0	0	0	0
Brevibelus	0	0	0	0	0	0	0	0	0	0
Chondroteuthis	0	0	0	0	0	0	0	0	0	0
Conodicoelites	0	0	0	0	0	0	0	0	0	0
Hibolites	0	0	0	0	0	0	0	0	0	0
Holcobelus	0	0	0	0	0	0	0	0	0	0
Homaloteuthis	0	0	0	0	0	0	0	0	0	0
Mesoteuthis	0	0	0	0	0	0	0	0	0	0
Nannobelus	0	0	0	0	0	0	0	0	0	0
Simpsonibelus	0	0	0	0	0	0	0	0	0	0
Sinobelemnites	0	0	0	0	0	0	0	0	0	0
Adygeites	0	0	0	0	0	0	0	0	0	0
Apleuroceras	0	0	0	0	0	0	0	0	0	0
Aplococeras	0	0	0	0	0	0	0	0	0	0
Epiceratites	0	0	0	0	0	0	0	0	0	0
Arcestes	0	0	0	0	0	0	0	0	0	0
Proarcestes	0	0	0	0	0	0	0	0	0	0
Stenarcestes	0	0	0	0	0	0	0	0	0	0
Klipsteinia	0	0	0	0	0	0	0	0	0	0
Badiotites	0	0	0	0	0	0	0	0	0	0
Arctogymnites	0	0	0	0	0	0	0	0	0	0
Pleurofrechites	0	0	0	0	0	0	0	0	0	0
Tuchodiceras	0	0	0	0	0	0	0	0	0	0
Carnites	0	0	0	0	0	0	0	0	0	0
Alkaites	0	0	0	0	0	0	0	0	0	0
Bugunzhites	0	0	0	0	0	0	0	0	0	0
Ceratites	0	0	0	0	0	0	0	0	0	0
Chieseiceras	0	0	0	0	0	0	0	0	0	0
Detoniceras	0	0	0	0	0	0	0	0	0	0
Halilucites	0	0	0	0	0	0	0	0	0	0
Kellnerites	0	0	0	0	0	0	0	0	0	0
Latemarites	0	0	0	0	0	0	0	0	0	0
Nevadites	0	0	0	0	0	0	0	0	0	0
Paraceratites	0	0	0	0	0	0	0	0	0	0
Parakellnerites	0	0	0	0	0	0	0	0	0	0
Reitziites	0	0	0	0	0	0	0	0	0	0
Rossiceras	0	0	0	0	0	0	0	0	0	0
Stoppaniceras	0	0	0	0	0	0	0	0	0	0
Xenoprotrachyceras	0	0	0	0	0	0	0	0	0	0
Yangites	0	0	0	0	0	0	0	0	0	0
Choristoceras	0	0	0	0	0	0	0	0	0	0
Vandaites	0	0	0	0	0	0	0	0	0	0
Cladiscites	0	0	0	0	0	0	0	0	0	0
Hypocladiscites	0	0	0	0	0	0	0	0	0	0
Paracladiscites	0	0	0	0	0	0	0	0	0	0
Sphaerocladiscites	0	0	0	0	0	0	0	0	0	0
Clionitites	0	0	0	0	0	0	0	0	0	0
Leconteia	0	0	0	0	0	0	0	0	0	0
Clydonites	0	0	0	0	0	0	0	0	0	0
Cochloceras	0	0	0	0	0	0	0	0	0	0
Paracochloceras	0	0	0	0	0	0	0	0	0	0
Cycloceltites	0	0	0	0	0	0	0	0	0	0
Neotenoceras	0	0	0	0	0	0	0	0	0	0
Ophiorhabdoceras	0	0	0	0	0	0	0	0	0	0
Orthoceltites	0	0	0	0	0	0	0	0	0	0
Ticinites	0	0	0	0	0	0	0	0	0	0
Didymites	0	0	0	0	0	0	0	0	0	0
Neodidymites	0	0	0	0	0	0	0	0	0	0
Distichites	0	0	0	0	0	0	0	0	0	0
Ectolcites	0	0	0	0	0	0	0	0	0	0
Leiodistichites	0	0	0	0	0	0	0	0	0	0
Paradistichites	0	0	0	0	0	0	0	0	0	0
Pleurodistichites	0	0	0	0	0	0	0	0	0	0
Trachypleuraspidites	0	0	0	0	0	0	0	0	0	0
Dronovites	0	0	0	0	0	0	0	0	0	0
Eosagenites	0	0	0	0	0	0	0	0	0	0
Episculites	0	0	0	0	0	0	0	0	0	0
Hypisculites	0	0	0	0	0	0	0	0	0	0
Parisculites	0	0	0	0	0	0	0	0	0	0
Anagymnites	0	0	0	0	0	0	0	0	0	0
Epigymnites	0	0	0	0	0	0	0	0	0	0
Gymnites	0	0	0	0	0	0	0	0	0	0
Paragymnites	0	0	0	0	0	0	0	0	0	0
Phyllytoceras	0	0	0	0	0	0	0	0	0	0
Protoplatytes	0	0	0	0	0	0	0	0	0	0
Amarassites	0	0	0	0	0	0	0	0	0	0
Anatomites	0	0	0	0	0	0	0	0	0	0
Barrandeites	0	0	0	0	0	0	0	0	0	0
Catenohalorites	0	0	0	0	0	0	0	0	0	0
Eusagenites	0	0	0	0	0	0	0	0	0	0
Gnomohalorites	0	0	0	0	0	0	0	0	0	0
Halorites	0	0	0	0	0	0	0	0	0	0
Hyattites	0	0	0	0	0	0	0	0	0	0
Miltites	0	0	0	0	0	0	0	0	0	0
Paraguembelites	0	0	0	0	0	0	0	0	0	0
Parajuvavites	0	0	0	0	0	0	0	0	0	0
Ptycharcestes	0	0	0	0	0	0	0	0	0	0
Sagenites	0	0	0	0	0	0	0	0	0	0
Trachysagenites	0	0	0	0	0	0	0	0	0	0
Tropihalorites	0	0	0	0	0	0	0	0	0	0
Tropijuvavites	0	0	0	0	0	0	0	0	0	0
Heraclites	0	0	0	0	0	0	0	0	0	0
Wangoceras	0	0	0	0	0	0	0	0	0	0
Hungarites	0	0	0	0	0	0	0	0	0	0
Joannites	0	0	0	0	0	0	0	0	0	0
Romanites	0	0	0	0	0	0	0	0	0	0
Bacchites	0	0	0	0	0	0	0	0	0	0
Dimorphites	0	0	0	0	0	0	0	0	0	0
Discomalayites	0	0	0	0	0	0	0	0	0	0
Dryojuvavites	0	0	0	0	0	0	0	0	0	0
Epijuvavites	0	0	0	0	0	0	0	0	0	0
Goniojuvavites	0	0	0	0	0	0	0	0	0	0
Gonionotites	0	0	0	0	0	0	0	0	0	0
Griesbachites	0	0	0	0	0	0	0	0	0	0
Guembelites	0	0	0	0	0	0	0	0	0	0
Indojuvavites	0	0	0	0	0	0	0	0	0	0
Juvavites	0	0	0	0	0	0	0	0	0	0
Malayites	0	0	0	0	0	0	0	0	0	0
Margarijuvavites	0	0	0	0	0	0	0	0	0	0
Omojuvavites	0	0	0	0	0	0	0	0	0	0
Projuvavites	0	0	0	0	0	0	0	0	0	0
Pseudocardioceras	0	0	0	0	0	0	0	0	0	0
Dieneria	0	0	0	0	0	0	0	0	0	0
Klamathites	0	0	0	0	0	0	0	0	0	0
Parahauerites	0	0	0	0	0	0	0	0	0	0
Lecanites	0	0	0	0	0	0	0	0	0	0
Coroceras	0	0	0	0	0	0	0	0	0	0
Lobites	0	0	0	0	0	0	0	0	0	0
Paralobites	0	0	0	0	0	0	0	0	0	0
Intornites	0	0	0	0	0	0	0	0	0	0
Longobardites	0	0	0	0	0	0	0	0	0	0
Megaphyllites	0	0	0	0	0	0	0	0	0	0
Nitanoceras	0	0	0	0	0	0	0	0	0	0
Gabboceras	0	0	0	0	0	0	0	0	0	0
Lissonites	0	0	0	0	0	0	0	0	0	0
Metasibirites	0	0	0	0	0	0	0	0	0	0
Tozeria	0	0	0	0	0	0	0	0	0	0
Eonathorstites	0	0	0	0	0	0	0	0	0	0
Indigirites	0	0	0	0	0	0	0	0	0	0
Nathorstites	0	0	0	0	0	0	0	0	0	0
Stolleyites	0	0	0	0	0	0	0	0	0	0
Tsvetkovites	0	0	0	0	0	0	0	0	0	0
Nairites	0	0	0	0	0	0	0	0	0	0
Noridiscites	0	0	0	0	0	0	0	0	0	0
Norites	0	0	0	0	0	0	0	0	0	0
Parathisbites	0	0	0	0	0	0	0	0	0	0
Phormedites	0	0	0	0	0	0	0	0	0	0
Eupinacoceras	0	0	0	0	0	0	0	0	0	0
Pinacoceras	0	0	0	0	0	0	0	0	0	0
Nevadisculites	0	0	0	0	0	0	0	0	0	0
Arctoptychites	0	0	0	0	0	0	0	0	0	0
Aristoptychites	0	0	0	0	0	0	0	0	0	0
Flexoptychites	0	0	0	0	0	0	0	0	0	0
Istreites	0	0	0	0	0	0	0	0	0	0
Ptychites	0	0	0	0	0	0	0	0	0	0
Peripleurites	0	0	0	0	0	0	0	0	0	0
Rhabdoceras	0	0	0	0	0	0	0	0	0	0
Rimkinites	0	0	0	0	0	0	0	0	0	0
Sageceras	0	0	0	0	0	0	0	0	0	0
Eremites	0	0	0	0	0	0	0	0	0	0
Sandlingites	0	0	0	0	0	0	0	0	0	0
Shastites	0	0	0	0	0	0	0	0	0	0
Traskites	0	0	0	0	0	0	0	0	0	0
Sphingites	0	0	0	0	0	0	0	0	0	0
Alloclionites	0	0	0	0	0	0	0	0	0	0
Bihatites	0	0	0	0	0	0	0	0	0	0
Brouwerites	0	0	0	0	0	0	0	0	0	0
Eosteinmannites	0	0	0	0	0	0	0	0	0	0
Metaclionites	0	0	0	0	0	0	0	0	0	0
Nannosteinmannites	0	0	0	0	0	0	0	0	0	0
Steinmannites	0	0	0	0	0	0	0	0	0	0
Discoptychites	0	0	0	0	0	0	0	0	0	0
Parasturia	0	0	0	0	0	0	0	0	0	0
Sturia	0	0	0	0	0	0	0	0	0	0
Drumoceras	0	0	0	0	0	0	0	0	0	0
Thanamites	0	0	0	0	0	0	0	0	0	0
Acanthothetidites	0	0	0	0	0	0	0	0	0	0
Eothetidites	0	0	0	0	0	0	0	0	0	0
Helictites	0	0	0	0	0	0	0	0	0	0
Idaoceras	0	0	0	0	0	0	0	0	0	0
Leislingites	0	0	0	0	0	0	0	0	0	0
Nassichukites	0	0	0	0	0	0	0	0	0	0
Parathetidites	0	0	0	0	0	0	0	0	0	0
Pseudothetidites	0	0	0	0	0	0	0	0	0	0
Thetidites	0	0	0	0	0	0	0	0	0	0
Hadrothisbites	0	0	0	0	0	0	0	0	0	0
Metathisbites	0	0	0	0	0	0	0	0	0	0
Mojsisovicsites	0	0	0	0	0	0	0	0	0	0
Stikinoceras	0	0	0	0	0	0	0	0	0	0
Thisbites	0	0	0	0	0	0	0	0	0	0
Tropithisbites	0	0	0	0	0	0	0	0	0	0
Acanthinites	0	0	0	0	0	0	0	0	0	0
Acanthodrepanites	0	0	0	0	0	0	0	0	0	0
Ammotibetites	0	0	0	0	0	0	0	0	0	0
Anatibetites	0	0	0	0	0	0	0	0	0	0
Carinacanthites	0	0	0	0	0	0	0	0	0	0
Cyrtopleurites	0	0	0	0	0	0	0	0	0	0
Dimorphotoceras	0	0	0	0	0	0	0	0	0	0
Dionites	0	0	0	0	0	0	0	0	0	0
Drepanites	0	0	0	0	0	0	0	0	0	0
Gandakites	0	0	0	0	0	0	0	0	0	0
Hauerites	0	0	0	0	0	0	0	0	0	0
Himavatites	0	0	0	0	0	0	0	0	0	0
Lanpingoceras	0	0	0	0	0	0	0	0	0	0
Lipuites	0	0	0	0	0	0	0	0	0	0
Mesohimavatites	0	0	0	0	0	0	0	0	0	0
Metacarnites	0	0	0	0	0	0	0	0	0	0
Neohimavatites	0	0	0	0	0	0	0	0	0	0
Neotibetites	0	0	0	0	0	0	0	0	0	0
Nodotibetites	0	0	0	0	0	0	0	0	0	0
Oxytibetites	0	0	0	0	0	0	0	0	0	0
Palicites	0	0	0	0	0	0	0	0	0	0
Paratibetites	0	0	0	0	0	0	0	0	0	0
Prodrepanites	0	0	0	0	0	0	0	0	0	0
Sirenotibetites	0	0	0	0	0	0	0	0	0	0
Thiniites	0	0	0	0	0	0	0	0	0	0
Tibetites	0	0	0	0	0	0	0	0	0	0
Xenodrepanites	0	0	0	0	0	0	0	0	0	0
Anasirenites	0	0	0	0	0	0	0	0	0	0
Anolcites	0	0	0	0	0	0	0	0	0	0
Arctoarpadites	0	0	0	0	0	0	0	0	0	0
Arctosirenites	0	0	0	0	0	0	0	0	0	0
Argolites	0	0	0	0	0	0	0	0	0	0
Argosirenites	0	0	0	0	0	0	0	0	0	0
Arpadites	0	0	0	0	0	0	0	0	0	0
Asklepioceras	0	0	0	0	0	0	0	0	0	0
Austrotrachyceras	0	0	0	0	0	0	0	0	0	0
Boreotrachyceras	0	0	0	0	0	0	0	0	0	0
Brotheotrachyceras	0	0	0	0	0	0	0	0	0	0
Daxatina	0	0	0	0	0	0	0	0	0	0
Dittmarites	0	0	0	0	0	0	0	0	0	0
Eoprotrachyceras	0	0	0	0	0	0	0	0	0	0
Frankites	0	0	0	0	0	0	0	0	0	0
Hannaoceras	0	0	0	0	0	0	0	0	0	0
Haoceras	0	0	0	0	0	0	0	0	0	0
Hisnitites	0	0	0	0	0	0	0	0	0	0
Liardites	0	0	0	0	0	0	0	0	0	0
Maclearnoceras	0	0	0	0	0	0	0	0	0	0
Meginoceras	0	0	0	0	0	0	0	0	0	0
Muensterites	0	0	0	0	0	0	0	0	0	0
Neoprotrachyceras	0	0	0	0	0	0	0	0	0	0
Neosirenites	0	0	0	0	0	0	0	0	0	0
Norosirenites	0	0	0	0	0	0	0	0	0	0
Okhototrachyceras	0	0	0	0	0	0	0	0	0	0
Pamphagosirenites	0	0	0	0	0	0	0	0	0	0
Paratrachyceras	0	0	0	0	0	0	0	0	0	0
Protrachyceras	0	0	0	0	0	0	0	0	0	0
Pseudosirenites	0	0	0	0	0	0	0	0	0	0
Pterosirenites	0	0	0	0	0	0	0	0	0	0
Seimkanites	0	0	0	0	0	0	0	0	0	0
Silenticeras	0	0	0	0	0	0	0	0	0	0
Sinomeginoceras	0	0	0	0	0	0	0	0	0	0
Sirenites	0	0	0	0	0	0	0	0	0	0
Sirenotrachyceras	0	0	0	0	0	0	0	0	0	0
Spirogmoceras	0	0	0	0	0	0	0	0	0	0
Striatosirenites	0	0	0	0	0	0	0	0	0	0
Sympolycyclus	0	0	0	0	0	0	0	0	0	0
Trachyceras	0	0	0	0	0	0	0	0	0	0
Trachystenoceras	0	0	0	0	0	0	0	0	0	0
Yakutosirenites	0	0	0	0	0	0	0	0	0	0
Zestoceras	0	0	0	0	0	0	0	0	0	0
Discostyrites	0	0	0	0	0	0	0	0	0	0
Styrites	0	0	0	0	0	0	0	0	0	0
Tardeceras	0	0	0	0	0	0	0	0	0	0
Tornquistites	0	0	0	0	0	0	0	0	0	0
Tropiceltites	0	0	0	0	0	0	0	0	0	0
Acanthotropites	0	0	0	0	0	0	0	0	0	0
Anatropites	0	0	0	0	0	0	0	0	0	0
Arctotropites	0	0	0	0	0	0	0	0	0	0
Arietoceltites	0	0	0	0	0	0	0	0	0	0
Discotropites	0	0	0	0	0	0	0	0	0	0
Euisculites	0	0	0	0	0	0	0	0	0	0
Gymnotropites	0	0	0	0	0	0	0	0	0	0
Homerites	0	0	0	0	0	0	0	0	0	0
Hoplotropites	0	0	0	0	0	0	0	0	0	0
Indonesites	0	0	0	0	0	0	0	0	0	0
Jovites	0	0	0	0	0	0	0	0	0	0
Margarites	0	0	0	0	0	0	0	0	0	0
Margaritropites	0	0	0	0	0	0	0	0	0	0
Microtropites	0	0	0	0	0	0	0	0	0	0
Paratropites	0	0	0	0	0	0	0	0	0	0
Pleurotropites	0	0	0	0	0	0	0	0	0	0
Sibyllites	0	0	0	0	0	0	0	0	0	0
Tropites	0	0	0	0	0	0	0	0	0	0
Paraganides	0	0	0	0	0	0	0	0	0	0
Loligosepia	0	0	0	0	0	0	0	0	0	0
Cenoceras	0	0	0	0	0	0	0	0	0	0
Digonioceras	0	0	0	0	0	0	0	0	0	0
Ophionautilus	0	0	0	0	0	0	0	0	0	0
Clydonautilus	0	0	0	0	0	0	0	0	0	0
Cosmonautilus	0	0	0	0	0	0	0	0	0	0
Proclydonautilus	0	0	0	0	0	0	0	0	0	0
Styrionautilus	0	0	0	0	0	0	0	0	0	0
Gonionautilus	0	0	0	0	0	0	0	0	0	0
Grypoceras	0	0	0	0	0	0	0	0	0	0
Gryponautilus	0	0	0	0	0	0	0	0	0	0
Paranautilus	0	0	0	0	0	0	0	0	0	0
Perunautilus	0	0	0	0	0	0	0	0	0	0
Belmonticeras	0	0	0	0	0	0	0	0	0	0
Ligeiceras	0	0	0	0	0	0	0	0	0	0
Pseudaganides	0	0	0	0	0	0	0	0	0	0
Siberionautilus	0	0	0	0	0	0	0	0	0	0
Clymenonautilus	0	0	0	0	0	0	0	0	0	0
Juvavionautilus	0	0	0	0	0	0	0	0	0	0
Oxynautilus	0	0	0	0	0	0	0	0	0	0
Syringoceras	0	0	0	0	0	0	0	0	0	0
Syringonautilus	0	0	0	0	0	0	0	0	0	0
Encoiloceras	0	0	0	0	0	0	0	0	0	0
Enoploceras	0	0	0	0	0	0	0	0	0	0
Germanonautilus	0	0	0	0	0	0	0	0	0	0
Grumantoceras	0	0	0	0	0	0	0	0	0	0
Holconautilus	0	0	0	0	0	0	0	0	0	0
Mojsvaroceras	0	0	0	0	0	0	0	0	0	0
Phloioceras	0	0	0	0	0	0	0	0	0	0
Pleuronautilus	0	0	0	0	0	0	0	0	0	0
Sibyllonautilus	0	0	0	0	0	0	0	0	0	0
Yakutionautilus	0	0	0	0	0	0	0	0	0	0
Michelinoceras	0	0	0	0	0	0	0	0	0	0
Orthoceras	0	0	0	0	0	0	0	0	0	0
Trematoceras	0	0	0	0	0	0	0	0	0	0
Belemnoteuthis	0	0	0	0	0	0	0	0	0	0
Discophyllites	0	0	0	0	0	0	0	0	0	0
Rhacophyllites	0	0	0	0	0	0	0	0	0	0
Tragorhacoceras	0	0	0	0	0	0	0	0	0	0
Fergusonites	0	0	0	0	0	0	0	0	0	0
Juraphyllites	0	0	0	0	0	0	0	0	0	0
Nevadaphyllites	0	0	0	0	0	0	0	0	0	0
Paradasyceras	0	0	0	0	0	0	0	0	0	0
Togaticeras	0	0	0	0	0	0	0	0	0	0
Tragophylloceras	0	0	0	0	0	0	0	0	0	0
Adabofoloceras	0	0	0	0	0	0	0	0	0	0
Calaiceras	0	0	0	0	0	0	0	0	0	0
Calliphylloceras	0	0	0	0	0	0	0	0	0	0
Hantkeniceras	0	0	0	0	0	0	0	0	0	0
Holcophylloceras	0	0	0	0	0	0	0	0	0	0
Partschiceras	0	0	0	0	0	0	0	0	0	0
Phylloceras	0	0	0	0	0	0	0	0	0	0
Ptychophylloceras	0	0	0	0	0	0	0	0	0	0
Zetoceras	0	0	0	0	0	0	0	0	0	0
Eopsiloceras	0	0	0	0	0	0	0	0	0	0
Indigirophyllites	0	0	0	0	0	0	0	0	0	0
Metatirolites	0	0	0	0	0	0	0	0	0	0
Mojsvarites	0	0	0	0	0	0	0	0	0	0
Monophyllites	0	0	0	0	0	0	0	0	0	0
Palaeophyllites	0	0	0	0	0	0	0	0	0	0
Simonyceras	0	0	0	0	0	0	0	0	0	0
Ussurites	0	0	0	0	0	0	0	0	0	0
Wopfingites	0	0	0	0	0	0	0	0	0	0
Arctophyllites	0	0	0	0	0	0	0	0	0	0
Kolymophylloceras	0	0	0	0	0	0	0	0	0	0
Platyphylloceras	0	0	0	0	0	0	0	0	0	0
Schistophylloceras	0	0	0	0	0	0	0	0	0	0
Yukagirites	0	0	0	0	0	0	0	0	0	0
Lioteuthis	0	0	0	0	0	0	0	0	0	0
Celtites	0	0	0	0	0	0	0	0	0	0
Kasimlarceltites	0	0	0	0	0	0	0	0	0	0
Homeroceras	0	0	0	0	0	0	0	0	0	0
Ausseites	0	0	0	0	0	0	0	0	0	0
Odoghertyceras	0	0	0	0	0	0	0	0	0	0
Osperlioceras	0	0	0	0	0	0	0	0	0	0
