taxon	int1	int2	int3	int4	int5	int6	int7	int8	int9	int10
Palaeocomaster	0	13	26	28	22	12	11	25	59	32
Bilecicrinus	0	0	0	0	0	0	0	0	0	0
Capsicocrinus	0	0	0	0	0	0	0	0	0	0
Cotylederma	0	0	0	0	0	0	0	0	0	0
Dinardocrinus	0	0	0	0	0	0	0	0	0	0
Eudesicrinus	0	0	0	0	0	0	0	0	0	0
Eugeniacrinites	0	0	0	0	0	0	0	0	0	0
Gutticrinus	0	0	0	0	0	0	0	0	0	0
Paraeotylederma	0	0	0	0	0	0	0	0	0	0
Plicatocrinus	0	0	0	0	0	0	0	0	0	0
Quenstedticrinus	0	0	0	0	0	0	0	0	0	0
Sacariaerinus	0	0	0	0	0	0	0	0	0	0
Tetracrinus	0	0	0	0	0	0	0	0	0	0
Cassianocrinus	0	0	0	0	0	0	0	0	0	0
Chelocrinus	0	0	0	0	0	0	0	0	0	0
Encrinus	0	0	0	0	0	0	0	0	0	0
Zardinicrinus	0	0	0	0	0	0	0	0	0	0
Ainigmacrinus	0	0	0	0	0	0	0	0	0	0
Traumatocrinus	0	0	0	0	0	0	0	0	0	0
Vostocovacrinus	0	0	0	0	0	0	0	0	0	0
Eocomatula	0	0	0	0	0	0	0	0	0	0
Holocrinus	0	0	0	0	0	0	0	0	0	0
Bakonycrinus	0	0	0	0	0	0	0	0	0	0
Balanocrinus	0	0	0	0	0	0	0	0	0	0
Chariocrinus	0	0	0	0	0	0	0	0	0	0
Chladocrinus	0	0	0	0	0	0	0	0	0	0
Isocrinus	0	0	0	0	0	0	0	0	0	0
Tyrolecrinus	0	0	0	0	0	0	0	0	0	0
Cenocrinus	0	0	0	0	0	0	0	0	0	0
Paracomatula	0	0	0	0	0	0	0	0	0	0
Pentacrinites	0	0	0	0	0	0	0	0	0	0
Seirocrinus	0	0	0	0	0	0	0	0	0	0
Tulipacrinus	0	0	0	0	0	0	0	0	0	0
Hispidocrinus	0	0	0	0	0	0	0	0	0	0
Laevigatocrinus	0	0	0	0	0	0	0	0	0	0
Margocrinus	0	0	0	0	0	0	0	0	0	0
Procomaster	0	0	0	0	0	0	0	0	0	0
Singularocrinus	0	0	0	0	0	0	0	0	0	0
Terocrinus	0	0	0	0	0	0	0	0	0	0
Tollmannicrinus	0	0	0	0	0	0	0	0	0	0
Amaltheocrinus	0	0	0	0	0	0	0	0	0	0
Shroshaecrinus	0	0	0	0	0	0	0	0	0	0
Praetetracrinus	0	0	0	0	0	0	0	0	0	0
Dadocrinus	0	0	0	0	0	0	0	0	0	0
Millericrinus	0	0	0	0	0	0	0	0	0	0
Neodadocrinus	0	0	0	0	0	0	0	0	0	0
Pomatocrinus	0	0	0	0	0	0	0	0	0	0
Souticrinus	0	0	0	0	0	0	0	0	0	0
Somphocrinus	0	0	0	0	0	0	0	0	0	0
Axicrinus	0	0	0	0	0	0	0	0	0	0
Ossicrinus	0	0	0	0	0	0	0	0	0	0
Osteocrinus	0	0	0	0	0	0	0	0	0	0
Poculicrinus	0	0	0	0	0	0	0	0	0	0
Lanternocrinus	0	0	0	0	0	0	0	0	0	0
Lotocrinus	0	0	0	0	0	0	0	0	0	0
Nasutocrinus	0	0	0	0	0	0	0	0	0	0
Leocrinus	0	0	0	0	0	0	0	0	0	0
Acariaeocrinus	0	0	0	0	0	0	0	0	0	0
Bihaticrinus	0	0	0	0	0	0	0	0	0	0
Nodolanx	0	0	0	0	0	0	0	0	0	0
