taxon	min	max
Eosalenia	172.2	190.8
Clypeus	172.2	172.2
Pygurus	172.2	172.2
Galeropygus	176.2	176.2
Nucleolites	172.2	172.2
Bothryopneustes	172.2	172.2
Balanocidaris	172.2	232
Cidaris	172.2	239.25
Paracidaris	172.2	239.25
Rhabdocidaris	172.2	239.25
Triassicidaris	203.35	232
Diadema	172.2	201.3
Eodiadema	176.2	200.1
Mesodiadema	176.2	239.25
Diplocidaris	172.2	187.55
Polycidaris	172.2	232
Anaulocidaris	226.5	239.25
Dicyclocidaris	226.5	232
Miocidaris	187.55	239.25
Pachycidaris	172.2	187.55
Procidaris	172.2	239.25
Serpianotiaris	239.25	239.25
Levicidaris	203.35	239.25
Megaporocidaris	226.5	239.25
Mikrocidaris	226.5	239.25
Parvicidaris	203.35	215.25
Triadocidaris	203.35	239.25
Vinchuscanchaia	195.3	215.25
Zardinechinus	195.3	239.25
Triadotiaris	226.5	239.25
Leurocidaris	226.5	239.25
Paurocidaris	226.5	239.25
Engelia	176.2	201.3
Gymnocidaris	172.2	172.2
Hemicidaris	172.2	187.55
Hessotiara	172.2	200.1
Plesiocidaris	172.2	201.3
Pseudocidaris	172.2	199.3
Sphaerotiaris	172.2	187.55
Diplopodia	172.2	201.3
Hypodiadema	172.2	190.8
Microdiadema	187.55	190.8
Polydiadema	172.2	187.55
Pseudodiadema	172.2	203.35
Trochotiara	172.2	190.8
Holectypus	172.2	190.8
Dubarechinus	187.55	187.55
Diademopsis	172.2	215.25
Hemipedina	172.2	226.5
Palaeopedina	172.2	201.3
Pedina	172.2	199.3
Pseudopedina	172.2	187.55
Jacquiertia	176.2	180.5
Leptechinus	172.2	190.8
Micropsis	172.2	180.5
Leioechinus	172.2	172.2
Tiarechinus	226.5	239.25
Atlasaster	199.3	199.3
Plesiechinus	172.2	199.3
Pygaster	172.2	187.55
Acrosalenia	172.2	180.5
Recrosalenia	172.2	172.2
Diplechinus	172.2	187.55
Echinotiara	172.2	180.5
Jeannetia	172.2	201.3
Polycyphus	172.2	172.2
Psephechinus	172.2	180.5
Parastomechinus	172.2	172.2
Pygomalus	172.2	199.3
Heterocidaris	172.2	187.55
Crinocidaris	203.35	239.25
Loriolella	187.55	187.55
Radiolus	203.35	239.25
