taxon	min	max
Aplocoma	187.55	239.25
Arenorbis	239.25	239.25
Geocoma	172.2	180.5
Sinosura	172.2	199.3
Sigsbeia	187.55	190.8
Inexpectacantha	187.55	190.8
Leadagmara	226.5	232
Ophiacantha	172.2	203.35
Ophioderma	187.55	239.25
Palaeocoma	176.2	239.25
Mesophiomusium	172.2	180.5
Ophiolepis	203.35	203.35
Ophiomusium	172.2	239.25
Aspiduriella	203.35	239.25
Eirenura	187.55	190.8
Ophiocrossota	172.2	201.3
Ophiocten	172.2	201.3
Ophiura	172.2	172.2
Stephanouropsis	239.25	239.25
Ophiotrapezium	172.2	180.5
Ophiuricoma	172.2	172.2
Ophioflabellum	207.95	215.25
