taxon	min	max
Amaltheus	187.55	187.55
Amauroceras	187.55	187.55
Pleuroceras	187.55	187.55
Aegasteroceras	195.3	195.3
Agassiceras	199.3	199.3
Alsatites	200.1	200.1
Arctoasteroceras	195.3	199.3
Arnioceras	195.3	199.3
Asteroceras	195.3	195.3
Bagnolites	195.3	199.3
Caenisites	199.3	199.3
Coroniceras	199.3	199.3
Eparietites	195.3	199.3
Epophioceras	195.3	199.3
Euagassiceras	199.3	199.3
Guexiceras	195.3	199.3
Hypasteroceras	195.3	199.3
Metophioceras	195.3	199.3
Parasteroceras	187.55	199.3
Pseudaetomoceras	200.1	201.3
Tipperoceras	195.3	199.3
Tmaegoceras	199.3	199.3
Vermiceras	199.3	200.1
Clydoniceras	172.2	172.2
Apoderoceras	190.8	190.8
Bakonyceras	187.55	199.3
Coeloceras	190.8	199.3
Miltoceras	187.55	199.3
Pseudoskirroceras	187.55	190.8
Tetraspidoceras	190.8	195.3
Zamaiceras	187.55	190.8
Cymbites	187.55	199.3
Hyerifalchia	195.3	199.3
Aveyroniceras	187.55	190.8
Bettoniceras	187.55	190.8
Catacoeloceras	176.2	180.5
Cetonoceras	187.55	190.8
Collina	176.2	180.5
Dactylioceras	180.5	187.55
Mesodactylites	176.2	180.5
Nodicoeloceras	180.5	180.5
Peronoceras	180.5	180.5
Porpoceras	180.5	180.5
Prodactylioceras	187.55	190.8
Reynesoceras	187.55	190.8
Reynesocoeloceras	187.55	187.55
Zugodactylites	180.5	180.5
Echioceras	195.3	195.3
Gagaticeras	195.3	195.3
Leptechioceras	195.3	195.3
Palaeoechioceras	195.3	199.3
Paltechioceras	195.3	195.3
Plesechioceras	195.3	199.3
Appenninoceras	195.3	199.3
Bifericeras	195.3	195.3
Callomoniceras	195.3	199.3
Crucilobiceras	195.3	195.3
Dubariceras	187.55	199.3
Eoamaltheus	187.55	199.3
Eoderoceras	187.55	195.3
Eteoderoceras	187.55	190.8
Fanninoceras	180.5	190.8
Hyperderoceras	190.8	190.8
Metaderoceras	190.8	190.8
Microderoceras	195.3	199.3
Paramicroderoceras	187.55	199.3
Promicroceras	195.3	199.3
Xipheroceras	195.3	195.3
Brasilia	172.2	172.2
Canavarella	172.2	172.2
Cylicoceras	172.2	172.2
Graphoceras	172.2	172.2
Hyperlioceras	172.2	172.2
Leioceras	172.2	176.2
Ludwigia	172.2	172.2
Staufenia	172.2	172.2
Abbasites	172.2	180.5
Abbasitoides	172.2	172.2
Accardia	172.2	172.2
Bredyia	172.2	180.5
Cagliceras	172.2	180.5
Crestaites	176.2	180.5
Csernyeiceras	172.2	172.2
Erycites	172.2	176.2
Erycitoides	172.2	172.2
Euaptetoceras	172.2	176.2
Eudmetoceras	172.2	172.2
Hammatoceras	172.2	176.2
Haplopleuroceras	172.2	172.2
Malladaites	172.2	176.2
Onychoceras	176.2	176.2
Planammatoceras	172.2	176.2
Pseudaptetoceras	172.2	172.2
Puchenquia	172.2	172.2
Sphaerocoeloceras	172.2	176.2
Spinammatoceras	172.2	172.2
Zurcheria	172.2	172.2
Arieticeras	172.2	187.55
Bouleiceras	176.2	180.5
Canavaria	176.2	187.55
Catulloceras	172.2	176.2
Cingolites	176.2	180.5
Cleviceras	176.2	180.5
Cotteswoldia	172.2	172.2
Dumortieria	176.2	176.2
Eleganticeras	180.5	180.5
Emaciaticeras	187.55	187.55
Fontanelliceras	180.5	187.55
Frechiella	180.5	180.5
Fuciniceras	180.5	190.8
Grammoceras	172.2	176.2
Gruneria	176.2	180.5
Harpoceras	172.2	180.5
Hildaites	180.5	180.5
Hildoceras	172.2	180.5
Hudlestonia	176.2	176.2
Jacobella	176.2	180.5
Kohaticeras	176.2	180.5
Leptaleoceras	187.55	187.55
Leukadiella	180.5	180.5
Lioceratoides	187.55	187.55
Mauretaniaceras	187.55	190.8
Mercaticeras	180.5	180.5
Nejdia	176.2	176.2
Orthildaites	180.5	180.5
Osperleioceras	176.2	180.5
Ovaticeras	180.5	180.5
Parahildaites	180.5	180.5
Paroniceras	176.2	180.5
Phlyseogrammoceras	176.2	176.2
Pleydellia	172.2	176.2
Podagrosites	176.2	180.5
Polyplectus	176.2	180.5
Protogrammoceras	180.5	190.8
Pseudogrammoceras	176.2	176.2
Pseudolillia	176.2	176.2
Pseudolioceras	172.2	180.5
Shakraceras	176.2	180.5
Taffertia	180.5	180.5
Tauromeniceras	187.55	190.8
Tiltoniceras	180.5	187.55
Tmetoceras	172.2	176.2
Troitsaia	172.2	172.2
Yakounia	176.2	176.2
Kepplerites	172.2	172.2
Aegoceras	190.8	190.8
Androgynoceras	190.8	190.8
Liparoceras	187.55	190.8
Vicininodiceras	190.8	195.3
Adnethiceras	195.3	199.3
Alocolytoceras	172.2	190.8
Analytoceras	201.3	201.3
Baltzerites	187.55	190.8
Bouhamidoceras	195.3	199.3
Castanyiceras	187.55	190.8
Ectocentrites	195.3	200.1
Eolytoceras	200.1	201.3
Exomiloceras	195.3	199.3
Galaticeras	187.55	199.3
Holcolytoceras	176.2	190.8
Kericserites	195.3	199.3
Lobolytoceras	176.2	180.5
Lytoceras	172.2	195.3
Lytotropites	195.3	199.3
Pachylytoceras	172.2	176.2
Pleuroacanthites	200.1	201.3
Pleurolytoceras	176.2	180.5
Tragolytoceras	199.3	199.3
Zaghouanites	187.55	190.8
Indocephalites	172.2	172.2
Bradfordia	172.2	172.2
Rollieria	176.2	190.8
Docidoceras	172.2	172.2
Cheltonia	195.3	195.3
Gleviceras	190.8	195.3
Oxynoticeras	190.8	195.3
Oxynoticeroides	195.3	199.3
Paracymbites	195.3	195.3
Paroxynoticeras	195.3	195.3
Radstockiceras	190.8	195.3
Capreoliceras	187.55	190.8
Foetterleiceras	187.55	190.8
Phricodoceras	187.55	195.3
Pseuduptonia	190.8	195.3
Villania	172.2	190.8
Brodieia	176.2	176.2
Crassiceras	176.2	176.2
Esericeras	176.2	176.2
Furloceras	176.2	180.5
Haugia	172.2	176.2
Haugiella	176.2	180.5
Phymatoceras	172.2	180.5
Pseudomercaticeras	176.2	176.2
Acanthopleuroceras	190.8	199.3
Catriceras	187.55	190.8
Dayiceras	190.8	190.8
Gemmellaroceras	190.8	195.3
Jamesonites	187.55	190.8
Paratropidoceras	187.55	190.8
Parinodiceras	190.8	190.8
Platypleuroceras	190.8	190.8
Polymorphites	190.8	190.8
Tropidoceras	190.8	195.3
Uptonia	190.8	190.8
Badouxia	195.3	201.3
Caloceras	200.1	201.3
Discamphiceras	200.1	201.3
Euphyllites	200.1	201.3
Franziceras	200.1	201.3
Kammerkaroceras	200.1	200.1
Mullerites	200.1	201.3
Neophyllites	200.1	201.3
Paradiscamphiceras	200.1	201.3
Psiloceras	201.3	201.3
Psilophyllites	200.1	203.35
Sunrisites	200.1	201.3
Angulaticeras	195.3	201.3
Kammerkarites	200.1	201.3
Macrogrammites	200.1	201.3
Saxoceras	200.1	200.1
Schlotheimia	199.3	200.1
Waehneroceras	200.1	200.1
Sinuiceras	187.55	190.8
Sphenoacanthites	187.55	190.8
Asthenoceras	172.2	172.2
Fontannesia	172.2	172.2
Sonninia	172.2	172.2
Chondroceras	172.2	172.2
Iniskinites	172.2	172.2
Lilloettia	172.2	172.2
Sphaeroceras	172.2	172.2
Xenocephalites	172.2	172.2
Cadomites	172.2	172.2
Bullatimorphites	172.2	172.2
Dudresnayiceras	195.3	199.3
Oxyarietites	195.3	199.3
Riccardiceras	176.2	180.5
Asteroconites	207.95	215.25
Aulacoceras	207.95	239.25
Dictyoconites	207.95	232
Atractites	176.2	232
Calliconites	207.95	239.25
Dillerites	226.5	232
Cylindroteuthis	172.2	199.3
Prototeuthis	187.55	190.8
Belemnopsis	172.2	176.2
Bairstowius	187.55	190.8
Hastites	172.2	190.8
Pleurobelus	187.55	187.55
Rhabdobelus	172.2	176.2
Subhastites	187.55	190.8
Acrocoelites	172.2	180.5
Cuspiteuthis	176.2	180.5
Dactyloteuthis	176.2	199.3
Nipponoteuthis	195.3	199.3
Angeloteuthis	187.55	190.8
Clastoteuthis	187.55	190.8
Parapassaloteuthis	180.5	187.55
Passaloteuthis	180.5	187.55
Pseudohastites	180.5	190.8
Schwegleria	200.1	201.3
Salpingoteuthis	172.2	180.5
Belemnites	172.2	201.3
Brachybelus	172.2	199.3
Brevibelus	172.2	176.2
Chondroteuthis	180.5	180.5
Conodicoelites	172.2	190.8
Hibolites	172.2	172.2
Holcobelus	172.2	172.2
Homaloteuthis	172.2	172.2
Mesoteuthis	172.2	180.5
Nannobelus	176.2	200.1
Simpsonibelus	176.2	180.5
Sinobelemnites	226.5	232
Adygeites	203.35	203.35
Apleuroceras	232	239.25
Aplococeras	239.25	239.25
Epiceratites	226.5	226.5
Arcestes	203.35	239.25
Proarcestes	203.35	239.25
Stenarcestes	203.35	212.875
Klipsteinia	232	232
Badiotites	232	232
Arctogymnites	239.25	239.25
Pleurofrechites	239.25	239.25
Tuchodiceras	239.25	239.25
Carnites	226.5	232
Alkaites	239.25	239.25
Bugunzhites	239.25	239.25
Ceratites	232	239.25
Chieseiceras	239.25	239.25
Detoniceras	239.25	239.25
Halilucites	239.25	239.25
Kellnerites	239.25	239.25
Latemarites	239.25	239.25
Nevadites	239.25	239.25
Paraceratites	239.25	239.25
Parakellnerites	239.25	239.25
Reitziites	239.25	239.25
Rossiceras	226.5	232
Stoppaniceras	239.25	239.25
Xenoprotrachyceras	239.25	239.25
Yangites	239.25	239.25
Choristoceras	203.35	207.95
Vandaites	203.35	203.35
Cladiscites	203.35	239.25
Hypocladiscites	207.95	232
Paracladiscites	203.35	232
Sphaerocladiscites	232	239.25
Clionitites	215.25	239.25
Leconteia	226.5	232
Clydonites	212.875	212.875
Cochloceras	207.95	207.95
Paracochloceras	203.35	203.35
Cycloceltites	203.35	207.95
Neotenoceras	226.5	232
Ophiorhabdoceras	207.95	215.25
Orthoceltites	232	239.25
Ticinites	239.25	239.25
Didymites	212.875	212.875
Neodidymites	207.95	215.25
Distichites	212.875	212.875
Ectolcites	212.875	212.875
Leiodistichites	207.95	215.25
Paradistichites	212.875	212.875
Pleurodistichites	212.875	212.875
Trachypleuraspidites	212.875	212.875
Dronovites	207.95	215.25
Eosagenites	226.5	239.25
Episculites	212.875	212.875
Hypisculites	212.875	212.875
Parisculites	207.95	232
Anagymnites	239.25	239.25
Epigymnites	239.25	239.25
Gymnites	232	239.25
Paragymnites	207.95	215.25
Phyllytoceras	203.35	232
Protoplatytes	203.35	207.95
Amarassites	212.875	212.875
Anatomites	215.25	215.25
Barrandeites	226.5	239.25
Catenohalorites	207.95	215.25
Eusagenites	226.5	226.5
Gnomohalorites	207.95	207.95
Halorites	207.95	212.875
Hyattites	207.95	207.95
Miltites	215.25	215.25
Paraguembelites	207.95	207.95
Parajuvavites	212.875	212.875
Ptycharcestes	207.95	232
Sagenites	203.35	212.875
Trachysagenites	226.5	226.5
Tropihalorites	207.95	215.25
Tropijuvavites	226.5	232
Heraclites	212.875	212.875
Wangoceras	207.95	207.95
Hungarites	239.25	239.25
Joannites	215.25	239.25
Romanites	232	239.25
Bacchites	226.5	226.5
Dimorphites	207.95	207.95
Discomalayites	207.95	215.25
Dryojuvavites	207.95	215.25
Epijuvavites	207.95	215.25
Goniojuvavites	226.5	232
Gonionotites	215.25	226.5
Griesbachites	215.25	226.5
Guembelites	207.95	207.95
Indojuvavites	207.95	207.95
Juvavites	215.25	215.25
Malayites	215.25	215.25
Margarijuvavites	226.5	232
Omojuvavites	207.95	215.25
Projuvavites	226.5	226.5
Pseudocardioceras	215.25	215.25
Dieneria	226.5	226.5
Klamathites	226.5	226.5
Parahauerites	226.5	226.5
Lecanites	232	239.25
Coroceras	232	232
Lobites	232	239.25
Paralobites	232	232
Intornites	239.25	239.25
Longobardites	239.25	239.25
Megaphyllites	203.35	239.25
Nitanoceras	239.25	239.25
Gabboceras	203.35	203.35
Lissonites	207.95	207.95
Metasibirites	203.35	232
Tozeria	203.35	203.35
Eonathorstites	239.25	239.25
Indigirites	239.25	239.25
Nathorstites	232	239.25
Stolleyites	232	239.25
Tsvetkovites	239.25	239.25
Nairites	212.875	212.875
Noridiscites	212.875	212.875
Norites	239.25	239.25
Parathisbites	212.875	212.875
Phormedites	212.875	212.875
Eupinacoceras	207.95	215.25
Pinacoceras	203.35	232
Nevadisculites	239.25	239.25
Arctoptychites	239.25	239.25
Aristoptychites	239.25	239.25
Flexoptychites	239.25	239.25
Istreites	239.25	239.25
Ptychites	239.25	239.25
Peripleurites	207.95	207.95
Rhabdoceras	203.35	207.95
Rimkinites	239.25	239.25
Sageceras	232	239.25
Eremites	226.5	226.5
Sandlingites	226.5	226.5
Shastites	226.5	232
Traskites	226.5	226.5
Sphingites	232	239.25
Alloclionites	212.875	212.875
Bihatites	207.95	215.25
Brouwerites	212.875	212.875
Eosteinmannites	207.95	215.25
Metaclionites	207.95	215.25
Nannosteinmannites	207.95	215.25
Steinmannites	207.95	212.875
Discoptychites	239.25	239.25
Parasturia	239.25	239.25
Sturia	232	239.25
Drumoceras	239.25	239.25
Thanamites	239.25	239.25
Acanthothetidites	207.95	215.25
Eothetidites	207.95	215.25
Helictites	212.875	212.875
Idaoceras	207.95	215.25
Leislingites	207.95	212.875
Nassichukites	207.95	207.95
Parathetidites	212.875	212.875
Pseudothetidites	212.875	212.875
Thetidites	212.875	212.875
Hadrothisbites	226.5	232
Metathisbites	207.95	215.25
Mojsisovicsites	215.25	215.25
Stikinoceras	215.25	215.25
Thisbites	226.5	226.5
Tropithisbites	226.5	232
Acanthinites	212.875	215.25
Acanthodrepanites	207.95	215.25
Ammotibetites	207.95	215.25
Anatibetites	212.875	212.875
Carinacanthites	207.95	215.25
Cyrtopleurites	212.875	212.875
Dimorphotoceras	215.25	215.25
Dionites	207.95	207.95
Drepanites	212.875	212.875
Gandakites	207.95	215.25
Hauerites	212.875	212.875
Himavatites	212.875	239.25
Lanpingoceras	207.95	215.25
Lipuites	215.25	215.25
Mesohimavatites	207.95	215.25
Metacarnites	212.875	215.25
Neohimavatites	212.875	212.875
Neotibetites	207.95	212.875
Nodotibetites	215.25	215.25
Oxytibetites	207.95	215.25
Palicites	215.25	215.25
Paratibetites	207.95	215.25
Prodrepanites	207.95	215.25
Sirenotibetites	207.95	215.25
Thiniites	207.95	215.25
Tibetites	212.875	212.875
Xenodrepanites	207.95	232
Anasirenites	226.5	232
Anolcites	239.25	239.25
Arctoarpadites	226.5	232
Arctosirenites	226.5	226.5
Argolites	239.25	239.25
Argosirenites	212.875	212.875
Arpadites	232	239.25
Asklepioceras	232	239.25
Austrotrachyceras	226.5	232
Boreotrachyceras	226.5	232
Brotheotrachyceras	226.5	232
Daxatina	232	239.25
Dittmarites	232	232
Eoprotrachyceras	239.25	239.25
Frankites	232	239.25
Hannaoceras	226.5	226.5
Haoceras	239.25	239.25
Hisnitites	226.5	232
Liardites	239.25	239.25
Maclearnoceras	239.25	239.25
Meginoceras	239.25	239.25
Muensterites	232	239.25
Neoprotrachyceras	226.5	232
Neosirenites	226.5	232
Norosirenites	215.25	226.5
Okhototrachyceras	226.5	232
Pamphagosirenites	226.5	226.5
Paratrachyceras	226.5	239.25
Protrachyceras	232	239.25
Pseudosirenites	207.95	212.875
Pterosirenites	215.25	215.25
Seimkanites	226.5	232
Silenticeras	232	239.25
Sinomeginoceras	239.25	239.25
Sirenites	232	232
Sirenotrachyceras	232	239.25
Spirogmoceras	226.5	226.5
Striatosirenites	232	239.25
Sympolycyclus	232	239.25
Trachyceras	226.5	239.25
Trachystenoceras	226.5	226.5
Yakutosirenites	226.5	232
Zestoceras	226.5	239.25
Discostyrites	207.95	215.25
Styrites	215.25	215.25
Tardeceras	226.5	226.5
Tornquistites	226.5	226.5
Tropiceltites	207.95	207.95
Acanthotropites	226.5	232
Anatropites	226.5	232
Arctotropites	226.5	232
Arietoceltites	207.95	226.5
Discotropites	207.95	226.5
Euisculites	215.25	226.5
Gymnotropites	226.5	226.5
Homerites	226.5	226.5
Hoplotropites	226.5	226.5
Indonesites	226.5	226.5
Jovites	226.5	226.5
Margarites	226.5	232
Margaritropites	226.5	226.5
Microtropites	226.5	226.5
Paratropites	226.5	226.5
Pleurotropites	226.5	232
Sibyllites	232	239.25
Tropites	226.5	226.5
Paraganides	226.5	226.5
Loligosepia	180.5	203.35
Cenoceras	172.2	239.25
Digonioceras	172.2	199.3
Ophionautilus	172.2	176.2
Clydonautilus	207.95	239.25
Cosmonautilus	212.875	232
Proclydonautilus	203.35	239.25
Styrionautilus	207.95	239.25
Gonionautilus	207.95	207.95
Grypoceras	207.95	239.25
Gryponautilus	207.95	239.25
Paranautilus	207.95	239.25
Perunautilus	207.95	215.25
Belmonticeras	172.2	180.5
Ligeiceras	172.2	199.3
Pseudaganides	172.2	199.3
Siberionautilus	207.95	215.25
Clymenonautilus	207.95	232
Juvavionautilus	207.95	232
Oxynautilus	207.95	215.25
Syringoceras	207.95	239.25
Syringonautilus	232	239.25
Encoiloceras	207.95	226.5
Enoploceras	207.95	239.25
Germanonautilus	203.35	239.25
Grumantoceras	226.5	232
Holconautilus	207.95	239.25
Mojsvaroceras	207.95	239.25
Phloioceras	207.95	239.25
Pleuronautilus	207.95	239.25
Sibyllonautilus	203.35	239.25
Yakutionautilus	212.875	212.875
Michelinoceras	207.95	239.25
Orthoceras	207.95	239.25
Trematoceras	203.35	239.25
Belemnoteuthis	187.55	190.8
Discophyllites	215.25	232
Rhacophyllites	203.35	232
Tragorhacoceras	207.95	215.25
Fergusonites	200.1	201.3
Juraphyllites	180.5	199.3
Nevadaphyllites	195.3	201.3
Paradasyceras	195.3	201.3
Togaticeras	195.3	201.3
Tragophylloceras	190.8	190.8
Adabofoloceras	172.2	172.2
Calaiceras	187.55	187.55
Calliphylloceras	172.2	201.3
Hantkeniceras	187.55	187.55
Holcophylloceras	172.2	190.8
Partschiceras	172.2	195.3
Phylloceras	172.2	232
Ptychophylloceras	172.2	176.2
Zetoceras	172.2	199.3
Eopsiloceras	207.95	207.95
Indigirophyllites	226.5	239.25
Metatirolites	226.5	239.25
Mojsvarites	203.35	232
Monophyllites	215.25	239.25
Palaeophyllites	239.25	239.25
Simonyceras	226.5	239.25
Ussurites	239.25	239.25
Wopfingites	207.95	207.95
Arctophyllites	226.5	232
Kolymophylloceras	200.1	201.3
Platyphylloceras	176.2	201.3
Schistophylloceras	195.3	201.3
Yukagirites	187.55	199.3
Lioteuthis	180.5	180.5
Celtites	226.5	232
Kasimlarceltites	226.5	232
Homeroceras	226.5	232
Ausseites	187.55	232
Odoghertyceras	200.1	201.3
Osperlioceras	176.2	180.5
