taxon	min	max
Acrosmilia	172.2	172.2
Proleptophyllia	172.2	201.3
Actinaraea	172.2	199.3
Actinastrea	172.2	239.25
Allocoeniopsis	172.2	201.3
Chondrocoenia	203.35	212.875
Coenastraea	172.2	172.2
Enallocoenia	172.2	190.8
Stelidioseris	195.3	199.3
Stephanastrea	176.2	180.5
Craterastraea	172.2	172.2
Alpinophyllia	203.35	232
Alpinoseris	203.35	203.35
Stuoresimorpha	203.35	215.25
Amphiastrea	172.2	172.2
Bathmosmilia	172.2	172.2
Ceratocoenia	187.55	190.8
Cladophyllia	172.2	190.8
Hispaniastraea	190.8	195.3
Keriophyllia	172.2	172.2
Lochmaeosmilia	172.2	172.2
Quenstedtiphyllia	203.35	232
Andemantastraea	172.2	180.5
Ovalastraeopsis	172.2	172.2
Trigerastraea	172.2	187.55
Vallimeandropsis	172.2	172.2
Astraeomorpha	203.35	239.25
Parastraeomorpha	203.35	215.25
Seriastraea	203.35	232
Haplaraea	172.2	172.2
Astrocoenia	172.2	215.25
Axosmilia	172.2	172.2
Thecocyathus	172.2	199.3
Trochocyathus	172.2	190.8
Craspedosmilia	226.5	232
Myriophyllum	187.55	239.25
Omphalophyllia	207.95	239.25
Omphalophylliopsis	187.55	239.25
Rhopalodendron	207.95	232
Flexastrea	207.95	215.25
Khytrastrea	207.95	232
Margarogyra	207.95	215.25
Nevadoseris	207.95	215.25
Noriphyllia	207.95	232
Pokljukosmilia	207.95	232
Cuifastraea	203.35	212.875
Gillastraea	207.95	212.875
Tropiphyllum	203.35	232
Curtoseris	203.35	215.25
Mesomorpha	172.2	239.25
Cycliphyllia	203.35	215.25
Kompsasteria	203.35	215.25
Cyclophyllopsis	172.2	187.55
Melikerona	172.2	172.2
Dichopsammia	187.55	190.8
Calamophylliopsis	172.2	190.8
Dermosmilia	172.2	172.2
Dimorphomeandra	172.2	172.2
Epistreptophyllum	172.2	187.55
Stibastrea	172.2	172.2
Cardiastraea	172.2	176.2
Distichophyllia	203.35	232
Toechastraea	203.35	239.25
Prodonacosmilia	172.2	199.3
Duncanosmilia	195.3	201.3
Macgeopsis	172.2	176.2
Pseudisastraea	172.2	172.2
Sakalavastraea	172.2	180.5
Stephanaxocoenia	172.2	172.2
Funginella	187.55	190.8
Gablonzeria	203.35	239.25
Gigantostylis	203.35	203.35
Guembelastraea	203.35	232
Stuoresia	203.35	232
Dimorphastraeopsis	172.2	172.2
Intersmilia	172.2	199.3
Kobyastraea	172.2	172.2
Aggomorphastraea	172.2	172.2
Astraeofungia	172.2	172.2
Brachyseris	172.2	190.8
Collignonastraea	172.2	180.5
Comophyllia	172.2	190.8
Dimorphastrea	172.2	187.55
Fungiastraea	172.2	172.2
Latomeandra	172.2	172.2
Microphyllia	172.2	190.8
Periseris	172.2	172.2
Thamnoseris	172.2	172.2
Vallimeandra	172.2	172.2
Distichomeandra	203.35	207.95
Margarophyllia	226.5	239.25
Margarosmilia	176.2	239.25
Neoconophyllia	239.25	239.25
Submargarosmilia	239.25	239.25
Thamnomargarosmilia	207.95	239.25
Astrea	226.5	232
Araiophyllum	172.2	232
Chomatoseris	172.2	201.3
Comoseris	172.2	190.8
Dendraraea	172.2	172.2
Dimorpharaea	172.2	172.2
Eocomoseris	195.3	232
Kobya	172.2	172.2
Litharaeopsis	172.2	172.2
Microsolena	172.2	232
Tricycloseris	172.2	190.8
Trocharea	172.2	201.3
Trochoplegma	172.2	172.2
Clausastrea	172.2	172.2
Complexastrea	172.2	172.2
Elysastraea	203.35	239.25
Goldfussastrea	172.2	180.5
Isastrea	172.2	239.25
Latiphyllia	172.2	172.2
Margarastraea	203.35	232
Montlivaltia	172.2	239.25
Paraphyllogyra	172.2	190.8
Phyllogyra	172.2	172.2
Rhabdophyllia	172.2	190.8
Thecomeandra	172.2	172.2
Thecosmilia	172.2	232
Haimeicyclus	172.2	201.3
Heterastraea	172.2	201.3
Oppelismilia	195.3	201.3
Phacelophyllia	172.2	201.3
Ampakabastraea	172.2	207.95
Areaseris	207.95	215.25
Beneckastraea	207.95	232
Campesteria	203.35	215.25
Ceriostella	203.35	239.25
Crassistella	203.35	207.95
Minasteria	207.95	215.25
Morycastraea	207.95	239.25
Pamiroseris	203.35	239.25
Rhaetiastraea	203.35	215.25
Cyathocoenia	200.1	239.25
Andrazella	207.95	239.25
Conophyllia	207.95	239.25
Hydrasmilia	207.95	232
Procyclolites	190.8	239.25
Carpathiphyllia	226.5	232
Paravolzeia	207.95	232
Pontebbastraea	203.35	232
Remismilia	203.35	239.25
Coryphyllia	187.55	239.25
Coryphyllina	203.35	203.35
Craspedophyllia	203.35	239.25
Cuifia	203.35	232
Distichoflabellum	203.35	215.25
Distichomorpha	207.95	215.25
Distichopsis	203.35	215.25
Oedalmia	203.35	215.25
Palaeastraea	203.35	239.25
Paracuifia	203.35	215.25
Primorodendron	203.35	215.25
Retiophyllia	172.2	239.25
Aplosmilia	172.2	172.2
Codonosmilia	172.2	172.2
Hexaflos	172.2	172.2
Siderosmilia	176.2	190.8
Adelocoenia	172.2	172.2
Cryptocoenia	172.2	172.2
Cyathophora	172.2	172.2
Goniocora	172.2	190.8
Heliocoenia	172.2	172.2
Procyathophora	239.25	239.25
Pseudocoenia	172.2	172.2
Pseudocoeniopsis	172.2	172.2
Stylina	172.2	215.25
Stylosmilia	172.2	199.3
Anthostylis	203.35	215.25
Cerioheterastraea	207.95	232
Coccophyllum	190.8	212.875
Discocoenia	172.2	200.1
Discocoeniopsis	187.55	201.3
Maeandrostylis	203.35	215.25
Meandrostylophyllum	203.35	203.35
Monstroseris	203.35	203.35
Pamirophyllum	203.35	215.25
Phacelepismilia	195.3	201.3
Phacelostylophyllum	190.8	232
Pinacophyllum	187.55	239.25
Protostylophyllum	226.5	232
Stylophyllopsis	187.55	239.25
Stylophyllum	203.35	215.25
Synastrea	172.2	190.8
Recticostastraea	203.35	232
Substuoresia	239.25	239.25
Thamnasteria	172.2	239.25
Thamnasteriamorpha	187.55	232
Tropidendron	207.95	239.25
Chevalieria	207.95	239.25
Alakiria	203.35	207.95
Meandrovolzeia	207.95	207.95
Volzeia	176.2	239.25
Alloiteausmilia	187.55	199.3
Archaeosmilia	187.55	201.3
Archaeosmiliopsis	187.55	201.3
Cryptosepta	200.1	201.3
Epismilia	172.2	190.8
Epismiliopsis	172.2	190.8
Pachydendron	207.95	226.5
Pachysolenia	207.95	239.25
Pachythecalis	207.95	207.95
Parapleurosmilia	172.2	187.55
Plesiophyllum	172.2	190.8
Zardinophyllum	203.35	239.25
Bavarosmilia	203.35	215.25
Furcophyllia	239.25	239.25
Koilocoenia	203.35	239.25
Lepiconus	203.35	203.35
Pachysmilia	195.3	199.3
Rodinosmilia	187.55	187.55
Thamnasterites	207.95	215.25
Tropiastraea	232	239.25
