taxon	min	max
Acrosmilia	0	62	36	90	22	27	90	174	71	25
Proleptophyllia	0	0	0	0	0	0	0	0	0	0
Actinaraea	0	0	0	0	0	0	0	0	0	0
Actinastrea	0	0	0	0	0	0	0	0	0	0
Allocoeniopsis	0	0	0	0	0	0	0	0	0	0
Chondrocoenia	0	0	0	0	0	0	0	0	0	0
Coenastraea	0	0	0	0	0	0	0	0	0	0
Enallocoenia	0	0	0	0	0	0	0	0	0	0
Stelidioseris	0	0	0	0	0	0	0	0	0	0
Stephanastrea	0	0	0	0	0	0	0	0	0	0
Craterastraea	0	0	0	0	0	0	0	0	0	0
Alpinophyllia	0	0	0	0	0	0	0	0	0	0
Alpinoseris	0	0	0	0	0	0	0	0	0	0
Stuoresimorpha	0	0	0	0	0	0	0	0	0	0
Amphiastrea	0	0	0	0	0	0	0	0	0	0
Bathmosmilia	0	0	0	0	0	0	0	0	0	0
Ceratocoenia	0	0	0	0	0	0	0	0	0	0
Cladophyllia	0	0	0	0	0	0	0	0	0	0
Hispaniastraea	0	0	0	0	0	0	0	0	0	0
Keriophyllia	0	0	0	0	0	0	0	0	0	0
Lochmaeosmilia	0	0	0	0	0	0	0	0	0	0
Quenstedtiphyllia	0	0	0	0	0	0	0	0	0	0
Andemantastraea	0	0	0	0	0	0	0	0	0	0
Ovalastraeopsis	0	0	0	0	0	0	0	0	0	0
Trigerastraea	0	0	0	0	0	0	0	0	0	0
Vallimeandropsis	0	0	0	0	0	0	0	0	0	0
Astraeomorpha	0	0	0	0	0	0	0	0	0	0
Parastraeomorpha	0	0	0	0	0	0	0	0	0	0
Seriastraea	0	0	0	0	0	0	0	0	0	0
Haplaraea	0	0	0	0	0	0	0	0	0	0
Astrocoenia	0	0	0	0	0	0	0	0	0	0
Axosmilia	0	0	0	0	0	0	0	0	0	0
Thecocyathus	0	0	0	0	0	0	0	0	0	0
Trochocyathus	0	0	0	0	0	0	0	0	0	0
Craspedosmilia	0	0	0	0	0	0	0	0	0	0
Myriophyllum	0	0	0	0	0	0	0	0	0	0
Omphalophyllia	0	0	0	0	0	0	0	0	0	0
Omphalophylliopsis	0	0	0	0	0	0	0	0	0	0
Rhopalodendron	0	0	0	0	0	0	0	0	0	0
Flexastrea	0	0	0	0	0	0	0	0	0	0
Khytrastrea	0	0	0	0	0	0	0	0	0	0
Margarogyra	0	0	0	0	0	0	0	0	0	0
Nevadoseris	0	0	0	0	0	0	0	0	0	0
Noriphyllia	0	0	0	0	0	0	0	0	0	0
Pokljukosmilia	0	0	0	0	0	0	0	0	0	0
Cuifastraea	0	0	0	0	0	0	0	0	0	0
Gillastraea	0	0	0	0	0	0	0	0	0	0
Tropiphyllum	0	0	0	0	0	0	0	0	0	0
Curtoseris	0	0	0	0	0	0	0	0	0	0
Mesomorpha	0	0	0	0	0	0	0	0	0	0
Cycliphyllia	0	0	0	0	0	0	0	0	0	0
Kompsasteria	0	0	0	0	0	0	0	0	0	0
Cyclophyllopsis	0	0	0	0	0	0	0	0	0	0
Melikerona	0	0	0	0	0	0	0	0	0	0
Dichopsammia	0	0	0	0	0	0	0	0	0	0
Calamophylliopsis	0	0	0	0	0	0	0	0	0	0
Dermosmilia	0	0	0	0	0	0	0	0	0	0
Dimorphomeandra	0	0	0	0	0	0	0	0	0	0
Epistreptophyllum	0	0	0	0	0	0	0	0	0	0
Stibastrea	0	0	0	0	0	0	0	0	0	0
Cardiastraea	0	0	0	0	0	0	0	0	0	0
Distichophyllia	0	0	0	0	0	0	0	0	0	0
Toechastraea	0	0	0	0	0	0	0	0	0	0
Prodonacosmilia	0	0	0	0	0	0	0	0	0	0
Duncanosmilia	0	0	0	0	0	0	0	0	0	0
Macgeopsis	0	0	0	0	0	0	0	0	0	0
Pseudisastraea	0	0	0	0	0	0	0	0	0	0
Sakalavastraea	0	0	0	0	0	0	0	0	0	0
Stephanaxocoenia	0	0	0	0	0	0	0	0	0	0
Funginella	0	0	0	0	0	0	0	0	0	0
Gablonzeria	0	0	0	0	0	0	0	0	0	0
Gigantostylis	0	0	0	0	0	0	0	0	0	0
Guembelastraea	0	0	0	0	0	0	0	0	0	0
Stuoresia	0	0	0	0	0	0	0	0	0	0
Dimorphastraeopsis	0	0	0	0	0	0	0	0	0	0
Intersmilia	0	0	0	0	0	0	0	0	0	0
Kobyastraea	0	0	0	0	0	0	0	0	0	0
Aggomorphastraea	0	0	0	0	0	0	0	0	0	0
Astraeofungia	0	0	0	0	0	0	0	0	0	0
Brachyseris	0	0	0	0	0	0	0	0	0	0
Collignonastraea	0	0	0	0	0	0	0	0	0	0
Comophyllia	0	0	0	0	0	0	0	0	0	0
Dimorphastrea	0	0	0	0	0	0	0	0	0	0
Fungiastraea	0	0	0	0	0	0	0	0	0	0
Latomeandra	0	0	0	0	0	0	0	0	0	0
Microphyllia	0	0	0	0	0	0	0	0	0	0
Periseris	0	0	0	0	0	0	0	0	0	0
Thamnoseris	0	0	0	0	0	0	0	0	0	0
Vallimeandra	0	0	0	0	0	0	0	0	0	0
Distichomeandra	0	0	0	0	0	0	0	0	0	0
Margarophyllia	0	0	0	0	0	0	0	0	0	0
Margarosmilia	0	0	0	0	0	0	0	0	0	0
Neoconophyllia	0	0	0	0	0	0	0	0	0	0
Submargarosmilia	0	0	0	0	0	0	0	0	0	0
Thamnomargarosmilia	0	0	0	0	0	0	0	0	0	0
Astrea	0	0	0	0	0	0	0	0	0	0
Araiophyllum	0	0	0	0	0	0	0	0	0	0
Chomatoseris	0	0	0	0	0	0	0	0	0	0
Comoseris	0	0	0	0	0	0	0	0	0	0
Dendraraea	0	0	0	0	0	0	0	0	0	0
Dimorpharaea	0	0	0	0	0	0	0	0	0	0
Eocomoseris	0	0	0	0	0	0	0	0	0	0
Kobya	0	0	0	0	0	0	0	0	0	0
Litharaeopsis	0	0	0	0	0	0	0	0	0	0
Microsolena	0	0	0	0	0	0	0	0	0	0
Tricycloseris	0	0	0	0	0	0	0	0	0	0
Trocharea	0	0	0	0	0	0	0	0	0	0
Trochoplegma	0	0	0	0	0	0	0	0	0	0
Clausastrea	0	0	0	0	0	0	0	0	0	0
Complexastrea	0	0	0	0	0	0	0	0	0	0
Elysastraea	0	0	0	0	0	0	0	0	0	0
Goldfussastrea	0	0	0	0	0	0	0	0	0	0
Isastrea	0	0	0	0	0	0	0	0	0	0
Latiphyllia	0	0	0	0	0	0	0	0	0	0
Margarastraea	0	0	0	0	0	0	0	0	0	0
Montlivaltia	0	0	0	0	0	0	0	0	0	0
Paraphyllogyra	0	0	0	0	0	0	0	0	0	0
Phyllogyra	0	0	0	0	0	0	0	0	0	0
Rhabdophyllia	0	0	0	0	0	0	0	0	0	0
Thecomeandra	0	0	0	0	0	0	0	0	0	0
Thecosmilia	0	0	0	0	0	0	0	0	0	0
Haimeicyclus	0	0	0	0	0	0	0	0	0	0
Heterastraea	0	0	0	0	0	0	0	0	0	0
Oppelismilia	0	0	0	0	0	0	0	0	0	0
Phacelophyllia	0	0	0	0	0	0	0	0	0	0
Ampakabastraea	0	0	0	0	0	0	0	0	0	0
Areaseris	0	0	0	0	0	0	0	0	0	0
Beneckastraea	0	0	0	0	0	0	0	0	0	0
Campesteria	0	0	0	0	0	0	0	0	0	0
Ceriostella	0	0	0	0	0	0	0	0	0	0
Crassistella	0	0	0	0	0	0	0	0	0	0
Minasteria	0	0	0	0	0	0	0	0	0	0
Morycastraea	0	0	0	0	0	0	0	0	0	0
Pamiroseris	0	0	0	0	0	0	0	0	0	0
Rhaetiastraea	0	0	0	0	0	0	0	0	0	0
Cyathocoenia	0	0	0	0	0	0	0	0	0	0
Andrazella	0	0	0	0	0	0	0	0	0	0
Conophyllia	0	0	0	0	0	0	0	0	0	0
Hydrasmilia	0	0	0	0	0	0	0	0	0	0
Procyclolites	0	0	0	0	0	0	0	0	0	0
Carpathiphyllia	0	0	0	0	0	0	0	0	0	0
Paravolzeia	0	0	0	0	0	0	0	0	0	0
Pontebbastraea	0	0	0	0	0	0	0	0	0	0
Remismilia	0	0	0	0	0	0	0	0	0	0
Coryphyllia	0	0	0	0	0	0	0	0	0	0
Coryphyllina	0	0	0	0	0	0	0	0	0	0
Craspedophyllia	0	0	0	0	0	0	0	0	0	0
Cuifia	0	0	0	0	0	0	0	0	0	0
Distichoflabellum	0	0	0	0	0	0	0	0	0	0
Distichomorpha	0	0	0	0	0	0	0	0	0	0
Distichopsis	0	0	0	0	0	0	0	0	0	0
Oedalmia	0	0	0	0	0	0	0	0	0	0
Palaeastraea	0	0	0	0	0	0	0	0	0	0
Paracuifia	0	0	0	0	0	0	0	0	0	0
Primorodendron	0	0	0	0	0	0	0	0	0	0
Retiophyllia	0	0	0	0	0	0	0	0	0	0
Aplosmilia	0	0	0	0	0	0	0	0	0	0
Codonosmilia	0	0	0	0	0	0	0	0	0	0
Hexaflos	0	0	0	0	0	0	0	0	0	0
Siderosmilia	0	0	0	0	0	0	0	0	0	0
Adelocoenia	0	0	0	0	0	0	0	0	0	0
Cryptocoenia	0	0	0	0	0	0	0	0	0	0
Cyathophora	0	0	0	0	0	0	0	0	0	0
Goniocora	0	0	0	0	0	0	0	0	0	0
Heliocoenia	0	0	0	0	0	0	0	0	0	0
Procyathophora	0	0	0	0	0	0	0	0	0	0
Pseudocoenia	0	0	0	0	0	0	0	0	0	0
Pseudocoeniopsis	0	0	0	0	0	0	0	0	0	0
Stylina	0	0	0	0	0	0	0	0	0	0
Stylosmilia	0	0	0	0	0	0	0	0	0	0
Anthostylis	0	0	0	0	0	0	0	0	0	0
Cerioheterastraea	0	0	0	0	0	0	0	0	0	0
Coccophyllum	0	0	0	0	0	0	0	0	0	0
Discocoenia	0	0	0	0	0	0	0	0	0	0
Discocoeniopsis	0	0	0	0	0	0	0	0	0	0
Maeandrostylis	0	0	0	0	0	0	0	0	0	0
Meandrostylophyllum	0	0	0	0	0	0	0	0	0	0
Monstroseris	0	0	0	0	0	0	0	0	0	0
Pamirophyllum	0	0	0	0	0	0	0	0	0	0
Phacelepismilia	0	0	0	0	0	0	0	0	0	0
Phacelostylophyllum	0	0	0	0	0	0	0	0	0	0
Pinacophyllum	0	0	0	0	0	0	0	0	0	0
Protostylophyllum	0	0	0	0	0	0	0	0	0	0
Stylophyllopsis	0	0	0	0	0	0	0	0	0	0
Stylophyllum	0	0	0	0	0	0	0	0	0	0
Synastrea	0	0	0	0	0	0	0	0	0	0
Recticostastraea	0	0	0	0	0	0	0	0	0	0
Substuoresia	0	0	0	0	0	0	0	0	0	0
Thamnasteria	0	0	0	0	0	0	0	0	0	0
Thamnasteriamorpha	0	0	0	0	0	0	0	0	0	0
Tropidendron	0	0	0	0	0	0	0	0	0	0
Chevalieria	0	0	0	0	0	0	0	0	0	0
Alakiria	0	0	0	0	0	0	0	0	0	0
Meandrovolzeia	0	0	0	0	0	0	0	0	0	0
Volzeia	0	0	0	0	0	0	0	0	0	0
Alloiteausmilia	0	0	0	0	0	0	0	0	0	0
Archaeosmilia	0	0	0	0	0	0	0	0	0	0
Archaeosmiliopsis	0	0	0	0	0	0	0	0	0	0
Cryptosepta	0	0	0	0	0	0	0	0	0	0
Epismilia	0	0	0	0	0	0	0	0	0	0
Epismiliopsis	0	0	0	0	0	0	0	0	0	0
Pachydendron	0	0	0	0	0	0	0	0	0	0
Pachysolenia	0	0	0	0	0	0	0	0	0	0
Pachythecalis	0	0	0	0	0	0	0	0	0	0
Parapleurosmilia	0	0	0	0	0	0	0	0	0	0
Plesiophyllum	0	0	0	0	0	0	0	0	0	0
Zardinophyllum	0	0	0	0	0	0	0	0	0	0
Bavarosmilia	0	0	0	0	0	0	0	0	0	0
Furcophyllia	0	0	0	0	0	0	0	0	0	0
Koilocoenia	0	0	0	0	0	0	0	0	0	0
Lepiconus	0	0	0	0	0	0	0	0	0	0
Pachysmilia	0	0	0	0	0	0	0	0	0	0
Rodinosmilia	0	0	0	0	0	0	0	0	0	0
Thamnasterites	0	0	0	0	0	0	0	0	0	0
Tropiastraea	0	0	0	0	0	0	0	0	0	0
Asterias	0	3	1	4	2	4	0	1	1	13
Germanasterias	0	0	0	0	0	0	0	0	0	0
Hystriyasterias	0	0	0	0	0	0	0	0	0	0
Terminaster	0	0	0	0	0	0	0	0	0	0
Plesiastropecten	0	0	0	0	0	0	0	0	0	0
Tethyaster	0	0	0	0	0	0	0	0	0	0
Pentasteria	0	0	0	0	0	0	0	0	0	0
Berckhemeraster	0	0	0	0	0	0	0	0	0	0
Trichasteropsis	0	0	0	0	0	0	0	0	0	0
Protremaster	0	0	0	0	0	0	0	0	0	0
Comptoniaster	0	0	0	0	0	0	0	0	0	0
Galbaster	0	0	0	0	0	0	0	0	0	0
Odontaster	0	0	0	0	0	0	0	0	0	0
Noriaster	0	0	0	0	0	0	0	0	0	0
Pycinaster	0	0	0	0	0	0	0	0	0	0
Poncetaster	0	0	0	0	0	0	0	0	0	0
Stauraster	0	0	0	0	0	0	0	0	0	0
Diclidaster	0	0	0	0	0	0	0	0	0	0
Plumaster	0	0	0	0	0	0	0	0	0	0
Tropidaster	0	0	0	0	0	0	0	0	0	0
Carniaster	0	0	0	0	0	0	0	0	0	0
Eonavicula	0	495	440	775	438	172	533	476	356	216
Elegantarca	0	0	0	0	0	0	0	0	0	0
Hoferia	0	0	0	0	0	0	0	0	0	0
Limopsis	0	0	0	0	0	0	0	0	0	0
Catella	0	0	0	0	0	0	0	0	0	0
Grammatodon	0	0	0	0	0	0	0	0	0	0
Macrodon	0	0	0	0	0	0	0	0	0	0
Parallelodon	0	0	0	0	0	0	0	0	0	0
Pichleria	0	0	0	0	0	0	0	0	0	0
Antarctica	0	0	0	0	0	0	0	0	0	0
Antiquicyprina	0	0	0	0	0	0	0	0	0	0
Integricardium	0	0	0	0	0	0	0	0	0	0
Protocardia	0	0	0	0	0	0	0	0	0	0
Septocardia	0	0	0	0	0	0	0	0	0	0
Crenotrapezium	0	0	0	0	0	0	0	0	0	0
Eomiodon	0	0	0	0	0	0	0	0	0	0
Tulongocardium	0	0	0	0	0	0	0	0	0	0
Quenstedtia	0	0	0	0	0	0	0	0	0	0
Corbicellopsis	0	0	0	0	0	0	0	0	0	0
Sakawanella	0	0	0	0	0	0	0	0	0	0
Tancredia	0	0	0	0	0	0	0	0	0	0
Tellina	0	0	0	0	0	0	0	0	0	0
Langvophorus	0	0	0	0	0	0	0	0	0	0
Astarte	0	0	0	0	0	0	0	0	0	0
Balantioselena	0	0	0	0	0	0	0	0	0	0
Coelastarte	0	0	0	0	0	0	0	0	0	0
Coelopis	0	0	0	0	0	0	0	0	0	0
Hemimenia	0	0	0	0	0	0	0	0	0	0
Neocrassina	0	0	0	0	0	0	0	0	0	0
Nicaniella	0	0	0	0	0	0	0	0	0	0
Notoastarte	0	0	0	0	0	0	0	0	0	0
Opis	0	0	0	0	0	0	0	0	0	0
Opisoma	0	0	0	0	0	0	0	0	0	0
Oxyloma	0	0	0	0	0	0	0	0	0	0
Praeconia	0	0	0	0	0	0	0	0	0	0
Pressastarte	0	0	0	0	0	0	0	0	0	0
Cardinia	0	0	0	0	0	0	0	0	0	0
Minepharus	0	0	0	0	0	0	0	0	0	0
Pseudastarte	0	0	0	0	0	0	0	0	0	0
Torastarte	0	0	0	0	0	0	0	0	0	0
Cardita	0	0	0	0	0	0	0	0	0	0
Palaeocardita	0	0	0	0	0	0	0	0	0	0
Tutcheria	0	0	0	0	0	0	0	0	0	0
Venericardia	0	0	0	0	0	0	0	0	0	0
Hiatella	0	0	0	0	0	0	0	0	0	0
Myophoricardium	0	0	0	0	0	0	0	0	0	0
Myophoriopis	0	0	0	0	0	0	0	0	0	0
Pseudocorbula	0	0	0	0	0	0	0	0	0	0
Ampezzania	0	0	0	0	0	0	0	0	0	0
Paramegalodus	0	0	0	0	0	0	0	0	0	0
Pomarangina	0	0	0	0	0	0	0	0	0	0
Protodiceras	0	0	0	0	0	0	0	0	0	0
Antiquilima	0	0	0	0	0	0	0	0	0	0
Badiotella	0	0	0	0	0	0	0	0	0	0
Ctenostreon	0	0	0	0	0	0	0	0	0	0
Lima	0	0	0	0	0	0	0	0	0	0
Limatula	0	0	0	0	0	0	0	0	0	0
Limea	0	0	0	0	0	0	0	0	0	0
Mysidioptera	0	0	0	0	0	0	0	0	0	0
Plagiostoma	0	0	0	0	0	0	0	0	0	0
Pseudolimea	0	0	0	0	0	0	0	0	0	0
Serania	0	0	0	0	0	0	0	0	0	0
Cavilucina	0	0	0	0	0	0	0	0	0	0
Corbis	0	0	0	0	0	0	0	0	0	0
Haastina	0	0	0	0	0	0	0	0	0	0
Lucina	0	0	0	0	0	0	0	0	0	0
Luciniola	0	0	0	0	0	0	0	0	0	0
Mesomiltha	0	0	0	0	0	0	0	0	0	0
Pseudomiltha	0	0	0	0	0	0	0	0	0	0
Schafhaeutlia	0	0	0	0	0	0	0	0	0	0
Sphaeriola	0	0	0	0	0	0	0	0	0	0
Mactromya	0	0	0	0	0	0	0	0	0	0
Unicardium	0	0	0	0	0	0	0	0	0	0
Ceratomyopsis	0	0	0	0	0	0	0	0	0	0
Ceromyopsis	0	0	0	0	0	0	0	0	0	0
Cornucardia	0	0	0	0	0	0	0	0	0	0
Dicerocardium	0	0	0	0	0	0	0	0	0	0
Physocardia	0	0	0	0	0	0	0	0	0	0
Pseudisocardia	0	0	0	0	0	0	0	0	0	0
Conchodon	0	0	0	0	0	0	0	0	0	0
Megalodon	0	0	0	0	0	0	0	0	0	0
Neomegalodon	0	0	0	0	0	0	0	0	0	0
Pachyrisma	0	0	0	0	0	0	0	0	0	0
Pterocardia	0	0	0	0	0	0	0	0	0	0
Quemocuomegalodon	0	0	0	0	0	0	0	0	0	0
Rhaetomegalodon	0	0	0	0	0	0	0	0	0	0
Triadomegalodon	0	0	0	0	0	0	0	0	0	0
Wallowaconcha	0	0	0	0	0	0	0	0	0	0
Hippopodium	0	0	0	0	0	0	0	0	0	0
Curionia	0	0	0	0	0	0	0	0	0	0
Healeya	0	0	0	0	0	0	0	0	0	0
Kalentera	0	0	0	0	0	0	0	0	0	0
Permophorus	0	0	0	0	0	0	0	0	0	0
Triaphorus	0	0	0	0	0	0	0	0	0	0
Myoconcha	0	0	0	0	0	0	0	0	0	0
Pseudomyoconcha	0	0	0	0	0	0	0	0	0	0
Arctomytiloides	0	0	0	0	0	0	0	0	0	0
Inoceramus	0	0	0	0	0	0	0	0	0	0
Parainoceramus	0	0	0	0	0	0	0	0	0	0
Pseudomytiloides	0	0	0	0	0	0	0	0	0	0
Retroceramus	0	0	0	0	0	0	0	0	0	0
Kolymia	0	0	0	0	0	0	0	0	0	0
Aviculomyalina	0	0	0	0	0	0	0	0	0	0
Myalina	0	0	0	0	0	0	0	0	0	0
Mysidiella	0	0	0	0	0	0	0	0	0	0
Promysidiella	0	0	0	0	0	0	0	0	0	0
Jurassicorbula	0	0	0	0	0	0	0	0	0	0
Pseudosaxicava	0	0	0	0	0	0	0	0	0	0
Arcomytilus	0	0	0	0	0	0	0	0	0	0
Falcimytilus	0	0	0	0	0	0	0	0	0	0
Inoperna	0	0	0	0	0	0	0	0	0	0
Lithophaga	0	0	0	0	0	0	0	0	0	0
Lycettia	0	0	0	0	0	0	0	0	0	0
Modiolus	0	0	0	0	0	0	0	0	0	0
Protopis	0	0	0	0	0	0	0	0	0	0
Isoarca	0	0	0	0	0	0	0	0	0	0
Lapteviella	0	0	0	0	0	0	0	0	0	0
Malletia	0	0	0	0	0	0	0	0	0	0
Palaeoneilo	0	0	0	0	0	0	0	0	0	0
Prosoleptus	0	0	0	0	0	0	0	0	0	0
Taimyrodon	0	0	0	0	0	0	0	0	0	0
Dacromya	0	0	0	0	0	0	0	0	0	0
Eleganuculana	0	0	0	0	0	0	0	0	0	0
Mesosaccella	0	0	0	0	0	0	0	0	0	0
Nuculana	0	0	0	0	0	0	0	0	0	0
Veteranella	0	0	0	0	0	0	0	0	0	0
Xiaoshuiculana	0	0	0	0	0	0	0	0	0	0
Ryderia	0	0	0	0	0	0	0	0	0	0
Nucula	0	0	0	0	0	0	0	0	0	0
Nuculoma	0	0	0	0	0	0	0	0	0	0
Palaeonucula	0	0	0	0	0	0	0	0	0	0
Trigonucula	0	0	0	0	0	0	0	0	0	0
Rollieria	0	0	0	0	0	0	0	0	0	0
Aguilerella	0	0	0	0	0	0	0	0	0	0
Bakevellia	0	0	0	0	0	0	0	0	0	0
Costigervillia	0	0	0	0	0	0	0	0	0	0
Cuneigervillia	0	0	0	0	0	0	0	0	0	0
Gervillancea	0	0	0	0	0	0	0	0	0	0
Gervillaria	0	0	0	0	0	0	0	0	0	0
Gervillella	0	0	0	0	0	0	0	0	0	0
Gervillia	0	0	0	0	0	0	0	0	0	0
Hoernesia	0	0	0	0	0	0	0	0	0	0
Kedonella	0	0	0	0	0	0	0	0	0	0
Kobayashites	0	0	0	0	0	0	0	0	0	0
Cassianella	0	0	0	0	0	0	0	0	0	0
Exogyra	0	0	0	0	0	0	0	0	0	0
Gryphaea	0	0	0	0	0	0	0	0	0	0
Liostrea	0	0	0	0	0	0	0	0	0	0
Nanogyra	0	0	0	0	0	0	0	0	0	0
Aparimella	0	0	0	0	0	0	0	0	0	0
Daonella	0	0	0	0	0	0	0	0	0	0
Halobia	0	0	0	0	0	0	0	0	0	0
Taimyrolobia	0	0	0	0	0	0	0	0	0	0
Eligmus	0	0	0	0	0	0	0	0	0	0
Gervilleioperna	0	0	0	0	0	0	0	0	0	0
Isognomon	0	0	0	0	0	0	0	0	0	0
Lithiotis	0	0	0	0	0	0	0	0	0	0
Mytiloperna	0	0	0	0	0	0	0	0	0	0
Waagenoperna	0	0	0	0	0	0	0	0	0	0
Actinostreon	0	0	0	0	0	0	0	0	0	0
Lopha	0	0	0	0	0	0	0	0	0	0
Umbrostrea	0	0	0	0	0	0	0	0	0	0
Krumbeckiella	0	0	0	0	0	0	0	0	0	0
Manticula	0	0	0	0	0	0	0	0	0	0
Oretia	0	0	0	0	0	0	0	0	0	0
Atrina	0	0	0	0	0	0	0	0	0	0
Pinna	0	0	0	0	0	0	0	0	0	0
Trichites	0	0	0	0	0	0	0	0	0	0
Amonotis	0	0	0	0	0	0	0	0	0	0
Bositra	0	0	0	0	0	0	0	0	0	0
Posidonotis	0	0	0	0	0	0	0	0	0	0
Arcavicula	0	0	0	0	0	0	0	0	0	0
Avicularea	0	0	0	0	0	0	0	0	0	0
Pseudaucella	0	0	0	0	0	0	0	0	0	0
Pteria	0	0	0	0	0	0	0	0	0	0
Rhaetavicula	0	0	0	0	0	0	0	0	0	0
Pulvinites	0	0	0	0	0	0	0	0	0	0
Heligmus	0	0	0	0	0	0	0	0	0	0
Enantiostreon	0	0	0	0	0	0	0	0	0	0
Harpax	0	0	0	0	0	0	0	0	0	0
Cercomya	0	0	0	0	0	0	0	0	0	0
Laternula	0	0	0	0	0	0	0	0	0	0
Platymyoidea	0	0	0	0	0	0	0	0	0	0
Anomia	0	0	0	0	0	0	0	0	0	0
Placunopsis	0	0	0	0	0	0	0	0	0	0
Neopecten	0	0	0	0	0	0	0	0	0	0
Primahinnites	0	0	0	0	0	0	0	0	0	0
Anningella	0	0	0	0	0	0	0	0	0	0
Etalia	0	0	0	0	0	0	0	0	0	0
Atreta	0	0	0	0	0	0	0	0	0	0
Protostrea	0	0	0	0	0	0	0	0	0	0
Cingentolium	0	0	0	0	0	0	0	0	0	0
Entolioides	0	0	0	0	0	0	0	0	0	0
Entolium	0	0	0	0	0	0	0	0	0	0
Somapecten	0	0	0	0	0	0	0	0	0	0
Filopecten	0	0	0	0	0	0	0	0	0	0
Kolymonectes	0	0	0	0	0	0	0	0	0	0
Eumorphotis	0	0	0	0	0	0	0	0	0	0
Leptochondria	0	0	0	0	0	0	0	0	0	0
Palaeolima	0	0	0	0	0	0	0	0	0	0
Monotis	0	0	0	0	0	0	0	0	0	0
Otapiria	0	0	0	0	0	0	0	0	0	0
Weyla	0	0	0	0	0	0	0	0	0	0
Arctotis	0	0	0	0	0	0	0	0	0	0
Jianchuania	0	0	0	0	0	0	0	0	0	0
Meleagrinella	0	0	0	0	0	0	0	0	0	0
Oxytoma	0	0	0	0	0	0	0	0	0	0
Aequipecten	0	0	0	0	0	0	0	0	0	0
Agerchlamys	0	0	0	0	0	0	0	0	0	0
Amusium	0	0	0	0	0	0	0	0	0	0
Camptonectes	0	0	0	0	0	0	0	0	0	0
Chlamys	0	0	0	0	0	0	0	0	0	0
Eopecten	0	0	0	0	0	0	0	0	0	0
Hinnites	0	0	0	0	0	0	0	0	0	0
Hunanonectes	0	0	0	0	0	0	0	0	0	0
Indopecten	0	0	0	0	0	0	0	0	0	0
Loxochlamys	0	0	0	0	0	0	0	0	0	0
Lyriochlamys	0	0	0	0	0	0	0	0	0	0
Nevadapecten	0	0	0	0	0	0	0	0	0	0
Ochotochlamys	0	0	0	0	0	0	0	0	0	0
Pleuronectites	0	0	0	0	0	0	0	0	0	0
Praechlamys	0	0	0	0	0	0	0	0	0	0
Pseudentolium	0	0	0	0	0	0	0	0	0	0
Pseudopecten	0	0	0	0	0	0	0	0	0	0
Radulonectites	0	0	0	0	0	0	0	0	0	0
Spondylopecten	0	0	0	0	0	0	0	0	0	0
Tosapecten	0	0	0	0	0	0	0	0	0	0
Plicatula	0	0	0	0	0	0	0	0	0	0
Pseudoplacunopsis	0	0	0	0	0	0	0	0	0	0
Parvamussium	0	0	0	0	0	0	0	0	0	0
Propeamussium	0	0	0	0	0	0	0	0	0	0
Newaagia	0	0	0	0	0	0	0	0	0	0
Persia	0	0	0	0	0	0	0	0	0	0
Pseudomonotis	0	0	0	0	0	0	0	0	0	0
Ceratomya	0	0	0	0	0	0	0	0	0	0
Gresslya	0	0	0	0	0	0	0	0	0	0
Makoiamya	0	0	0	0	0	0	0	0	0	0
Myopholas	0	0	0	0	0	0	0	0	0	0
Pteromya	0	0	0	0	0	0	0	0	0	0
Antiquicorbula	0	0	0	0	0	0	0	0	0	0
Corbulomima	0	0	0	0	0	0	0	0	0	0
Pleuromya	0	0	0	0	0	0	0	0	0	0
Ochotomya	0	0	0	0	0	0	0	0	0	0
Ouamouia	0	0	0	0	0	0	0	0	0	0
Somareoides	0	0	0	0	0	0	0	0	0	0
Weixiella	0	0	0	0	0	0	0	0	0	0
Arcomya	0	0	0	0	0	0	0	0	0	0
Goniomya	0	0	0	0	0	0	0	0	0	0
Homomya	0	0	0	0	0	0	0	0	0	0
Osteomya	0	0	0	0	0	0	0	0	0	0
Pachymya	0	0	0	0	0	0	0	0	0	0
Pholadomya	0	0	0	0	0	0	0	0	0	0
Anomalopleuroides	0	0	0	0	0	0	0	0	0	0
Girardotia	0	0	0	0	0	0	0	0	0	0
Cuspidaria	0	0	0	0	0	0	0	0	0	0
Magnolobia	0	0	0	0	0	0	0	0	0	0
Terquemia	0	0	0	0	0	0	0	0	0	0
Antijanira	0	0	0	0	0	0	0	0	0	0
Bittneria	0	0	0	0	0	0	0	0	0	0
Cochlearites	0	0	0	0	0	0	0	0	0	0
Crenamussium	0	0	0	0	0	0	0	0	0	0
Hokonuia	0	0	0	0	0	0	0	0	0	0
Langsonella	0	0	0	0	0	0	0	0	0	0
Lithioperna	0	0	0	0	0	0	0	0	0	0
Mytiloceramus	0	0	0	0	0	0	0	0	0	0
Ornithopecten	0	0	0	0	0	0	0	0	0	0
Pergamidia	0	0	0	0	0	0	0	0	0	0
Septihoernesia	0	0	0	0	0	0	0	0	0	0
Songdaella	0	0	0	0	0	0	0	0	0	0
Stefaninia	0	0	0	0	0	0	0	0	0	0
Mesoneilo	0	0	0	0	0	0	0	0	0	0
Nucinella	0	0	0	0	0	0	0	0	0	0
Burmesia	0	0	0	0	0	0	0	0	0	0
Thracia	0	0	0	0	0	0	0	0	0	0
Groeberella	0	0	0	0	0	0	0	0	0	0
Frenguelliella	0	0	0	0	0	0	0	0	0	0
Jaworskiella	0	0	0	0	0	0	0	0	0	0
Quadratojaworskiella	0	0	0	0	0	0	0	0	0	0
Myophorella	0	0	0	0	0	0	0	0	0	0
Scaphorella	0	0	0	0	0	0	0	0	0	0
Vaugonia	0	0	0	0	0	0	0	0	0	0
Caledogonia	0	0	0	0	0	0	0	0	0	0
Costatoria	0	0	0	0	0	0	0	0	0	0
Elegantinia	0	0	0	0	0	0	0	0	0	0
Gruenewaldia	0	0	0	0	0	0	0	0	0	0
Heminajas	0	0	0	0	0	0	0	0	0	0
Liotrigonia	0	0	0	0	0	0	0	0	0	0
Myophoria	0	0	0	0	0	0	0	0	0	0
Neoschizodus	0	0	0	0	0	0	0	0	0	0
Agonisca	0	0	0	0	0	0	0	0	0	0
Praegonia	0	0	0	0	0	0	0	0	0	0
Prosogyrotrigonia	0	0	0	0	0	0	0	0	0	0
Schizodus	0	0	0	0	0	0	0	0	0	0
Geratrigonia	0	0	0	0	0	0	0	0	0	0
Guineana	0	0	0	0	0	0	0	0	0	0
Kyushutrigonia	0	0	0	0	0	0	0	0	0	0
Maoritrigonia	0	0	0	0	0	0	0	0	0	0
Minetrigonia	0	0	0	0	0	0	0	0	0	0
Modesticoncha	0	0	0	0	0	0	0	0	0	0
Myophorigonia	0	0	0	0	0	0	0	0	0	0
Neuquenitrigonia	0	0	0	0	0	0	0	0	0	0
Trigonia	0	0	0	0	0	0	0	0	0	0
Anodontophora	0	0	0	0	0	0	0	0	0	0
Cardinioides	0	0	0	0	0	0	0	0	0	0
Janaija	0	0	0	0	0	0	0	0	0	0
Unionites	0	0	0	0	0	0	0	0	0	0
Atalantia	0	0	0	0	0	0	0	0	0	0
Erugonia	0	0	0	0	0	0	0	0	0	0
Prorotrigonia	0	0	0	0	0	0	0	0	0	0
Trigonodus	0	0	0	0	0	0	0	0	0	0
Pachycardia	0	0	0	0	0	0	0	0	0	0
Anisocardia	0	0	0	0	0	0	0	0	0	0
Coelocyprina	0	0	0	0	0	0	0	0	0	0
Isocyprina	0	0	0	0	0	0	0	0	0	0
Plesiocyprina	0	0	0	0	0	0	0	0	0	0
Pronoella	0	0	0	0	0	0	0	0	0	0
Pseudotrapezium	0	0	0	0	0	0	0	0	0	0
Rollierella	0	0	0	0	0	0	0	0	0	0
Pullastra	0	0	0	0	0	0	0	0	0	0
Solenomorpha	0	0	0	0	0	0	0	0	0	0
Laubeia	0	0	0	0	0	0	0	0	0	0
Taeniodon	0	0	0	0	0	0	0	0	0	0
Amaltheus	0	295	1990	1618	305	265	116	478	558	292
Amauroceras	0	0	0	0	0	0	0	0	0	0
Pleuroceras	0	0	0	0	0	0	0	0	0	0
Aegasteroceras	0	0	0	0	0	0	0	0	0	0
Agassiceras	0	0	0	0	0	0	0	0	0	0
Alsatites	0	0	0	0	0	0	0	0	0	0
Arctoasteroceras	0	0	0	0	0	0	0	0	0	0
Arnioceras	0	0	0	0	0	0	0	0	0	0
Asteroceras	0	0	0	0	0	0	0	0	0	0
Bagnolites	0	0	0	0	0	0	0	0	0	0
Caenisites	0	0	0	0	0	0	0	0	0	0
Coroniceras	0	0	0	0	0	0	0	0	0	0
Eparietites	0	0	0	0	0	0	0	0	0	0
Epophioceras	0	0	0	0	0	0	0	0	0	0
Euagassiceras	0	0	0	0	0	0	0	0	0	0
Guexiceras	0	0	0	0	0	0	0	0	0	0
Hypasteroceras	0	0	0	0	0	0	0	0	0	0
Metophioceras	0	0	0	0	0	0	0	0	0	0
Parasteroceras	0	0	0	0	0	0	0	0	0	0
Pseudaetomoceras	0	0	0	0	0	0	0	0	0	0
Tipperoceras	0	0	0	0	0	0	0	0	0	0
Tmaegoceras	0	0	0	0	0	0	0	0	0	0
Vermiceras	0	0	0	0	0	0	0	0	0	0
Clydoniceras	0	0	0	0	0	0	0	0	0	0
Apoderoceras	0	0	0	0	0	0	0	0	0	0
Bakonyceras	0	0	0	0	0	0	0	0	0	0
Coeloceras	0	0	0	0	0	0	0	0	0	0
Miltoceras	0	0	0	0	0	0	0	0	0	0
Pseudoskirroceras	0	0	0	0	0	0	0	0	0	0
Tetraspidoceras	0	0	0	0	0	0	0	0	0	0
Zamaiceras	0	0	0	0	0	0	0	0	0	0
Cymbites	0	0	0	0	0	0	0	0	0	0
Hyerifalchia	0	0	0	0	0	0	0	0	0	0
Aveyroniceras	0	0	0	0	0	0	0	0	0	0
Bettoniceras	0	0	0	0	0	0	0	0	0	0
Catacoeloceras	0	0	0	0	0	0	0	0	0	0
Cetonoceras	0	0	0	0	0	0	0	0	0	0
Collina	0	0	0	0	0	0	0	0	0	0
Dactylioceras	0	0	0	0	0	0	0	0	0	0
Mesodactylites	0	0	0	0	0	0	0	0	0	0
Nodicoeloceras	0	0	0	0	0	0	0	0	0	0
Peronoceras	0	0	0	0	0	0	0	0	0	0
Porpoceras	0	0	0	0	0	0	0	0	0	0
Prodactylioceras	0	0	0	0	0	0	0	0	0	0
Reynesoceras	0	0	0	0	0	0	0	0	0	0
Reynesocoeloceras	0	0	0	0	0	0	0	0	0	0
Zugodactylites	0	0	0	0	0	0	0	0	0	0
Echioceras	0	0	0	0	0	0	0	0	0	0
Gagaticeras	0	0	0	0	0	0	0	0	0	0
Leptechioceras	0	0	0	0	0	0	0	0	0	0
Palaeoechioceras	0	0	0	0	0	0	0	0	0	0
Paltechioceras	0	0	0	0	0	0	0	0	0	0
Plesechioceras	0	0	0	0	0	0	0	0	0	0
Appenninoceras	0	0	0	0	0	0	0	0	0	0
Bifericeras	0	0	0	0	0	0	0	0	0	0
Callomoniceras	0	0	0	0	0	0	0	0	0	0
Crucilobiceras	0	0	0	0	0	0	0	0	0	0
Dubariceras	0	0	0	0	0	0	0	0	0	0
Eoamaltheus	0	0	0	0	0	0	0	0	0	0
Eoderoceras	0	0	0	0	0	0	0	0	0	0
Eteoderoceras	0	0	0	0	0	0	0	0	0	0
Fanninoceras	0	0	0	0	0	0	0	0	0	0
Hyperderoceras	0	0	0	0	0	0	0	0	0	0
Metaderoceras	0	0	0	0	0	0	0	0	0	0
Microderoceras	0	0	0	0	0	0	0	0	0	0
Paramicroderoceras	0	0	0	0	0	0	0	0	0	0
Promicroceras	0	0	0	0	0	0	0	0	0	0
Xipheroceras	0	0	0	0	0	0	0	0	0	0
Brasilia	0	0	0	0	0	0	0	0	0	0
Canavarella	0	0	0	0	0	0	0	0	0	0
Cylicoceras	0	0	0	0	0	0	0	0	0	0
Graphoceras	0	0	0	0	0	0	0	0	0	0
Hyperlioceras	0	0	0	0	0	0	0	0	0	0
Leioceras	0	0	0	0	0	0	0	0	0	0
Ludwigia	0	0	0	0	0	0	0	0	0	0
Staufenia	0	0	0	0	0	0	0	0	0	0
Abbasites	0	0	0	0	0	0	0	0	0	0
Abbasitoides	0	0	0	0	0	0	0	0	0	0
Accardia	0	0	0	0	0	0	0	0	0	0
Bredyia	0	0	0	0	0	0	0	0	0	0
Cagliceras	0	0	0	0	0	0	0	0	0	0
Crestaites	0	0	0	0	0	0	0	0	0	0
Csernyeiceras	0	0	0	0	0	0	0	0	0	0
Erycites	0	0	0	0	0	0	0	0	0	0
Erycitoides	0	0	0	0	0	0	0	0	0	0
Euaptetoceras	0	0	0	0	0	0	0	0	0	0
Eudmetoceras	0	0	0	0	0	0	0	0	0	0
Hammatoceras	0	0	0	0	0	0	0	0	0	0
Haplopleuroceras	0	0	0	0	0	0	0	0	0	0
Malladaites	0	0	0	0	0	0	0	0	0	0
Onychoceras	0	0	0	0	0	0	0	0	0	0
Planammatoceras	0	0	0	0	0	0	0	0	0	0
Pseudaptetoceras	0	0	0	0	0	0	0	0	0	0
Puchenquia	0	0	0	0	0	0	0	0	0	0
Sphaerocoeloceras	0	0	0	0	0	0	0	0	0	0
Spinammatoceras	0	0	0	0	0	0	0	0	0	0
Zurcheria	0	0	0	0	0	0	0	0	0	0
Arieticeras	0	0	0	0	0	0	0	0	0	0
Bouleiceras	0	0	0	0	0	0	0	0	0	0
Canavaria	0	0	0	0	0	0	0	0	0	0
Catulloceras	0	0	0	0	0	0	0	0	0	0
Cingolites	0	0	0	0	0	0	0	0	0	0
Cleviceras	0	0	0	0	0	0	0	0	0	0
Cotteswoldia	0	0	0	0	0	0	0	0	0	0
Dumortieria	0	0	0	0	0	0	0	0	0	0
Eleganticeras	0	0	0	0	0	0	0	0	0	0
Emaciaticeras	0	0	0	0	0	0	0	0	0	0
Fontanelliceras	0	0	0	0	0	0	0	0	0	0
Frechiella	0	0	0	0	0	0	0	0	0	0
Fuciniceras	0	0	0	0	0	0	0	0	0	0
Grammoceras	0	0	0	0	0	0	0	0	0	0
Gruneria	0	0	0	0	0	0	0	0	0	0
Harpoceras	0	0	0	0	0	0	0	0	0	0
Hildaites	0	0	0	0	0	0	0	0	0	0
Hildoceras	0	0	0	0	0	0	0	0	0	0
Hudlestonia	0	0	0	0	0	0	0	0	0	0
Jacobella	0	0	0	0	0	0	0	0	0	0
Kohaticeras	0	0	0	0	0	0	0	0	0	0
Leptaleoceras	0	0	0	0	0	0	0	0	0	0
Leukadiella	0	0	0	0	0	0	0	0	0	0
Lioceratoides	0	0	0	0	0	0	0	0	0	0
Mauretaniaceras	0	0	0	0	0	0	0	0	0	0
Mercaticeras	0	0	0	0	0	0	0	0	0	0
Nejdia	0	0	0	0	0	0	0	0	0	0
Orthildaites	0	0	0	0	0	0	0	0	0	0
Osperleioceras	0	0	0	0	0	0	0	0	0	0
Ovaticeras	0	0	0	0	0	0	0	0	0	0
Parahildaites	0	0	0	0	0	0	0	0	0	0
Paroniceras	0	0	0	0	0	0	0	0	0	0
Phlyseogrammoceras	0	0	0	0	0	0	0	0	0	0
Pleydellia	0	0	0	0	0	0	0	0	0	0
Podagrosites	0	0	0	0	0	0	0	0	0	0
Polyplectus	0	0	0	0	0	0	0	0	0	0
Protogrammoceras	0	0	0	0	0	0	0	0	0	0
Pseudogrammoceras	0	0	0	0	0	0	0	0	0	0
Pseudolillia	0	0	0	0	0	0	0	0	0	0
Pseudolioceras	0	0	0	0	0	0	0	0	0	0
Shakraceras	0	0	0	0	0	0	0	0	0	0
Taffertia	0	0	0	0	0	0	0	0	0	0
Tauromeniceras	0	0	0	0	0	0	0	0	0	0
Tiltoniceras	0	0	0	0	0	0	0	0	0	0
Tmetoceras	0	0	0	0	0	0	0	0	0	0
Troitsaia	0	0	0	0	0	0	0	0	0	0
Yakounia	0	0	0	0	0	0	0	0	0	0
Kepplerites	0	0	0	0	0	0	0	0	0	0
Aegoceras	0	0	0	0	0	0	0	0	0	0
Androgynoceras	0	0	0	0	0	0	0	0	0	0
Liparoceras	0	0	0	0	0	0	0	0	0	0
Vicininodiceras	0	0	0	0	0	0	0	0	0	0
Adnethiceras	0	0	0	0	0	0	0	0	0	0
Alocolytoceras	0	0	0	0	0	0	0	0	0	0
Analytoceras	0	0	0	0	0	0	0	0	0	0
Baltzerites	0	0	0	0	0	0	0	0	0	0
Bouhamidoceras	0	0	0	0	0	0	0	0	0	0
Castanyiceras	0	0	0	0	0	0	0	0	0	0
Ectocentrites	0	0	0	0	0	0	0	0	0	0
Eolytoceras	0	0	0	0	0	0	0	0	0	0
Exomiloceras	0	0	0	0	0	0	0	0	0	0
Galaticeras	0	0	0	0	0	0	0	0	0	0
Holcolytoceras	0	0	0	0	0	0	0	0	0	0
Kericserites	0	0	0	0	0	0	0	0	0	0
Lobolytoceras	0	0	0	0	0	0	0	0	0	0
Lytoceras	0	0	0	0	0	0	0	0	0	0
Lytotropites	0	0	0	0	0	0	0	0	0	0
Pachylytoceras	0	0	0	0	0	0	0	0	0	0
Pleuroacanthites	0	0	0	0	0	0	0	0	0	0
Pleurolytoceras	0	0	0	0	0	0	0	0	0	0
Tragolytoceras	0	0	0	0	0	0	0	0	0	0
Zaghouanites	0	0	0	0	0	0	0	0	0	0
Indocephalites	0	0	0	0	0	0	0	0	0	0
Bradfordia	0	0	0	0	0	0	0	0	0	0
Rollieria2	0	0	0	0	0	0	0	0	0	0
Docidoceras	0	0	0	0	0	0	0	0	0	0
Cheltonia	0	0	0	0	0	0	0	0	0	0
Gleviceras	0	0	0	0	0	0	0	0	0	0
Oxynoticeras	0	0	0	0	0	0	0	0	0	0
Oxynoticeroides	0	0	0	0	0	0	0	0	0	0
Paracymbites	0	0	0	0	0	0	0	0	0	0
Paroxynoticeras	0	0	0	0	0	0	0	0	0	0
Radstockiceras	0	0	0	0	0	0	0	0	0	0
Capreoliceras	0	0	0	0	0	0	0	0	0	0
Foetterleiceras	0	0	0	0	0	0	0	0	0	0
Phricodoceras	0	0	0	0	0	0	0	0	0	0
Pseuduptonia	0	0	0	0	0	0	0	0	0	0
Villania	0	0	0	0	0	0	0	0	0	0
Brodieia	0	0	0	0	0	0	0	0	0	0
Crassiceras	0	0	0	0	0	0	0	0	0	0
Esericeras	0	0	0	0	0	0	0	0	0	0
Furloceras	0	0	0	0	0	0	0	0	0	0
Haugia	0	0	0	0	0	0	0	0	0	0
Haugiella	0	0	0	0	0	0	0	0	0	0
Phymatoceras	0	0	0	0	0	0	0	0	0	0
Pseudomercaticeras	0	0	0	0	0	0	0	0	0	0
Acanthopleuroceras	0	0	0	0	0	0	0	0	0	0
Catriceras	0	0	0	0	0	0	0	0	0	0
Dayiceras	0	0	0	0	0	0	0	0	0	0
Gemmellaroceras	0	0	0	0	0	0	0	0	0	0
Jamesonites	0	0	0	0	0	0	0	0	0	0
Paratropidoceras	0	0	0	0	0	0	0	0	0	0
Parinodiceras	0	0	0	0	0	0	0	0	0	0
Platypleuroceras	0	0	0	0	0	0	0	0	0	0
Polymorphites	0	0	0	0	0	0	0	0	0	0
Tropidoceras	0	0	0	0	0	0	0	0	0	0
Uptonia	0	0	0	0	0	0	0	0	0	0
Badouxia	0	0	0	0	0	0	0	0	0	0
Caloceras	0	0	0	0	0	0	0	0	0	0
Discamphiceras	0	0	0	0	0	0	0	0	0	0
Euphyllites	0	0	0	0	0	0	0	0	0	0
Franziceras	0	0	0	0	0	0	0	0	0	0
Kammerkaroceras	0	0	0	0	0	0	0	0	0	0
Mullerites	0	0	0	0	0	0	0	0	0	0
Neophyllites	0	0	0	0	0	0	0	0	0	0
Paradiscamphiceras	0	0	0	0	0	0	0	0	0	0
Psiloceras	0	0	0	0	0	0	0	0	0	0
Psilophyllites	0	0	0	0	0	0	0	0	0	0
Sunrisites	0	0	0	0	0	0	0	0	0	0
Angulaticeras	0	0	0	0	0	0	0	0	0	0
Kammerkarites	0	0	0	0	0	0	0	0	0	0
Macrogrammites	0	0	0	0	0	0	0	0	0	0
Saxoceras	0	0	0	0	0	0	0	0	0	0
Schlotheimia	0	0	0	0	0	0	0	0	0	0
Waehneroceras	0	0	0	0	0	0	0	0	0	0
Sinuiceras	0	0	0	0	0	0	0	0	0	0
Sphenoacanthites	0	0	0	0	0	0	0	0	0	0
Asthenoceras	0	0	0	0	0	0	0	0	0	0
Fontannesia	0	0	0	0	0	0	0	0	0	0
Sonninia	0	0	0	0	0	0	0	0	0	0
Chondroceras	0	0	0	0	0	0	0	0	0	0
Iniskinites	0	0	0	0	0	0	0	0	0	0
Lilloettia	0	0	0	0	0	0	0	0	0	0
Sphaeroceras	0	0	0	0	0	0	0	0	0	0
Xenocephalites	0	0	0	0	0	0	0	0	0	0
Cadomites	0	0	0	0	0	0	0	0	0	0
Bullatimorphites	0	0	0	0	0	0	0	0	0	0
Dudresnayiceras	0	0	0	0	0	0	0	0	0	0
Oxyarietites	0	0	0	0	0	0	0	0	0	0
Riccardiceras	0	0	0	0	0	0	0	0	0	0
Asteroconites	0	0	0	0	0	0	0	0	0	0
Aulacoceras	0	0	0	0	0	0	0	0	0	0
Dictyoconites	0	0	0	0	0	0	0	0	0	0
Atractites	0	0	0	0	0	0	0	0	0	0
Calliconites	0	0	0	0	0	0	0	0	0	0
Dillerites	0	0	0	0	0	0	0	0	0	0
Cylindroteuthis	0	0	0	0	0	0	0	0	0	0
Prototeuthis	0	0	0	0	0	0	0	0	0	0
Belemnopsis	0	0	0	0	0	0	0	0	0	0
Bairstowius	0	0	0	0	0	0	0	0	0	0
Hastites	0	0	0	0	0	0	0	0	0	0
Pleurobelus	0	0	0	0	0	0	0	0	0	0
Rhabdobelus	0	0	0	0	0	0	0	0	0	0
Subhastites	0	0	0	0	0	0	0	0	0	0
Acrocoelites	0	0	0	0	0	0	0	0	0	0
Cuspiteuthis	0	0	0	0	0	0	0	0	0	0
Dactyloteuthis	0	0	0	0	0	0	0	0	0	0
Nipponoteuthis	0	0	0	0	0	0	0	0	0	0
Angeloteuthis	0	0	0	0	0	0	0	0	0	0
Clastoteuthis	0	0	0	0	0	0	0	0	0	0
Parapassaloteuthis	0	0	0	0	0	0	0	0	0	0
Passaloteuthis	0	0	0	0	0	0	0	0	0	0
Pseudohastites	0	0	0	0	0	0	0	0	0	0
Schwegleria	0	0	0	0	0	0	0	0	0	0
Salpingoteuthis	0	0	0	0	0	0	0	0	0	0
Belemnites	0	0	0	0	0	0	0	0	0	0
Brachybelus	0	0	0	0	0	0	0	0	0	0
Brevibelus	0	0	0	0	0	0	0	0	0	0
Chondroteuthis	0	0	0	0	0	0	0	0	0	0
Conodicoelites	0	0	0	0	0	0	0	0	0	0
Hibolites	0	0	0	0	0	0	0	0	0	0
Holcobelus	0	0	0	0	0	0	0	0	0	0
Homaloteuthis	0	0	0	0	0	0	0	0	0	0
Mesoteuthis	0	0	0	0	0	0	0	0	0	0
Nannobelus	0	0	0	0	0	0	0	0	0	0
Simpsonibelus	0	0	0	0	0	0	0	0	0	0
Sinobelemnites	0	0	0	0	0	0	0	0	0	0
Adygeites	0	0	0	0	0	0	0	0	0	0
Apleuroceras	0	0	0	0	0	0	0	0	0	0
Aplococeras	0	0	0	0	0	0	0	0	0	0
Epiceratites	0	0	0	0	0	0	0	0	0	0
Arcestes	0	0	0	0	0	0	0	0	0	0
Proarcestes	0	0	0	0	0	0	0	0	0	0
Stenarcestes	0	0	0	0	0	0	0	0	0	0
Klipsteinia	0	0	0	0	0	0	0	0	0	0
Badiotites	0	0	0	0	0	0	0	0	0	0
Arctogymnites	0	0	0	0	0	0	0	0	0	0
Pleurofrechites	0	0	0	0	0	0	0	0	0	0
Tuchodiceras	0	0	0	0	0	0	0	0	0	0
Carnites	0	0	0	0	0	0	0	0	0	0
Alkaites	0	0	0	0	0	0	0	0	0	0
Bugunzhites	0	0	0	0	0	0	0	0	0	0
Ceratites	0	0	0	0	0	0	0	0	0	0
Chieseiceras	0	0	0	0	0	0	0	0	0	0
Detoniceras	0	0	0	0	0	0	0	0	0	0
Halilucites	0	0	0	0	0	0	0	0	0	0
Kellnerites	0	0	0	0	0	0	0	0	0	0
Latemarites	0	0	0	0	0	0	0	0	0	0
Nevadites	0	0	0	0	0	0	0	0	0	0
Paraceratites	0	0	0	0	0	0	0	0	0	0
Parakellnerites	0	0	0	0	0	0	0	0	0	0
Reitziites	0	0	0	0	0	0	0	0	0	0
Rossiceras	0	0	0	0	0	0	0	0	0	0
Stoppaniceras	0	0	0	0	0	0	0	0	0	0
Xenoprotrachyceras	0	0	0	0	0	0	0	0	0	0
Yangites	0	0	0	0	0	0	0	0	0	0
Choristoceras	0	0	0	0	0	0	0	0	0	0
Vandaites	0	0	0	0	0	0	0	0	0	0
Cladiscites	0	0	0	0	0	0	0	0	0	0
Hypocladiscites	0	0	0	0	0	0	0	0	0	0
Paracladiscites	0	0	0	0	0	0	0	0	0	0
Sphaerocladiscites	0	0	0	0	0	0	0	0	0	0
Clionitites	0	0	0	0	0	0	0	0	0	0
Leconteia	0	0	0	0	0	0	0	0	0	0
Clydonites	0	0	0	0	0	0	0	0	0	0
Cochloceras	0	0	0	0	0	0	0	0	0	0
Paracochloceras	0	0	0	0	0	0	0	0	0	0
Cycloceltites	0	0	0	0	0	0	0	0	0	0
Neotenoceras	0	0	0	0	0	0	0	0	0	0
Ophiorhabdoceras	0	0	0	0	0	0	0	0	0	0
Orthoceltites	0	0	0	0	0	0	0	0	0	0
Ticinites	0	0	0	0	0	0	0	0	0	0
Didymites	0	0	0	0	0	0	0	0	0	0
Neodidymites	0	0	0	0	0	0	0	0	0	0
Distichites	0	0	0	0	0	0	0	0	0	0
Ectolcites	0	0	0	0	0	0	0	0	0	0
Leiodistichites	0	0	0	0	0	0	0	0	0	0
Paradistichites	0	0	0	0	0	0	0	0	0	0
Pleurodistichites	0	0	0	0	0	0	0	0	0	0
Trachypleuraspidites	0	0	0	0	0	0	0	0	0	0
Dronovites	0	0	0	0	0	0	0	0	0	0
Eosagenites	0	0	0	0	0	0	0	0	0	0
Episculites	0	0	0	0	0	0	0	0	0	0
Hypisculites	0	0	0	0	0	0	0	0	0	0
Parisculites	0	0	0	0	0	0	0	0	0	0
Anagymnites	0	0	0	0	0	0	0	0	0	0
Epigymnites	0	0	0	0	0	0	0	0	0	0
Gymnites	0	0	0	0	0	0	0	0	0	0
Paragymnites	0	0	0	0	0	0	0	0	0	0
Phyllytoceras	0	0	0	0	0	0	0	0	0	0
Protoplatytes	0	0	0	0	0	0	0	0	0	0
Amarassites	0	0	0	0	0	0	0	0	0	0
Anatomites	0	0	0	0	0	0	0	0	0	0
Barrandeites	0	0	0	0	0	0	0	0	0	0
Catenohalorites	0	0	0	0	0	0	0	0	0	0
Eusagenites	0	0	0	0	0	0	0	0	0	0
Gnomohalorites	0	0	0	0	0	0	0	0	0	0
Halorites	0	0	0	0	0	0	0	0	0	0
Hyattites	0	0	0	0	0	0	0	0	0	0
Miltites	0	0	0	0	0	0	0	0	0	0
Paraguembelites	0	0	0	0	0	0	0	0	0	0
Parajuvavites	0	0	0	0	0	0	0	0	0	0
Ptycharcestes	0	0	0	0	0	0	0	0	0	0
Sagenites	0	0	0	0	0	0	0	0	0	0
Trachysagenites	0	0	0	0	0	0	0	0	0	0
Tropihalorites	0	0	0	0	0	0	0	0	0	0
Tropijuvavites	0	0	0	0	0	0	0	0	0	0
Heraclites	0	0	0	0	0	0	0	0	0	0
Wangoceras	0	0	0	0	0	0	0	0	0	0
Hungarites	0	0	0	0	0	0	0	0	0	0
Joannites	0	0	0	0	0	0	0	0	0	0
Romanites	0	0	0	0	0	0	0	0	0	0
Bacchites	0	0	0	0	0	0	0	0	0	0
Dimorphites	0	0	0	0	0	0	0	0	0	0
Discomalayites	0	0	0	0	0	0	0	0	0	0
Dryojuvavites	0	0	0	0	0	0	0	0	0	0
Epijuvavites	0	0	0	0	0	0	0	0	0	0
Goniojuvavites	0	0	0	0	0	0	0	0	0	0
Gonionotites	0	0	0	0	0	0	0	0	0	0
Griesbachites	0	0	0	0	0	0	0	0	0	0
Guembelites	0	0	0	0	0	0	0	0	0	0
Indojuvavites	0	0	0	0	0	0	0	0	0	0
Juvavites	0	0	0	0	0	0	0	0	0	0
Malayites	0	0	0	0	0	0	0	0	0	0
Margarijuvavites	0	0	0	0	0	0	0	0	0	0
Omojuvavites	0	0	0	0	0	0	0	0	0	0
Projuvavites	0	0	0	0	0	0	0	0	0	0
Pseudocardioceras	0	0	0	0	0	0	0	0	0	0
Dieneria	0	0	0	0	0	0	0	0	0	0
Klamathites	0	0	0	0	0	0	0	0	0	0
Parahauerites	0	0	0	0	0	0	0	0	0	0
Lecanites	0	0	0	0	0	0	0	0	0	0
Coroceras	0	0	0	0	0	0	0	0	0	0
Lobites	0	0	0	0	0	0	0	0	0	0
Paralobites	0	0	0	0	0	0	0	0	0	0
Intornites	0	0	0	0	0	0	0	0	0	0
Longobardites	0	0	0	0	0	0	0	0	0	0
Megaphyllites	0	0	0	0	0	0	0	0	0	0
Nitanoceras	0	0	0	0	0	0	0	0	0	0
Gabboceras	0	0	0	0	0	0	0	0	0	0
Lissonites	0	0	0	0	0	0	0	0	0	0
Metasibirites	0	0	0	0	0	0	0	0	0	0
Tozeria	0	0	0	0	0	0	0	0	0	0
Eonathorstites	0	0	0	0	0	0	0	0	0	0
Indigirites	0	0	0	0	0	0	0	0	0	0
Nathorstites	0	0	0	0	0	0	0	0	0	0
Stolleyites	0	0	0	0	0	0	0	0	0	0
Tsvetkovites	0	0	0	0	0	0	0	0	0	0
Nairites	0	0	0	0	0	0	0	0	0	0
Noridiscites	0	0	0	0	0	0	0	0	0	0
Norites	0	0	0	0	0	0	0	0	0	0
Parathisbites	0	0	0	0	0	0	0	0	0	0
Phormedites	0	0	0	0	0	0	0	0	0	0
Eupinacoceras	0	0	0	0	0	0	0	0	0	0
Pinacoceras	0	0	0	0	0	0	0	0	0	0
Nevadisculites	0	0	0	0	0	0	0	0	0	0
Arctoptychites	0	0	0	0	0	0	0	0	0	0
Aristoptychites	0	0	0	0	0	0	0	0	0	0
Flexoptychites	0	0	0	0	0	0	0	0	0	0
Istreites	0	0	0	0	0	0	0	0	0	0
Ptychites	0	0	0	0	0	0	0	0	0	0
Peripleurites	0	0	0	0	0	0	0	0	0	0
Rhabdoceras	0	0	0	0	0	0	0	0	0	0
Rimkinites	0	0	0	0	0	0	0	0	0	0
Sageceras	0	0	0	0	0	0	0	0	0	0
Eremites	0	0	0	0	0	0	0	0	0	0
Sandlingites	0	0	0	0	0	0	0	0	0	0
Shastites	0	0	0	0	0	0	0	0	0	0
Traskites	0	0	0	0	0	0	0	0	0	0
Sphingites	0	0	0	0	0	0	0	0	0	0
Alloclionites	0	0	0	0	0	0	0	0	0	0
Bihatites	0	0	0	0	0	0	0	0	0	0
Brouwerites	0	0	0	0	0	0	0	0	0	0
Eosteinmannites	0	0	0	0	0	0	0	0	0	0
Metaclionites	0	0	0	0	0	0	0	0	0	0
Nannosteinmannites	0	0	0	0	0	0	0	0	0	0
Steinmannites	0	0	0	0	0	0	0	0	0	0
Discoptychites	0	0	0	0	0	0	0	0	0	0
Parasturia	0	0	0	0	0	0	0	0	0	0
Sturia	0	0	0	0	0	0	0	0	0	0
Drumoceras	0	0	0	0	0	0	0	0	0	0
Thanamites	0	0	0	0	0	0	0	0	0	0
Acanthothetidites	0	0	0	0	0	0	0	0	0	0
Eothetidites	0	0	0	0	0	0	0	0	0	0
Helictites	0	0	0	0	0	0	0	0	0	0
Idaoceras	0	0	0	0	0	0	0	0	0	0
Leislingites	0	0	0	0	0	0	0	0	0	0
Nassichukites	0	0	0	0	0	0	0	0	0	0
Parathetidites	0	0	0	0	0	0	0	0	0	0
Pseudothetidites	0	0	0	0	0	0	0	0	0	0
Thetidites	0	0	0	0	0	0	0	0	0	0
Hadrothisbites	0	0	0	0	0	0	0	0	0	0
Metathisbites	0	0	0	0	0	0	0	0	0	0
Mojsisovicsites	0	0	0	0	0	0	0	0	0	0
Stikinoceras	0	0	0	0	0	0	0	0	0	0
Thisbites	0	0	0	0	0	0	0	0	0	0
Tropithisbites	0	0	0	0	0	0	0	0	0	0
Acanthinites	0	0	0	0	0	0	0	0	0	0
Acanthodrepanites	0	0	0	0	0	0	0	0	0	0
Ammotibetites	0	0	0	0	0	0	0	0	0	0
Anatibetites	0	0	0	0	0	0	0	0	0	0
Carinacanthites	0	0	0	0	0	0	0	0	0	0
Cyrtopleurites	0	0	0	0	0	0	0	0	0	0
Dimorphotoceras	0	0	0	0	0	0	0	0	0	0
Dionites	0	0	0	0	0	0	0	0	0	0
Drepanites	0	0	0	0	0	0	0	0	0	0
Gandakites	0	0	0	0	0	0	0	0	0	0
Hauerites	0	0	0	0	0	0	0	0	0	0
Himavatites	0	0	0	0	0	0	0	0	0	0
Lanpingoceras	0	0	0	0	0	0	0	0	0	0
Lipuites	0	0	0	0	0	0	0	0	0	0
Mesohimavatites	0	0	0	0	0	0	0	0	0	0
Metacarnites	0	0	0	0	0	0	0	0	0	0
Neohimavatites	0	0	0	0	0	0	0	0	0	0
Neotibetites	0	0	0	0	0	0	0	0	0	0
Nodotibetites	0	0	0	0	0	0	0	0	0	0
Oxytibetites	0	0	0	0	0	0	0	0	0	0
Palicites	0	0	0	0	0	0	0	0	0	0
Paratibetites	0	0	0	0	0	0	0	0	0	0
Prodrepanites	0	0	0	0	0	0	0	0	0	0
Sirenotibetites	0	0	0	0	0	0	0	0	0	0
Thiniites	0	0	0	0	0	0	0	0	0	0
Tibetites	0	0	0	0	0	0	0	0	0	0
Xenodrepanites	0	0	0	0	0	0	0	0	0	0
Anasirenites	0	0	0	0	0	0	0	0	0	0
Anolcites	0	0	0	0	0	0	0	0	0	0
Arctoarpadites	0	0	0	0	0	0	0	0	0	0
Arctosirenites	0	0	0	0	0	0	0	0	0	0
Argolites	0	0	0	0	0	0	0	0	0	0
Argosirenites	0	0	0	0	0	0	0	0	0	0
Arpadites	0	0	0	0	0	0	0	0	0	0
Asklepioceras	0	0	0	0	0	0	0	0	0	0
Austrotrachyceras	0	0	0	0	0	0	0	0	0	0
Boreotrachyceras	0	0	0	0	0	0	0	0	0	0
Brotheotrachyceras	0	0	0	0	0	0	0	0	0	0
Daxatina	0	0	0	0	0	0	0	0	0	0
Dittmarites	0	0	0	0	0	0	0	0	0	0
Eoprotrachyceras	0	0	0	0	0	0	0	0	0	0
Frankites	0	0	0	0	0	0	0	0	0	0
Hannaoceras	0	0	0	0	0	0	0	0	0	0
Haoceras	0	0	0	0	0	0	0	0	0	0
Hisnitites	0	0	0	0	0	0	0	0	0	0
Liardites	0	0	0	0	0	0	0	0	0	0
Maclearnoceras	0	0	0	0	0	0	0	0	0	0
Meginoceras	0	0	0	0	0	0	0	0	0	0
Muensterites	0	0	0	0	0	0	0	0	0	0
Neoprotrachyceras	0	0	0	0	0	0	0	0	0	0
Neosirenites	0	0	0	0	0	0	0	0	0	0
Norosirenites	0	0	0	0	0	0	0	0	0	0
Okhototrachyceras	0	0	0	0	0	0	0	0	0	0
Pamphagosirenites	0	0	0	0	0	0	0	0	0	0
Paratrachyceras	0	0	0	0	0	0	0	0	0	0
Protrachyceras	0	0	0	0	0	0	0	0	0	0
Pseudosirenites	0	0	0	0	0	0	0	0	0	0
Pterosirenites	0	0	0	0	0	0	0	0	0	0
Seimkanites	0	0	0	0	0	0	0	0	0	0
Silenticeras	0	0	0	0	0	0	0	0	0	0
Sinomeginoceras	0	0	0	0	0	0	0	0	0	0
Sirenites	0	0	0	0	0	0	0	0	0	0
Sirenotrachyceras	0	0	0	0	0	0	0	0	0	0
Spirogmoceras	0	0	0	0	0	0	0	0	0	0
Striatosirenites	0	0	0	0	0	0	0	0	0	0
Sympolycyclus	0	0	0	0	0	0	0	0	0	0
Trachyceras	0	0	0	0	0	0	0	0	0	0
Trachystenoceras	0	0	0	0	0	0	0	0	0	0
Yakutosirenites	0	0	0	0	0	0	0	0	0	0
Zestoceras	0	0	0	0	0	0	0	0	0	0
Discostyrites	0	0	0	0	0	0	0	0	0	0
Styrites	0	0	0	0	0	0	0	0	0	0
Tardeceras	0	0	0	0	0	0	0	0	0	0
Tornquistites	0	0	0	0	0	0	0	0	0	0
Tropiceltites	0	0	0	0	0	0	0	0	0	0
Acanthotropites	0	0	0	0	0	0	0	0	0	0
Anatropites	0	0	0	0	0	0	0	0	0	0
Arctotropites	0	0	0	0	0	0	0	0	0	0
Arietoceltites	0	0	0	0	0	0	0	0	0	0
Discotropites	0	0	0	0	0	0	0	0	0	0
Euisculites	0	0	0	0	0	0	0	0	0	0
Gymnotropites	0	0	0	0	0	0	0	0	0	0
Homerites	0	0	0	0	0	0	0	0	0	0
Hoplotropites	0	0	0	0	0	0	0	0	0	0
Indonesites	0	0	0	0	0	0	0	0	0	0
Jovites	0	0	0	0	0	0	0	0	0	0
Margarites	0	0	0	0	0	0	0	0	0	0
Margaritropites	0	0	0	0	0	0	0	0	0	0
Microtropites	0	0	0	0	0	0	0	0	0	0
Paratropites	0	0	0	0	0	0	0	0	0	0
Pleurotropites	0	0	0	0	0	0	0	0	0	0
Sibyllites	0	0	0	0	0	0	0	0	0	0
Tropites	0	0	0	0	0	0	0	0	0	0
Paraganides	0	0	0	0	0	0	0	0	0	0
Loligosepia	0	0	0	0	0	0	0	0	0	0
Cenoceras	0	0	0	0	0	0	0	0	0	0
Digonioceras	0	0	0	0	0	0	0	0	0	0
Ophionautilus	0	0	0	0	0	0	0	0	0	0
Clydonautilus	0	0	0	0	0	0	0	0	0	0
Cosmonautilus	0	0	0	0	0	0	0	0	0	0
Proclydonautilus	0	0	0	0	0	0	0	0	0	0
Styrionautilus	0	0	0	0	0	0	0	0	0	0
Gonionautilus	0	0	0	0	0	0	0	0	0	0
Grypoceras	0	0	0	0	0	0	0	0	0	0
Gryponautilus	0	0	0	0	0	0	0	0	0	0
Paranautilus	0	0	0	0	0	0	0	0	0	0
Perunautilus	0	0	0	0	0	0	0	0	0	0
Belmonticeras	0	0	0	0	0	0	0	0	0	0
Ligeiceras	0	0	0	0	0	0	0	0	0	0
Pseudaganides	0	0	0	0	0	0	0	0	0	0
Siberionautilus	0	0	0	0	0	0	0	0	0	0
Clymenonautilus	0	0	0	0	0	0	0	0	0	0
Juvavionautilus	0	0	0	0	0	0	0	0	0	0
Oxynautilus	0	0	0	0	0	0	0	0	0	0
Syringoceras	0	0	0	0	0	0	0	0	0	0
Syringonautilus	0	0	0	0	0	0	0	0	0	0
Encoiloceras	0	0	0	0	0	0	0	0	0	0
Enoploceras	0	0	0	0	0	0	0	0	0	0
Germanonautilus	0	0	0	0	0	0	0	0	0	0
Grumantoceras	0	0	0	0	0	0	0	0	0	0
Holconautilus	0	0	0	0	0	0	0	0	0	0
Mojsvaroceras	0	0	0	0	0	0	0	0	0	0
Phloioceras	0	0	0	0	0	0	0	0	0	0
Pleuronautilus	0	0	0	0	0	0	0	0	0	0
Sibyllonautilus	0	0	0	0	0	0	0	0	0	0
Yakutionautilus	0	0	0	0	0	0	0	0	0	0
Michelinoceras	0	0	0	0	0	0	0	0	0	0
Orthoceras	0	0	0	0	0	0	0	0	0	0
Trematoceras	0	0	0	0	0	0	0	0	0	0
Belemnoteuthis	0	0	0	0	0	0	0	0	0	0
Discophyllites	0	0	0	0	0	0	0	0	0	0
Rhacophyllites	0	0	0	0	0	0	0	0	0	0
Tragorhacoceras	0	0	0	0	0	0	0	0	0	0
Fergusonites	0	0	0	0	0	0	0	0	0	0
Juraphyllites	0	0	0	0	0	0	0	0	0	0
Nevadaphyllites	0	0	0	0	0	0	0	0	0	0
Paradasyceras	0	0	0	0	0	0	0	0	0	0
Togaticeras	0	0	0	0	0	0	0	0	0	0
Tragophylloceras	0	0	0	0	0	0	0	0	0	0
Adabofoloceras	0	0	0	0	0	0	0	0	0	0
Calaiceras	0	0	0	0	0	0	0	0	0	0
Calliphylloceras	0	0	0	0	0	0	0	0	0	0
Hantkeniceras	0	0	0	0	0	0	0	0	0	0
Holcophylloceras	0	0	0	0	0	0	0	0	0	0
Partschiceras	0	0	0	0	0	0	0	0	0	0
Phylloceras	0	0	0	0	0	0	0	0	0	0
Ptychophylloceras	0	0	0	0	0	0	0	0	0	0
Zetoceras	0	0	0	0	0	0	0	0	0	0
Eopsiloceras	0	0	0	0	0	0	0	0	0	0
Indigirophyllites	0	0	0	0	0	0	0	0	0	0
Metatirolites	0	0	0	0	0	0	0	0	0	0
Mojsvarites	0	0	0	0	0	0	0	0	0	0
Monophyllites	0	0	0	0	0	0	0	0	0	0
Palaeophyllites	0	0	0	0	0	0	0	0	0	0
Simonyceras	0	0	0	0	0	0	0	0	0	0
Ussurites	0	0	0	0	0	0	0	0	0	0
Wopfingites	0	0	0	0	0	0	0	0	0	0
Arctophyllites	0	0	0	0	0	0	0	0	0	0
Kolymophylloceras	0	0	0	0	0	0	0	0	0	0
Platyphylloceras	0	0	0	0	0	0	0	0	0	0
Schistophylloceras	0	0	0	0	0	0	0	0	0	0
Yukagirites	0	0	0	0	0	0	0	0	0	0
Lioteuthis	0	0	0	0	0	0	0	0	0	0
Celtites	0	0	0	0	0	0	0	0	0	0
Kasimlarceltites	0	0	0	0	0	0	0	0	0	0
Homeroceras	0	0	0	0	0	0	0	0	0	0
Ausseites	0	0	0	0	0	0	0	0	0	0
Odoghertyceras	0	0	0	0	0	0	0	0	0	0
Osperlioceras	0	0	0	0	0	0	0	0	0	0
Palaeocomaster	0	13	26	28	22	12	11	25	59	32
Bilecicrinus	0	0	0	0	0	0	0	0	0	0
Capsicocrinus	0	0	0	0	0	0	0	0	0	0
Cotylederma	0	0	0	0	0	0	0	0	0	0
Dinardocrinus	0	0	0	0	0	0	0	0	0	0
Eudesicrinus	0	0	0	0	0	0	0	0	0	0
Eugeniacrinites	0	0	0	0	0	0	0	0	0	0
Gutticrinus	0	0	0	0	0	0	0	0	0	0
Paraeotylederma	0	0	0	0	0	0	0	0	0	0
Plicatocrinus	0	0	0	0	0	0	0	0	0	0
Quenstedticrinus	0	0	0	0	0	0	0	0	0	0
Sacariaerinus	0	0	0	0	0	0	0	0	0	0
Tetracrinus	0	0	0	0	0	0	0	0	0	0
Cassianocrinus	0	0	0	0	0	0	0	0	0	0
Chelocrinus	0	0	0	0	0	0	0	0	0	0
Encrinus	0	0	0	0	0	0	0	0	0	0
Zardinicrinus	0	0	0	0	0	0	0	0	0	0
Ainigmacrinus	0	0	0	0	0	0	0	0	0	0
Traumatocrinus	0	0	0	0	0	0	0	0	0	0
Vostocovacrinus	0	0	0	0	0	0	0	0	0	0
Eocomatula	0	0	0	0	0	0	0	0	0	0
Holocrinus	0	0	0	0	0	0	0	0	0	0
Bakonycrinus	0	0	0	0	0	0	0	0	0	0
Balanocrinus	0	0	0	0	0	0	0	0	0	0
Chariocrinus	0	0	0	0	0	0	0	0	0	0
Chladocrinus	0	0	0	0	0	0	0	0	0	0
Isocrinus	0	0	0	0	0	0	0	0	0	0
Tyrolecrinus	0	0	0	0	0	0	0	0	0	0
Cenocrinus	0	0	0	0	0	0	0	0	0	0
Paracomatula	0	0	0	0	0	0	0	0	0	0
Pentacrinites	0	0	0	0	0	0	0	0	0	0
Seirocrinus	0	0	0	0	0	0	0	0	0	0
Tulipacrinus	0	0	0	0	0	0	0	0	0	0
Hispidocrinus	0	0	0	0	0	0	0	0	0	0
Laevigatocrinus	0	0	0	0	0	0	0	0	0	0
Margocrinus	0	0	0	0	0	0	0	0	0	0
Procomaster	0	0	0	0	0	0	0	0	0	0
Singularocrinus	0	0	0	0	0	0	0	0	0	0
Terocrinus	0	0	0	0	0	0	0	0	0	0
Tollmannicrinus	0	0	0	0	0	0	0	0	0	0
Amaltheocrinus	0	0	0	0	0	0	0	0	0	0
Shroshaecrinus	0	0	0	0	0	0	0	0	0	0
Praetetracrinus	0	0	0	0	0	0	0	0	0	0
Dadocrinus	0	0	0	0	0	0	0	0	0	0
Millericrinus	0	0	0	0	0	0	0	0	0	0
Neodadocrinus	0	0	0	0	0	0	0	0	0	0
Pomatocrinus	0	0	0	0	0	0	0	0	0	0
Souticrinus	0	0	0	0	0	0	0	0	0	0
Somphocrinus	0	0	0	0	0	0	0	0	0	0
Axicrinus	0	0	0	0	0	0	0	0	0	0
Ossicrinus	0	0	0	0	0	0	0	0	0	0
Osteocrinus	0	0	0	0	0	0	0	0	0	0
Poculicrinus	0	0	0	0	0	0	0	0	0	0
Lanternocrinus	0	0	0	0	0	0	0	0	0	0
Lotocrinus	0	0	0	0	0	0	0	0	0	0
Nasutocrinus	0	0	0	0	0	0	0	0	0	0
Leocrinus	0	0	0	0	0	0	0	0	0	0
Acariaeocrinus	0	0	0	0	0	0	0	0	0	0
Bihaticrinus	0	0	0	0	0	0	0	0	0	0
Nodolanx	0	0	0	0	0	0	0	0	0	0
Annaecoelia	0	1	1	2	2	0	16	88	60	45
Russospongia	0	0	0	0	0	0	0	0	0	0
Tolminothalamia	0	0	0	0	0	0	0	0	0	0
Vesicocaulis	0	0	0	0	0	0	0	0	0	0
Yukonella	0	0	0	0	0	0	0	0	0	0
Astrosclera	0	0	0	0	0	0	0	0	0	0
Aliabadia	0	0	0	0	0	0	0	0	0	0
Anguispongia	0	0	0	0	0	0	0	0	0	0
Cavusonella	0	0	0	0	0	0	0	0	0	0
Molengraaffia	0	0	0	0	0	0	0	0	0	0
Hartmanina	0	0	0	0	0	0	0	0	0	0
Colospongia	0	0	0	0	0	0	0	0	0	0
Hajarispongia	0	0	0	0	0	0	0	0	0	0
Kashanella	0	0	0	0	0	0	0	0	0	0
Parauvanella	0	0	0	0	0	0	0	0	0	0
Platythalamiella	0	0	0	0	0	0	0	0	0	0
Antalythalamia	0	0	0	0	0	0	0	0	0	0
Cryptocoelia	0	0	0	0	0	0	0	0	0	0
Sphaerothalamia	0	0	0	0	0	0	0	0	0	0
Enoplocoelia	0	0	0	0	0	0	0	0	0	0
Girtycoelia	0	0	0	0	0	0	0	0	0	0
Henricellum	0	0	0	0	0	0	0	0	0	0
Phraethalamia	0	0	0	0	0	0	0	0	0	0
Polyedra	0	0	0	0	0	0	0	0	0	0
Sollasia	0	0	0	0	0	0	0	0	0	0
Globucatenula	0	0	0	0	0	0	0	0	0	0
Cystothalamia	0	0	0	0	0	0	0	0	0	0
Diecithalamia	0	0	0	0	0	0	0	0	0	0
Delijania	0	0	0	0	0	0	0	0	0	0
Prosiphonella	0	0	0	0	0	0	0	0	0	0
Olangocoelia	0	0	0	0	0	0	0	0	0	0
Palermocoelia	0	0	0	0	0	0	0	0	0	0
Asiphothalamia	0	0	0	0	0	0	0	0	0	0
Parastylothalamia	0	0	0	0	0	0	0	0	0	0
Euepirrhysia	0	0	0	0	0	0	0	0	0	0
Grossotubenella	0	0	0	0	0	0	0	0	0	0
Leiospongia	0	0	0	0	0	0	0	0	0	0
Permocorynella	0	0	0	0	0	0	0	0	0	0
Precorynella	0	0	0	0	0	0	0	0	0	0
Preperonidella	0	0	0	0	0	0	0	0	0	0
Salzburgia	0	0	0	0	0	0	0	0	0	0
Amblysiphonella	0	0	0	0	0	0	0	0	0	0
Calabrisiphonella	0	0	0	0	0	0	0	0	0	0
Discosiphonella	0	0	0	0	0	0	0	0	0	0
Polycystocoelia	0	0	0	0	0	0	0	0	0	0
Himatella	0	0	0	0	0	0	0	0	0	0
Marawandia	0	0	0	0	0	0	0	0	0	0
Sestrostomella	0	0	0	0	0	0	0	0	0	0
Battaglia	0	0	0	0	0	0	0	0	0	0
Deningeria	0	0	0	0	0	0	0	0	0	0
Panormida	0	0	0	0	0	0	0	0	0	0
Paradeningeria	0	0	0	0	0	0	0	0	0	0
Sahraja	0	0	0	0	0	0	0	0	0	0
Senowbaridaryana	0	0	0	0	0	0	0	0	0	0
Seranella	0	0	0	0	0	0	0	0	0	0
Solenolmia	0	0	0	0	0	0	0	0	0	0
Welteria	0	0	0	0	0	0	0	0	0	0
Lutia	0	0	0	0	0	0	0	0	0	0
Prestellispongia	0	0	0	0	0	0	0	0	0	0
Vermispongiella	0	0	0	0	0	0	0	0	0	0
Musandamia	0	0	0	0	0	0	0	0	0	0
Naybandella	0	0	0	0	0	0	0	0	0	0
Pamirothalamia	0	0	0	0	0	0	0	0	0	0
Pamiroverticillites	0	0	0	0	0	0	0	0	0	0
Sphaeroverticillites	0	0	0	0	0	0	0	0	0	0
Thaumastocoelia	0	0	0	0	0	0	0	0	0	0
Madonia	0	0	0	0	0	0	0	0	0	0
Actinospongiella	0	0	0	0	0	0	0	0	0	0
Paelospongia	0	0	0	0	0	0	0	0	0	0
Atrochaetetes	0	0	0	0	0	0	0	0	0	0
Cassianochaetes	0	0	0	0	0	0	0	0	0	0
Ceratoporella	0	0	0	0	0	0	0	0	0	0
Reticulocoelia	0	0	0	0	0	0	0	0	0	0
Cladocoropsis	0	0	0	0	0	0	0	0	0	0
Murania	0	0	0	0	0	0	0	0	0	0
Parastromatopora	0	0	0	0	0	0	0	0	0	0
Neuropora	0	0	0	0	0	0	0	0	0	0
Actinofungia	0	0	0	0	0	0	0	0	0	0
Circopora	0	0	0	0	0	0	0	0	0	0
Cylicoopsis	0	0	0	0	0	0	0	0	0	0
Ellipsactinia	0	0	0	0	0	0	0	0	0	0
Lamellata	0	0	0	0	0	0	0	0	0	0
Lithopora	0	0	0	0	0	0	0	0	0	0
Pamirostroma	0	0	0	0	0	0	0	0	0	0
Pantokratoria	0	0	0	0	0	0	0	0	0	0
Stromatoporellata	0	0	0	0	0	0	0	0	0	0
Stromatoporina	0	0	0	0	0	0	0	0	0	0
Stromatostroma	0	0	0	0	0	0	0	0	0	0
Zlambachella	0	0	0	0	0	0	0	0	0	0
Aka	0	0	0	0	0	0	0	0	0	0
Cassianothalamia	0	0	0	0	0	0	0	0	0	0
Alpinothalamia	0	0	0	0	0	0	0	0	0	0
Celyphia	0	0	0	0	0	0	0	0	0	0
Follicatena	0	0	0	0	0	0	0	0	0	0
Jablonskyia	0	0	0	0	0	0	0	0	0	0
Leinia	0	0	0	0	0	0	0	0	0	0
Paravesicocaulis	0	0	0	0	0	0	0	0	0	0
Pseudouvanella	0	0	0	0	0	0	0	0	0	0
Uvanella	0	0	0	0	0	0	0	0	0	0
Ceotinella	0	0	0	0	0	0	0	0	0	0
Zardinia	0	0	0	0	0	0	0	0	0	0
Cassianostroma	0	0	0	0	0	0	0	0	0	0
Hispidopetra	0	0	0	0	0	0	0	0	0	0
Petrosistroma	0	0	0	0	0	0	0	0	0	0
Costamorpha	0	0	0	0	0	0	0	0	0	0
Hymedesmia	0	0	0	0	0	0	0	0	0	0
Bauneia	0	0	0	0	0	0	0	0	0	0
Blastochaetetes	0	0	0	0	0	0	0	0	0	0
Chaetetes	0	0	0	0	0	0	0	0	0	0
Pseudoseptifer	0	0	0	0	0	0	0	0	0	0
Ptychochaetetes	0	0	0	0	0	0	0	0	0	0
Keriocoelia	0	0	0	0	0	0	0	0	0	0
Meandripetra	0	0	0	0	0	0	0	0	0	0
Pamirochaetetes	0	0	0	0	0	0	0	0	0	0
Precaratoporella	0	0	0	0	0	0	0	0	0	0
Pseudochaetetes	0	0	0	0	0	0	0	0	0	0
Sclerocoelia	0	0	0	0	0	0	0	0	0	0
Cheilosporites	0	0	0	0	0	0	0	0	0	0
Neoguadalupia	0	0	0	0	0	0	0	0	0	0
Cribrothalamia	0	0	0	0	0	0	0	0	0	0
Gigantothalamia	0	0	0	0	0	0	0	0	0	0
Zanklithalamia	0	0	0	0	0	0	0	0	0	0
Cinnabaria	0	0	0	0	0	0	0	0	0	0
Faniathalamia	0	0	0	0	0	0	0	0	0	0
Nevadathalamia	0	0	0	0	0	0	0	0	0	0
Polysiphospongia	0	0	0	0	0	0	0	0	0	0
Polytholosia	0	0	0	0	0	0	0	0	0	0
Stylothalamia	0	0	0	0	0	0	0	0	0	0
Verticillites	0	0	0	0	0	0	0	0	0	0
Platysphaerocoelia	0	0	0	0	0	0	0	0	0	0
Dactylites	0	0	0	0	0	0	0	0	0	0
Burgundia	0	0	0	0	0	0	0	0	0	0
Criccophorina	0	0	0	0	0	0	0	0	0	0
Radiocella	0	0	0	0	0	0	0	0	0	0
Tabasia	0	0	0	0	0	0	0	0	0	0
Lovcenipora	0	0	0	0	0	0	0	0	0	0
Verrucospongia	0	0	0	0	0	0	0	0	0	0
Eosalenia	0	17	4	6	5	13	4	7	20	8
Clypeus	0	0	0	0	0	0	0	0	0	0
Pygurus	0	0	0	0	0	0	0	0	0	0
Galeropygus	0	0	0	0	0	0	0	0	0	0
Nucleolites	0	0	0	0	0	0	0	0	0	0
Bothryopneustes	0	0	0	0	0	0	0	0	0	0
Balanocidaris	0	0	0	0	0	0	0	0	0	0
Cidaris	0	0	0	0	0	0	0	0	0	0
Paracidaris	0	0	0	0	0	0	0	0	0	0
Rhabdocidaris	0	0	0	0	0	0	0	0	0	0
Triassicidaris	0	0	0	0	0	0	0	0	0	0
Diadema	0	0	0	0	0	0	0	0	0	0
Eodiadema	0	0	0	0	0	0	0	0	0	0
Mesodiadema	0	0	0	0	0	0	0	0	0	0
Diplocidaris	0	0	0	0	0	0	0	0	0	0
Polycidaris	0	0	0	0	0	0	0	0	0	0
Anaulocidaris	0	0	0	0	0	0	0	0	0	0
Dicyclocidaris	0	0	0	0	0	0	0	0	0	0
Miocidaris	0	0	0	0	0	0	0	0	0	0
Pachycidaris	0	0	0	0	0	0	0	0	0	0
Procidaris	0	0	0	0	0	0	0	0	0	0
Serpianotiaris	0	0	0	0	0	0	0	0	0	0
Levicidaris	0	0	0	0	0	0	0	0	0	0
Megaporocidaris	0	0	0	0	0	0	0	0	0	0
Mikrocidaris	0	0	0	0	0	0	0	0	0	0
Parvicidaris	0	0	0	0	0	0	0	0	0	0
Triadocidaris	0	0	0	0	0	0	0	0	0	0
Vinchuscanchaia	0	0	0	0	0	0	0	0	0	0
Zardinechinus	0	0	0	0	0	0	0	0	0	0
Triadotiaris	0	0	0	0	0	0	0	0	0	0
Leurocidaris	0	0	0	0	0	0	0	0	0	0
Paurocidaris	0	0	0	0	0	0	0	0	0	0
Engelia	0	0	0	0	0	0	0	0	0	0
Gymnocidaris	0	0	0	0	0	0	0	0	0	0
Hemicidaris	0	0	0	0	0	0	0	0	0	0
Hessotiara	0	0	0	0	0	0	0	0	0	0
Plesiocidaris	0	0	0	0	0	0	0	0	0	0
Pseudocidaris	0	0	0	0	0	0	0	0	0	0
Sphaerotiaris	0	0	0	0	0	0	0	0	0	0
Diplopodia	0	0	0	0	0	0	0	0	0	0
Hypodiadema	0	0	0	0	0	0	0	0	0	0
Microdiadema	0	0	0	0	0	0	0	0	0	0
Polydiadema	0	0	0	0	0	0	0	0	0	0
Pseudodiadema	0	0	0	0	0	0	0	0	0	0
Trochotiara	0	0	0	0	0	0	0	0	0	0
Holectypus	0	0	0	0	0	0	0	0	0	0
Dubarechinus	0	0	0	0	0	0	0	0	0	0
Diademopsis	0	0	0	0	0	0	0	0	0	0
Hemipedina	0	0	0	0	0	0	0	0	0	0
Palaeopedina	0	0	0	0	0	0	0	0	0	0
Pedina	0	0	0	0	0	0	0	0	0	0
Pseudopedina	0	0	0	0	0	0	0	0	0	0
Jacquiertia	0	0	0	0	0	0	0	0	0	0
Leptechinus	0	0	0	0	0	0	0	0	0	0
Micropsis	0	0	0	0	0	0	0	0	0	0
Leioechinus	0	0	0	0	0	0	0	0	0	0
Tiarechinus	0	0	0	0	0	0	0	0	0	0
Atlasaster	0	0	0	0	0	0	0	0	0	0
Plesiechinus	0	0	0	0	0	0	0	0	0	0
Pygaster	0	0	0	0	0	0	0	0	0	0
Acrosalenia	0	0	0	0	0	0	0	0	0	0
Recrosalenia	0	0	0	0	0	0	0	0	0	0
Diplechinus	0	0	0	0	0	0	0	0	0	0
Echinotiara	0	0	0	0	0	0	0	0	0	0
Jeannetia	0	0	0	0	0	0	0	0	0	0
Polycyphus	0	0	0	0	0	0	0	0	0	0
Psephechinus	0	0	0	0	0	0	0	0	0	0
Parastomechinus	0	0	0	0	0	0	0	0	0	0
Pygomalus	0	0	0	0	0	0	0	0	0	0
Heterocidaris	0	0	0	0	0	0	0	0	0	0
Crinocidaris	0	0	0	0	0	0	0	0	0	0
Loriolella	0	0	0	0	0	0	0	0	0	0
Radiolus	0	0	0	0	0	0	0	0	0	0
Anoptychia	0	131	102	198	71	36	36	124	153	34
Cassianebala	0	0	0	0	0	0	0	0	0	0
Loxebala	0	0	0	0	0	0	0	0	0	0
Schafbergia	0	0	0	0	0	0	0	0	0	0
Jurilda	0	0	0	0	0	0	0	0	0	0
Promathildia	0	0	0	0	0	0	0	0	0	0
Siphonilda	0	0	0	0	0	0	0	0	0	0
Tangarilda	0	0	0	0	0	0	0	0	0	0
Tricarilda	0	0	0	0	0	0	0	0	0	0
Camponaxis	0	0	0	0	0	0	0	0	0	0
Conusella	0	0	0	0	0	0	0	0	0	0
Cristalloella	0	0	0	0	0	0	0	0	0	0
Graphis	0	0	0	0	0	0	0	0	0	0
Neodonaldina	0	0	0	0	0	0	0	0	0	0
Schartia	0	0	0	0	0	0	0	0	0	0
Tofanella	0	0	0	0	0	0	0	0	0	0
Usedomella	0	0	0	0	0	0	0	0	0	0
Trachoecus	0	0	0	0	0	0	0	0	0	0
Stuoraxis	0	0	0	0	0	0	0	0	0	0
Ampezzalina	0	0	0	0	0	0	0	0	0	0
Amphitrochus	0	0	0	0	0	0	0	0	0	0
Aristerella	0	0	0	0	0	0	0	0	0	0
Asterohelix	0	0	0	0	0	0	0	0	0	0
Blodgettella	0	0	0	0	0	0	0	0	0	0
Chartroniella	0	0	0	0	0	0	0	0	0	0
Cirsostylus	0	0	0	0	0	0	0	0	0	0
Cyclostomaria	0	0	0	0	0	0	0	0	0	0
Guizhouia	0	0	0	0	0	0	0	0	0	0
Kittlitrochus	0	0	0	0	0	0	0	0	0	0
Lyosoma	0	0	0	0	0	0	0	0	0	0
Mellarium	0	0	0	0	0	0	0	0	0	0
Nodoconus	0	0	0	0	0	0	0	0	0	0
Palaeocollonia	0	0	0	0	0	0	0	0	0	0
Paleunema	0	0	0	0	0	0	0	0	0	0
Praelittorina	0	0	0	0	0	0	0	0	0	0
Rinaldomphalus	0	0	0	0	0	0	0	0	0	0
Trachynerita	0	0	0	0	0	0	0	0	0	0
Urkutitoma	0	0	0	0	0	0	0	0	0	0
Ziziphinus	0	0	0	0	0	0	0	0	0	0
Ampullina	0	0	0	0	0	0	0	0	0	0
Tornatellaea	0	0	0	0	0	0	0	0	0	0
Parvulactaeon	0	0	0	0	0	0	0	0	0	0
Sulcoactaeon	0	0	0	0	0	0	0	0	0	0
Proceritella	0	0	0	0	0	0	0	0	0	0
Conactaeon	0	0	0	0	0	0	0	0	0	0
Cylindrobullina	0	0	0	0	0	0	0	0	0	0
Consobrinella	0	0	0	0	0	0	0	0	0	0
Costactaeon	0	0	0	0	0	0	0	0	0	0
Domerionina	0	0	0	0	0	0	0	0	0	0
Sinuarbullina	0	0	0	0	0	0	0	0	0	0
Striactaeonina	0	0	0	0	0	0	0	0	0	0
Collina2	0	0	0	0	0	0	0	0	0	0
Ceritella	0	0	0	0	0	0	0	0	0	0
Anomphalus	0	0	0	0	0	0	0	0	0	0
Ventricaria	0	0	0	0	0	0	0	0	0	0
Natiria	0	0	0	0	0	0	0	0	0	0
Woehrmannia	0	0	0	0	0	0	0	0	0	0
Euomphalus	0	0	0	0	0	0	0	0	0	0
Pentagonodiscus	0	0	0	0	0	0	0	0	0	0
Schizostoma	0	0	0	0	0	0	0	0	0	0
Coelocentrus	0	0	0	0	0	0	0	0	0	0
Maclurites	0	0	0	0	0	0	0	0	0	0
Dohmella	0	0	0	0	0	0	0	0	0	0
Platyceras	0	0	0	0	0	0	0	0	0	0
Pseudophorus	0	0	0	0	0	0	0	0	0	0
Triassocirrus	0	0	0	0	0	0	0	0	0	0
Turristylus	0	0	0	0	0	0	0	0	0	0
Ampezzamilda	0	0	0	0	0	0	0	0	0	0
Ampezzogyra	0	0	0	0	0	0	0	0	0	0
Carboninia	0	0	0	0	0	0	0	0	0	0
Spirocyclina	0	0	0	0	0	0	0	0	0	0
Angyomphalus	0	0	0	0	0	0	0	0	0	0
Dictyotomaria	0	0	0	0	0	0	0	0	0	0
Euzone	0	0	0	0	0	0	0	0	0	0
Glabrocingulum	0	0	0	0	0	0	0	0	0	0
Gosseletina	0	0	0	0	0	0	0	0	0	0
Luciellina	0	0	0	0	0	0	0	0	0	0
Eunema	0	0	0	0	0	0	0	0	0	0
Worthenia	0	0	0	0	0	0	0	0	0	0
Coronaria	0	0	0	0	0	0	0	0	0	0
Loxonema	0	0	0	0	0	0	0	0	0	0
Tyrsoecus	0	0	0	0	0	0	0	0	0	0
Murchisonia	0	0	0	0	0	0	0	0	0	0
Trypanocochlea	0	0	0	0	0	0	0	0	0	0
Pseudoscalites	0	0	0	0	0	0	0	0	0	0
Wortheniopsis	0	0	0	0	0	0	0	0	0	0
Polygyrina	0	0	0	0	0	0	0	0	0	0
Kokenella	0	0	0	0	0	0	0	0	0	0
Porcellia	0	0	0	0	0	0	0	0	0	0
Pseudoschizogonium	0	0	0	0	0	0	0	0	0	0
Macrochilina	0	0	0	0	0	0	0	0	0	0
Euthystylus	0	0	0	0	0	0	0	0	0	0
Orthostylus	0	0	0	0	0	0	0	0	0	0
Spirostylus	0	0	0	0	0	0	0	0	0	0
Guidonia	0	0	0	0	0	0	0	0	0	0
Bandelium	0	0	0	0	0	0	0	0	0	0
Rinaldoella	0	0	0	0	0	0	0	0	0	0
Wortheniella	0	0	0	0	0	0	0	0	0	0
Allocosmia	0	0	0	0	0	0	0	0	0	0
Allostrophia	0	0	0	0	0	0	0	0	0	0
Ampezzopleura	0	0	0	0	0	0	0	0	0	0
Andangularia	0	0	0	0	0	0	0	0	0	0
Azyga	0	0	0	0	0	0	0	0	0	0
Diatrypesis	0	0	0	0	0	0	0	0	0	0
Goniospira	0	0	0	0	0	0	0	0	0	0
Levipleura	0	0	0	0	0	0	0	0	0	0
Raha	0	0	0	0	0	0	0	0	0	0
Striazyga	0	0	0	0	0	0	0	0	0	0
Zygopleura	0	0	0	0	0	0	0	0	0	0
Tomocheilus	0	0	0	0	0	0	0	0	0	0
Pleurotoma	0	0	0	0	0	0	0	0	0	0
Hypsipleura	0	0	0	0	0	0	0	0	0	0
Cassianozyga	0	0	0	0	0	0	0	0	0	0
Cerithiocyga	0	0	0	0	0	0	0	0	0	0
Chilocyclus	0	0	0	0	0	0	0	0	0	0
Euchrysalis	0	0	0	0	0	0	0	0	0	0
Flemmingia	0	0	0	0	0	0	0	0	0	0
Kittlistylus	0	0	0	0	0	0	0	0	0	0
Lacunina	0	0	0	0	0	0	0	0	0	0
Pseudochrysalis	0	0	0	0	0	0	0	0	0	0
Pustulifer	0	0	0	0	0	0	0	0	0	0
Spirochrysalis	0	0	0	0	0	0	0	0	0	0
Telleria	0	0	0	0	0	0	0	0	0	0
Tretospira	0	0	0	0	0	0	0	0	0	0
Trypanostylus	0	0	0	0	0	0	0	0	0	0
Zardinistylus	0	0	0	0	0	0	0	0	0	0
Cortinella	0	0	0	0	0	0	0	0	0	0
Delphinulopsis	0	0	0	0	0	0	0	0	0	0
Hungariella	0	0	0	0	0	0	0	0	0	0
Marmolatella	0	0	0	0	0	0	0	0	0	0
Paradelphinulopsis	0	0	0	0	0	0	0	0	0	0
Platychilina	0	0	0	0	0	0	0	0	0	0
Schwardtopsis	0	0	0	0	0	0	0	0	0	0
Spinidelphinulopsis	0	0	0	0	0	0	0	0	0	0
Fedaiella	0	0	0	0	0	0	0	0	0	0
Cassianopsis	0	0	0	0	0	0	0	0	0	0
Colubrellopsis	0	0	0	0	0	0	0	0	0	0
Fossariopsis	0	0	0	0	0	0	0	0	0	0
Neritopsis	0	0	0	0	0	0	0	0	0	0
Nuetzelopsis	0	0	0	0	0	0	0	0	0	0
Weitschatopsis	0	0	0	0	0	0	0	0	0	0
Zardiniopsis	0	0	0	0	0	0	0	0	0	0
Palaeonarica	0	0	0	0	0	0	0	0	0	0
Pseudorthonychia	0	0	0	0	0	0	0	0	0	0
Ladinaticella	0	0	0	0	0	0	0	0	0	0
Lancedellopsis	0	0	0	0	0	0	0	0	0	0
Scalaneritina	0	0	0	0	0	0	0	0	0	0
Pachyomphalus	0	0	0	0	0	0	0	0	0	0
Pseudorhytidopilus	0	0	0	0	0	0	0	0	0	0
Scurriopsis	0	0	0	0	0	0	0	0	0	0
Scurria	0	0	0	0	0	0	0	0	0	0
Patella	0	0	0	0	0	0	0	0	0	0
Scalaria	0	0	0	0	0	0	0	0	0	0
Undularia	0	0	0	0	0	0	0	0	0	0
Cerithium	0	0	0	0	0	0	0	0	0	0
Cupaniella	0	0	0	0	0	0	0	0	0	0
Occidentocerithium	0	0	0	0	0	0	0	0	0	0
Cerithinella	0	0	0	0	0	0	0	0	0	0
Kosmopleura	0	0	0	0	0	0	0	0	0	0
Ladinula	0	0	0	0	0	0	0	0	0	0
Climacina	0	0	0	0	0	0	0	0	0	0
Cryptaulax	0	0	0	0	0	0	0	0	0	0
Paracerithium	0	0	0	0	0	0	0	0	0	0
Procerithium	0	0	0	0	0	0	0	0	0	0
Rhabdocolpus	0	0	0	0	0	0	0	0	0	0
Rhynchocerithium	0	0	0	0	0	0	0	0	0	0
Prostylifer	0	0	0	0	0	0	0	0	0	0
Ptychostoma	0	0	0	0	0	0	0	0	0	0
Siliquaria	0	0	0	0	0	0	0	0	0	0
Turritella	0	0	0	0	0	0	0	0	0	0
Vermicularia	0	0	0	0	0	0	0	0	0	0
Ampezzoscala	0	0	0	0	0	0	0	0	0	0
Camposcala	0	0	0	0	0	0	0	0	0	0
Acteonina	0	0	0	0	0	0	0	0	0	0
Colostracon	0	0	0	0	0	0	0	0	0	0
Amberleya	0	0	0	0	0	0	0	0	0	0
Dicroloma	0	0	0	0	0	0	0	0	0	0
Harpagodes	0	0	0	0	0	0	0	0	0	0
Pietteia	0	0	0	0	0	0	0	0	0	0
Toarctocera	0	0	0	0	0	0	0	0	0	0
Yunnania	0	0	0	0	0	0	0	0	0	0
Rinaldoconchus	0	0	0	0	0	0	0	0	0	0
Solarium	0	0	0	0	0	0	0	0	0	0
Angulataphrus	0	0	0	0	0	0	0	0	0	0
Ataphrus	0	0	0	0	0	0	0	0	0	0
Chartronella	0	0	0	0	0	0	0	0	0	0
Collonia	0	0	0	0	0	0	0	0	0	0
Costataphrus	0	0	0	0	0	0	0	0	0	0
Gudrunella	0	0	0	0	0	0	0	0	0	0
Lewisiella	0	0	0	0	0	0	0	0	0	0
Striatoconulus	0	0	0	0	0	0	0	0	0	0
Triangaphrus	0	0	0	0	0	0	0	0	0	0
Trochopsidea	0	0	0	0	0	0	0	0	0	0
Callotrochus	0	0	0	0	0	0	0	0	0	0
Capulus	0	0	0	0	0	0	0	0	0	0
Cirrus	0	0	0	0	0	0	0	0	0	0
Hamusina	0	0	0	0	0	0	0	0	0	0
Hesperocirrus	0	0	0	0	0	0	0	0	0	0
Lepidotrochus	0	0	0	0	0	0	0	0	0	0
Platyacra	0	0	0	0	0	0	0	0	0	0
Sororcula	0	0	0	0	0	0	0	0	0	0
Spirocirrus	0	0	0	0	0	0	0	0	0	0
Coelodiscus	0	0	0	0	0	0	0	0	0	0
Acrocosmia	0	0	0	0	0	0	0	0	0	0
Ataxotrochus	0	0	0	0	0	0	0	0	0	0
Coelochrysalis	0	0	0	0	0	0	0	0	0	0
Coelostylina	0	0	0	0	0	0	0	0	0	0
Eustylus	0	0	0	0	0	0	0	0	0	0
Glyptochrysalis	0	0	0	0	0	0	0	0	0	0
Helenostylina	0	0	0	0	0	0	0	0	0	0
Omphaloptycha	0	0	0	0	0	0	0	0	0	0
Bandellina	0	0	0	0	0	0	0	0	0	0
Amphitomaria	0	0	0	0	0	0	0	0	0	0
Colpomphalus	0	0	0	0	0	0	0	0	0	0
Discohelix	0	0	0	0	0	0	0	0	0	0
Spiniomphalus	0	0	0	0	0	0	0	0	0	0
Ambercyclus	0	0	0	0	0	0	0	0	0	0
Calliotropis	0	0	0	0	0	0	0	0	0	0
Eucyclomphalus	0	0	0	0	0	0	0	0	0	0
Eucyclus	0	0	0	0	0	0	0	0	0	0
Gerasimovcyclus	0	0	0	0	0	0	0	0	0	0
Mistelgauia	0	0	0	0	0	0	0	0	0	0
Neoeunema	0	0	0	0	0	0	0	0	0	0
Ooliticia	0	0	0	0	0	0	0	0	0	0
Trochonodus	0	0	0	0	0	0	0	0	0	0
Ampezzotrochus	0	0	0	0	0	0	0	0	0	0
Eucycloscala	0	0	0	0	0	0	0	0	0	0
Lissochilina	0	0	0	0	0	0	0	0	0	0
Eunemopsis	0	0	0	0	0	0	0	0	0	0
Pseudoclanculus	0	0	0	0	0	0	0	0	0	0
Austriacopsis	0	0	0	0	0	0	0	0	0	0
Emarginula	0	0	0	0	0	0	0	0	0	0
Cheilotomona	0	0	0	0	0	0	0	0	0	0
Kalchreuthia	0	0	0	0	0	0	0	0	0	0
Kittlidiscus	0	0	0	0	0	0	0	0	0	0
Heterospira	0	0	0	0	0	0	0	0	0	0
Lamelliphorus	0	0	0	0	0	0	0	0	0	0
Lancedellia	0	0	0	0	0	0	0	0	0	0
Laubella	0	0	0	0	0	0	0	0	0	0
Brochidiella	0	0	0	0	0	0	0	0	0	0
Brochidium	0	0	0	0	0	0	0	0	0	0
Lacuna	0	0	0	0	0	0	0	0	0	0
Maturifusus	0	0	0	0	0	0	0	0	0	0
Palaeotriton	0	0	0	0	0	0	0	0	0	0
Falsoebala	0	0	0	0	0	0	0	0	0	0
Amauropsis	0	0	0	0	0	0	0	0	0	0
Natica	0	0	0	0	0	0	0	0	0	0
Polinices	0	0	0	0	0	0	0	0	0	0
Ampezzonaticopsis	0	0	0	0	0	0	0	0	0	0
Cortinaticopsis	0	0	0	0	0	0	0	0	0	0
Dicosmos	0	0	0	0	0	0	0	0	0	0
Hologyra	0	0	0	0	0	0	0	0	0	0
Naticopsis	0	0	0	0	0	0	0	0	0	0
Neridomus	0	0	0	0	0	0	0	0	0	0
Cossmannea	0	0	0	0	0	0	0	0	0	0
Nerinea	0	0	0	0	0	0	0	0	0	0
Aptyxiella	0	0	0	0	0	0	0	0	0	0
Nerinella	0	0	0	0	0	0	0	0	0	0
Dentineritaria	0	0	0	0	0	0	0	0	0	0
Neritaria	0	0	0	0	0	0	0	0	0	0
Oncochilus	0	0	0	0	0	0	0	0	0	0
Ruganeritaria	0	0	0	0	0	0	0	0	0	0
Trachyneritaria	0	0	0	0	0	0	0	0	0	0
Cryptonerita	0	0	0	0	0	0	0	0	0	0
Nerita	0	0	0	0	0	0	0	0	0	0
Neritina	0	0	0	0	0	0	0	0	0	0
Protonerita	0	0	0	0	0	0	0	0	0	0
Metriomphalus	0	0	0	0	0	0	0	0	0	0
Neorthonema	0	0	0	0	0	0	0	0	0	0
Spirocyclus	0	0	0	0	0	0	0	0	0	0
Palaeorissoina	0	0	0	0	0	0	0	0	0	0
Phasianella	0	0	0	0	0	0	0	0	0	0
Euryalox	0	0	0	0	0	0	0	0	0	0
Trochotomaria	0	0	0	0	0	0	0	0	0	0
Bathrotomaria	0	0	0	0	0	0	0	0	0	0
Laevitomaria	0	0	0	0	0	0	0	0	0	0
Leptomaria	0	0	0	0	0	0	0	0	0	0
Murihikua	0	0	0	0	0	0	0	0	0	0
Ornatospira	0	0	0	0	0	0	0	0	0	0
Pleurotomaria	0	0	0	0	0	0	0	0	0	0
Pyrgotrochus	0	0	0	0	0	0	0	0	0	0
Sisenna	0	0	0	0	0	0	0	0	0	0
Tahua	0	0	0	0	0	0	0	0	0	0
Talantodiscus	0	0	0	0	0	0	0	0	0	0
Anticonulus	0	0	0	0	0	0	0	0	0	0
Dimorphotectus	0	0	0	0	0	0	0	0	0	0
Eocalliostoma	0	0	0	0	0	0	0	0	0	0
Proconulus	0	0	0	0	0	0	0	0	0	0
Tylotrochus	0	0	0	0	0	0	0	0	0	0
Anulifera	0	0	0	0	0	0	0	0	0	0
Atorcula	0	0	0	0	0	0	0	0	0	0
Chulitnacula	0	0	0	0	0	0	0	0	0	0
Lamellox	0	0	0	0	0	0	0	0	0	0
Moerckeia	0	0	0	0	0	0	0	0	0	0
Protorcula	0	0	0	0	0	0	0	0	0	0
Pseudomelania	0	0	0	0	0	0	0	0	0	0
Ramina	0	0	0	0	0	0	0	0	0	0
Pseudowortheniella	0	0	0	0	0	0	0	0	0	0
Ptychomphalina	0	0	0	0	0	0	0	0	0	0
Ptychomphalus	0	0	0	0	0	0	0	0	0	0
Angularia	0	0	0	0	0	0	0	0	0	0
Microschiza	0	0	0	0	0	0	0	0	0	0
Parangularia	0	0	0	0	0	0	0	0	0	0
Protofusus	0	0	0	0	0	0	0	0	0	0
Purpurina	0	0	0	0	0	0	0	0	0	0
Purpuroidea	0	0	0	0	0	0	0	0	0	0
Ebala	0	0	0	0	0	0	0	0	0	0
Rhaphistomella	0	0	0	0	0	0	0	0	0	0
Rissoina	0	0	0	0	0	0	0	0	0	0
Bralitzia	0	0	0	0	0	0	0	0	0	0
Microcheilus	0	0	0	0	0	0	0	0	0	0
Sabrinella	0	0	0	0	0	0	0	0	0	0
Schizogonium	0	0	0	0	0	0	0	0	0	0
Triassurella	0	0	0	0	0	0	0	0	0	0
Katosira	0	0	0	0	0	0	0	0	0	0
Kittliconcha	0	0	0	0	0	0	0	0	0	0
Rostellaria	0	0	0	0	0	0	0	0	0	0
Codinella	0	0	0	0	0	0	0	0	0	0
Stuorella	0	0	0	0	0	0	0	0	0	0
Temnotropis	0	0	0	0	0	0	0	0	0	0
Teinostoma	0	0	0	0	0	0	0	0	0	0
Calliostoma	0	0	0	0	0	0	0	0	0	0
Cantallocostoma	0	0	0	0	0	0	0	0	0	0
Chrysostoma	0	0	0	0	0	0	0	0	0	0
Eosolariella	0	0	0	0	0	0	0	0	0	0
Francisciconcha	0	0	0	0	0	0	0	0	0	0
Lithotrochus	0	0	0	0	0	0	0	0	0	0
Margarites2	0	0	0	0	0	0	0	0	0	0
Monodonta	0	0	0	0	0	0	0	0	0	0
Pachypoma	0	0	0	0	0	0	0	0	0	0
Plectotrochus	0	0	0	0	0	0	0	0	0	0
Rotella	0	0	0	0	0	0	0	0	0	0
Solarioconulus	0	0	0	0	0	0	0	0	0	0
Trochus	0	0	0	0	0	0	0	0	0	0
Trochotoma	0	0	0	0	0	0	0	0	0	0
Bandelastraea	0	0	0	0	0	0	0	0	0	0
Delphinula	0	0	0	0	0	0	0	0	0	0
Homalopoma	0	0	0	0	0	0	0	0	0	0
Meiersia	0	0	0	0	0	0	0	0	0	0
Sloeudaronia	0	0	0	0	0	0	0	0	0	0
Turbo	0	0	0	0	0	0	0	0	0	0
Zygites	0	0	0	0	0	0	0	0	0	0
Alexogyra	0	0	0	0	0	0	0	0	0	0
Jurassiphorus	0	0	0	0	0	0	0	0	0	0
Pileopsis	0	0	0	0	0	0	0	0	0	0
Trachybembix	0	0	0	0	0	0	0	0	0	0
Ueckerconulus	0	0	0	0	0	0	0	0	0	0
Acanthochirana	0	47	14	18	5	4	1	11	3	3
Aeger	0	0	0	0	0	0	0	0	0	0
Magila	0	0	0	0	0	0	0	0	0	0
Acanthocarpus	0	0	0	0	0	0	0	0	0	0
Callianassa	0	0	0	0	0	0	0	0	0	0
Clytiella	0	0	0	0	0	0	0	0	0	0
Clytiopsis	0	0	0	0	0	0	0	0	0	0
Paraclytiopsis	0	0	0	0	0	0	0	0	0	0
Coleia	0	0	0	0	0	0	0	0	0	0
Hellerocaris	0	0	0	0	0	0	0	0	0	0
Proeryon	0	0	0	0	0	0	0	0	0	0
Pseudocoleia	0	0	0	0	0	0	0	0	0	0
Tropifer	0	0	0	0	0	0	0	0	0	0
Eocarcinus	0	0	0	0	0	0	0	0	0	0
Eryma	0	0	0	0	0	0	0	0	0	0
Palaeastacus	0	0	0	0	0	0	0	0	0	0
Phlyctisoma	0	0	0	0	0	0	0	0	0	0
Pustulina	0	0	0	0	0	0	0	0	0	0
Stenodactylina	0	0	0	0	0	0	0	0	0	0
Cycleryon	0	0	0	0	0	0	0	0	0	0
Eryon	0	0	0	0	0	0	0	0	0	0
Rosenfeldia	0	0	0	0	0	0	0	0	0	0
Wrangelleryon	0	0	0	0	0	0	0	0	0	0
Glyphea	0	0	0	0	0	0	0	0	0	0
Triasiglyphea	0	0	0	0	0	0	0	0	0	0
Goniodromites	0	0	0	0	0	0	0	0	0	0
Eoprosopon	0	0	0	0	0	0	0	0	0	0
Lissocardia	0	0	0	0	0	0	0	0	0	0
Paralitogaster	0	0	0	0	0	0	0	0	0	0
Pseudoglyphea	0	0	0	0	0	0	0	0	0	0
Mecochirus	0	0	0	0	0	0	0	0	0	0
Praeatya	0	0	0	0	0	0	0	0	0	0
Palaeopagurus	0	0	0	0	0	0	0	0	0	0
Archaeopalinurus	0	0	0	0	0	0	0	0	0	0
Palinurina	0	0	0	0	0	0	0	0	0	0
Pemphix	0	0	0	0	0	0	0	0	0	0
Antrimpos	0	0	0	0	0	0	0	0	0	0
Bombur	0	0	0	0	0	0	0	0	0	0
Penaeus	0	0	0	0	0	0	0	0	0	0
Glaessnericaris	0	0	0	0	0	0	0	0	0	0
Cryptopagurus	0	0	0	0	0	0	0	0	0	0
Schobertella	0	0	0	0	0	0	0	0	0	0
Gracilimanus	0	0	0	0	0	0	0	0	0	0
Gypsonicus	0	0	0	0	0	0	0	0	0	0
Tetrachelus	0	0	0	0	0	0	0	0	0	0
Venipagurus	0	0	0	0	0	0	0	0	0	0
Atergatis	0	0	0	0	0	0	0	0	0	0
Aspidogaster	0	0	0	0	0	0	0	0	0	0
Dusa	0	0	0	0	0	0	0	0	0	0
Hefriga	0	0	0	0	0	0	0	0	0	0
Klytia	0	0	0	0	0	0	0	0	0	0
Olinaecaris	0	0	0	0	0	0	0	0	0	0
Orhomalus	0	0	0	0	0	0	0	0	0	0
Palaxius	0	0	0	0	0	0	0	0	0	0
Polyonyx	0	0	0	0	0	0	0	0	0	0
Eonatatolana	0	0	0	0	0	0	0	0	0	0
Palaega	0	0	0	0	0	0	0	0	0	0
Urda	0	0	0	0	0	0	0	0	0	0
Cyclosphaeroma	0	0	0	0	0	0	0	0	0	0
Elioserolis	0	0	0	0	0	0	0	0	0	0
Isopodites	0	0	0	0	0	0	0	0	0	0
Triassphaeroma	0	0	0	0	0	0	0	0	0	0
Schimperella	0	0	0	0	0	0	0	0	0	0
Jurapseudes	0	0	0	0	0	0	0	0	0	0
Opthalmapseudes	0	0	0	0	0	0	0	0	0	0
Aplocoma	0	4	8	10	2	4	10	1	2	13
Arenorbis	0	0	0	0	0	0	0	0	0	0
Geocoma	0	0	0	0	0	0	0	0	0	0
Sinosura	0	0	0	0	0	0	0	0	0	0
Sigsbeia	0	0	0	0	0	0	0	0	0	0
Inexpectacantha	0	0	0	0	0	0	0	0	0	0
Leadagmara	0	0	0	0	0	0	0	0	0	0
Ophiacantha	0	0	0	0	0	0	0	0	0	0
Ophioderma	0	0	0	0	0	0	0	0	0	0
Palaeocoma	0	0	0	0	0	0	0	0	0	0
Mesophiomusium	0	0	0	0	0	0	0	0	0	0
Ophiolepis	0	0	0	0	0	0	0	0	0	0
Ophiomusium	0	0	0	0	0	0	0	0	0	0
Aspiduriella	0	0	0	0	0	0	0	0	0	0
Eirenura	0	0	0	0	0	0	0	0	0	0
Ophiocrossota	0	0	0	0	0	0	0	0	0	0
Ophiocten	0	0	0	0	0	0	0	0	0	0
Ophiura	0	0	0	0	0	0	0	0	0	0
Stephanouropsis	0	0	0	0	0	0	0	0	0	0
Ophiotrapezium	0	0	0	0	0	0	0	0	0	0
Ophiuricoma	0	0	0	0	0	0	0	0	0	0
Ophioflabellum	0	0	0	0	0	0	0	0	0	0
Discoidella	0	26	122	76	21	26	47	5	24	13
Polycope	0	0	0	0	0	0	0	0	0	0
Circulina	0	0	0	0	0	0	0	0	0	0
Bektasia	0	0	0	0	0	0	0	0	0	0
Cavussurella	0	0	0	0	0	0	0	0	0	0
Recytella	0	0	0	0	0	0	0	0	0	0
Cytherella	0	0	0	0	0	0	0	0	0	0
Cytherelloidea	0	0	0	0	0	0	0	0	0	0
Pupperlla	0	0	0	0	0	0	0	0	0	0
Acratia	0	0	0	0	0	0	0	0	0	0
Anisobairdia	0	0	0	0	0	0	0	0	0	0
Bairdia	0	0	0	0	0	0	0	0	0	0
Bairdiacypris	0	0	0	0	0	0	0	0	0	0
Bairdiolites	0	0	0	0	0	0	0	0	0	0
Bolzibairdia	0	0	0	0	0	0	0	0	0	0
Carinobairdia	0	0	0	0	0	0	0	0	0	0
Ceratobairdia	0	0	0	0	0	0	0	0	0	0
Cornutobairdia	0	0	0	0	0	0	0	0	0	0
Dicerobairdia	0	0	0	0	0	0	0	0	0	0
Fabalicypris	0	0	0	0	0	0	0	0	0	0
Hiatobairdia	0	0	0	0	0	0	0	0	0	0
Isobythocypris	0	0	0	0	0	0	0	0	0	0
Krausella	0	0	0	0	0	0	0	0	0	0
Lobobairdia	0	0	0	0	0	0	0	0	0	0
Mirabairdia	0	0	0	0	0	0	0	0	0	0
Nodobairdia	0	0	0	0	0	0	0	0	0	0
Paraglyptobairdia	0	0	0	0	0	0	0	0	0	0
Ptychobairdia	0	0	0	0	0	0	0	0	0	0
Pustulobairdia	0	0	0	0	0	0	0	0	0	0
Triebelina	0	0	0	0	0	0	0	0	0	0
Urobairdia	0	0	0	0	0	0	0	0	0	0
Pseudobythocypris	0	0	0	0	0	0	0	0	0	0
Acanthoscapha	0	0	0	0	0	0	0	0	0	0
Nagyella	0	0	0	0	0	0	0	0	0	0
Rhombocythere	0	0	0	0	0	0	0	0	0	0
Bythocypris	0	0	0	0	0	0	0	0	0	0
Covracythere	0	0	0	0	0	0	0	0	0	0
Cuneoceratina	0	0	0	0	0	0	0	0	0	0
Monoceratina	0	0	0	0	0	0	0	0	0	0
Triceratina	0	0	0	0	0	0	0	0	0	0
Paracypris	0	0	0	0	0	0	0	0	0	0
Dettermania	0	0	0	0	0	0	0	0	0	0
Hungarella	0	0	0	0	0	0	0	0	0	0
Judahella	0	0	0	0	0	0	0	0	0	0
Cytheropteron	0	0	0	0	0	0	0	0	0	0
Infracytheropteron	0	0	0	0	0	0	0	0	0	0
Metacytheropteron	0	0	0	0	0	0	0	0	0	0
Procytherura	0	0	0	0	0	0	0	0	0	0
Lutkevichinella	0	0	0	0	0	0	0	0	0	0
Movschovitschia	0	0	0	0	0	0	0	0	0	0
Healdia	0	0	0	0	0	0	0	0	0	0
Ledahia	0	0	0	0	0	0	0	0	0	0
Ogmoconcha	0	0	0	0	0	0	0	0	0	0
Ogmoconchella	0	0	0	0	0	0	0	0	0	0
Pseudohealdia	0	0	0	0	0	0	0	0	0	0
Kerocythere	0	0	0	0	0	0	0	0	0	0
Krithe	0	0	0	0	0	0	0	0	0	0
Liasina	0	0	0	0	0	0	0	0	0	0
Pseudomacrocypris	0	0	0	0	0	0	0	0	0	0
Acrocythere	0	0	0	0	0	0	0	0	0	0
Wicherella	0	0	0	0	0	0	0	0	0	0
Gramannicythere	0	0	0	0	0	0	0	0	0	0
Kinkelinella	0	0	0	0	0	0	0	0	0	0
Cardobairdia	0	0	0	0	0	0	0	0	0	0
Aaleniella	0	0	0	0	0	0	0	0	0	0
Aneisohealdia	0	0	0	0	0	0	0	0	0	0
Aphelocythere	0	0	0	0	0	0	0	0	0	0
Bythoceratina	0	0	0	0	0	0	0	0	0	0
Cytheropterina	0	0	0	0	0	0	0	0	0	0
Eucytherura	0	0	0	0	0	0	0	0	0	0
Gammacythere	0	0	0	0	0	0	0	0	0	0
Gramannella	0	0	0	0	0	0	0	0	0	0
Leviella	0	0	0	0	0	0	0	0	0	0
Lophodentina	0	0	0	0	0	0	0	0	0	0
Mostlerella	0	0	0	0	0	0	0	0	0	0
Nanacythere	0	0	0	0	0	0	0	0	0	0
Nemoceratina	0	0	0	0	0	0	0	0	0	0
Otocythere	0	0	0	0	0	0	0	0	0	0
Paradoxostoma	0	0	0	0	0	0	0	0	0	0
Paranotacythere	0	0	0	0	0	0	0	0	0	0
Pleurifera	0	0	0	0	0	0	0	0	0	0
Pleurocythere	0	0	0	0	0	0	0	0	0	0
Pontocyprella	0	0	0	0	0	0	0	0	0	0
Praeschuleridea	0	0	0	0	0	0	0	0	0	0
Procytheridea	0	0	0	0	0	0	0	0	0	0
Pulviella	0	0	0	0	0	0	0	0	0	0
Renngartenella	0	0	0	0	0	0	0	0	0	0
Rutlandella	0	0	0	0	0	0	0	0	0	0
Simeonella	0	0	0	0	0	0	0	0	0	0
Spinocypris	0	0	0	0	0	0	0	0	0	0
Trachycythere	0	0	0	0	0	0	0	0	0	0
Triadohealdia	0	0	0	0	0	0	0	0	0	0
Triassocypris	0	0	0	0	0	0	0	0	0	0
Wellandia	0	0	0	0	0	0	0	0	0	0
Arabellites	0	8	59	24	5	13	1	4	15	7
Archaeoprion	0	0	0	0	0	0	0	0	0	0
Staurocephalites	0	0	0	0	0	0	0	0	0	0
Eunice	0	0	0	0	0	0	0	0	0	0
Palurites	0	0	0	0	0	0	0	0	0	0
Anisocerasites	0	0	0	0	0	0	0	0	0	0
Notocirrus	0	0	0	0	0	0	0	0	0	0
Halla	0	0	0	0	0	0	0	0	0	0
Schistomeringos	0	0	0	0	0	0	0	0	0	0
Goniada	0	0	0	0	0	0	0	0	0	0
Ampheticene	0	0	0	0	0	0	0	0	0	0
Arites	0	0	0	0	0	0	0	0	0	0
Glycera	0	0	0	0	0	0	0	0	0	0
Melanoraphia	0	0	0	0	0	0	0	0	0	0
Palaeoaphrodite	0	0	0	0	0	0	0	0	0	0
Paraglycerites	0	0	0	0	0	0	0	0	0	0
Parancreites	0	0	0	0	0	0	0	0	0	0
Alpinotubus	0	0	0	0	0	0	0	0	0	0
Barbafera	0	0	0	0	0	0	0	0	0	0
Ditrupa	0	0	0	0	0	0	0	0	0	0
Dorsoserpula	0	0	0	0	0	0	0	0	0	0
Filograna	0	0	0	0	0	0	0	0	0	0
Serpula	0	0	0	0	0	0	0	0	0	0
Cementula	0	0	0	0	0	0	0	0	0	0
Cycloserpula	0	0	0	0	0	0	0	0	0	0
Filogranula	0	0	0	0	0	0	0	0	0	0
Galeolaria	0	0	0	0	0	0	0	0	0	0
Metavermilia	0	0	0	0	0	0	0	0	0	0
Pentaditrupa	0	0	0	0	0	0	0	0	0	0
Protulophila	0	0	0	0	0	0	0	0	0	0
Rotularia	0	0	0	0	0	0	0	0	0	0
Salmacina	0	0	0	0	0	0	0	0	0	0
Sarcinella	0	0	0	0	0	0	0	0	0	0
Terebella	0	0	0	0	0	0	0	0	0	0
Microtubus	0	0	0	0	0	0	0	0	0	0
Spirorbis	0	0	0	0	0	0	0	0	0	0
Athyris	0	366	1070	1115	289	119	428	362	312	346
Anisactinella	0	0	0	0	0	0	0	0	0	0
Anomactinella	0	0	0	0	0	0	0	0	0	0
Clavigera	0	0	0	0	0	0	0	0	0	0
Dioristella	0	0	0	0	0	0	0	0	0	0
Diplospirella	0	0	0	0	0	0	0	0	0	0
Euractinella	0	0	0	0	0	0	0	0	0	0
Majkopella	0	0	0	0	0	0	0	0	0	0
Misolia	0	0	0	0	0	0	0	0	0	0
Ochotathyris	0	0	0	0	0	0	0	0	0	0
Oxycolpella	0	0	0	0	0	0	0	0	0	0
Pentactinella	0	0	0	0	0	0	0	0	0	0
Pexidella	0	0	0	0	0	0	0	0	0	0
Spirigerellina	0	0	0	0	0	0	0	0	0	0
Stolzenburgiella	0	0	0	0	0	0	0	0	0	0
Tetractinella	0	0	0	0	0	0	0	0	0	0
Amphiclina	0	0	0	0	0	0	0	0	0	0
Amphiclinodonta	0	0	0	0	0	0	0	0	0	0
Carinokoninckina	0	0	0	0	0	0	0	0	0	0
Koninckella	0	0	0	0	0	0	0	0	0	0
Koninckina	0	0	0	0	0	0	0	0	0	0
Koninckodonta	0	0	0	0	0	0	0	0	0	0
Lamellokoninckina	0	0	0	0	0	0	0	0	0	0
Septamphiclina	0	0	0	0	0	0	0	0	0	0
Cassianospira	0	0	0	0	0	0	0	0	0	0
Hungarispira	0	0	0	0	0	0	0	0	0	0
Neoretzia	0	0	0	0	0	0	0	0	0	0
Schwagerispira	0	0	0	0	0	0	0	0	0	0
Retzia	0	0	0	0	0	0	0	0	0	0
Pseudokoninckina	0	0	0	0	0	0	0	0	0	0
Spirigera	0	0	0	0	0	0	0	0	0	0
Acanthothyris	0	0	0	0	0	0	0	0	0	0
Acanthothyropsis	0	0	0	0	0	0	0	0	0	0
Caucasorhynchia	0	0	0	0	0	0	0	0	0	0
Hagabirhynchia	0	0	0	0	0	0	0	0	0	0
Maorirhynchia	0	0	0	0	0	0	0	0	0	0
Neofascicosta	0	0	0	0	0	0	0	0	0	0
Austrirhynchia	0	0	0	0	0	0	0	0	0	0
Decurtella	0	0	0	0	0	0	0	0	0	0
Excavatorhynchia	0	0	0	0	0	0	0	0	0	0
Apringia	0	0	0	0	0	0	0	0	0	0
Jakubirhynchia	0	0	0	0	0	0	0	0	0	0
Megapringia	0	0	0	0	0	0	0	0	0	0
Pseudogibbirhynchia	0	0	0	0	0	0	0	0	0	0
Serratapringia	0	0	0	0	0	0	0	0	0	0
Soaresirhynchia	0	0	0	0	0	0	0	0	0	0
Stolmorhynchia	0	0	0	0	0	0	0	0	0	0
Veghirhynchia	0	0	0	0	0	0	0	0	0	0
Alebusirhynchia	0	0	0	0	0	0	0	0	0	0
Aucklandirhynchia	0	0	0	0	0	0	0	0	0	0
Costirhynchopsis	0	0	0	0	0	0	0	0	0	0
Eurysites	0	0	0	0	0	0	0	0	0	0
Fissirhynchia	0	0	0	0	0	0	0	0	0	0
Flabellirhynchia	0	0	0	0	0	0	0	0	0	0
Globirhynchia	0	0	0	0	0	0	0	0	0	0
Granulirhynchia	0	0	0	0	0	0	0	0	0	0
Halorellina	0	0	0	0	0	0	0	0	0	0
Lacunaerhynchia	0	0	0	0	0	0	0	0	0	0
Lamellaerhynchia	0	0	0	0	0	0	0	0	0	0
Parvirhynchia	0	0	0	0	0	0	0	0	0	0
Rudirhynchia	0	0	0	0	0	0	0	0	0	0
Septocyclothyris	0	0	0	0	0	0	0	0	0	0
Squamirhynchia	0	0	0	0	0	0	0	0	0	0
Timorhynchia	0	0	0	0	0	0	0	0	0	0
Yidunella	0	0	0	0	0	0	0	0	0	0
Yulongella	0	0	0	0	0	0	0	0	0	0
Rhynchonellina	0	0	0	0	0	0	0	0	0	0
Sulcirostra	0	0	0	0	0	0	0	0	0	0
Crurirhynchia	0	0	0	0	0	0	0	0	0	0
Cryptorhynchia	0	0	0	0	0	0	0	0	0	0
Dierisma	0	0	0	0	0	0	0	0	0	0
Septocrurella	0	0	0	0	0	0	0	0	0	0
Halorelloidea	0	0	0	0	0	0	0	0	0	0
Aparimarhynchia	0	0	0	0	0	0	0	0	0	0
Austriellula	0	0	0	0	0	0	0	0	0	0
Capillirostra	0	0	0	0	0	0	0	0	0	0
Costinorella	0	0	0	0	0	0	0	0	0	0
Diholkorhynchia	0	0	0	0	0	0	0	0	0	0
Fenyveskutella	0	0	0	0	0	0	0	0	0	0
Holcorhynchella	0	0	0	0	0	0	0	0	0	0
Holcorhynchia	0	0	0	0	0	0	0	0	0	0
Kericserella	0	0	0	0	0	0	0	0	0	0
Laevorhynchia	0	0	0	0	0	0	0	0	0	0
Maxillirhynchia	0	0	0	0	0	0	0	0	0	0
Nannirhynchia	0	0	0	0	0	0	0	0	0	0
Norella	0	0	0	0	0	0	0	0	0	0
Osmarella	0	0	0	0	0	0	0	0	0	0
Paronarhynchia	0	0	0	0	0	0	0	0	0	0
Piarorhynchella	0	0	0	0	0	0	0	0	0	0
Pisirhynchia	0	0	0	0	0	0	0	0	0	0
Praemonticlarella	0	0	0	0	0	0	0	0	0	0
Pseudohalorella	0	0	0	0	0	0	0	0	0	0
Scalpellirhynchia	0	0	0	0	0	0	0	0	0	0
Wairakirhynchia	0	0	0	0	0	0	0	0	0	0
Ochotorhynchia	0	0	0	0	0	0	0	0	0	0
Anarhynchia	0	0	0	0	0	0	0	0	0	0
Carapezzia	0	0	0	0	0	0	0	0	0	0
Peregrinelloidea	0	0	0	0	0	0	0	0	0	0
Bodrakella	0	0	0	0	0	0	0	0	0	0
Amoenirhynchia	0	0	0	0	0	0	0	0	0	0
Lokutella	0	0	0	0	0	0	0	0	0	0
Prionorhynchia	0	0	0	0	0	0	0	0	0	0
Sphenorhynchia	0	0	0	0	0	0	0	0	0	0
Caledorhynchia	0	0	0	0	0	0	0	0	0	0
Capillirhynchia	0	0	0	0	0	0	0	0	0	0
Choffatirhynchia	0	0	0	0	0	0	0	0	0	0
Cuneirhynchia	0	0	0	0	0	0	0	0	0	0
Curtirhynchia	0	0	0	0	0	0	0	0	0	0
Furcirhynchia	0	0	0	0	0	0	0	0	0	0
Grestenella	0	0	0	0	0	0	0	0	0	0
Herangirhynchia	0	0	0	0	0	0	0	0	0	0
Himalairhynchia	0	0	0	0	0	0	0	0	0	0
Homoeorhynchia	0	0	0	0	0	0	0	0	0	0
Murihikurhynchia	0	0	0	0	0	0	0	0	0	0
Nudirostralina	0	0	0	0	0	0	0	0	0	0
Omolonella	0	0	0	0	0	0	0	0	0	0
Piarorhynchia	0	0	0	0	0	0	0	0	0	0
Planirhynchia	0	0	0	0	0	0	0	0	0	0
Ptilorhynchia	0	0	0	0	0	0	0	0	0	0
Ptyctorhynchia	0	0	0	0	0	0	0	0	0	0
Rhynchonella	0	0	0	0	0	0	0	0	0	0
Rhynchonelloidea	0	0	0	0	0	0	0	0	0	0
Rhynchonelloidella	0	0	0	0	0	0	0	0	0	0
Rimirhynchia	0	0	0	0	0	0	0	0	0	0
Rimirhynchopsis	0	0	0	0	0	0	0	0	0	0
Saccorhynchia	0	0	0	0	0	0	0	0	0	0
Sakawairhynchia	0	0	0	0	0	0	0	0	0	0
Sinuplicorhynchia	0	0	0	0	0	0	0	0	0	0
Slovenirhynchia	0	0	0	0	0	0	0	0	0	0
Sulcorhynchia	0	0	0	0	0	0	0	0	0	0
Trichorhynchia	0	0	0	0	0	0	0	0	0	0
Volirhynchia	0	0	0	0	0	0	0	0	0	0
Burmirhynchia	0	0	0	0	0	0	0	0	0	0
Costirhynchia	0	0	0	0	0	0	0	0	0	0
Cymatorhynchia	0	0	0	0	0	0	0	0	0	0
Daghanirhynchia	0	0	0	0	0	0	0	0	0	0
Druganirhynchia	0	0	0	0	0	0	0	0	0	0
Eoseptaliphoria	0	0	0	0	0	0	0	0	0	0
Gibbirhynchia	0	0	0	0	0	0	0	0	0	0
Grandirhynchia	0	0	0	0	0	0	0	0	0	0
Kallirhynchia	0	0	0	0	0	0	0	0	0	0
Kutchirhynchia	0	0	0	0	0	0	0	0	0	0
Obsoletirhynchia	0	0	0	0	0	0	0	0	0	0
Orlovirhynchia	0	0	0	0	0	0	0	0	0	0
Pontaltorhynchia	0	0	0	0	0	0	0	0	0	0
Pycnoria	0	0	0	0	0	0	0	0	0	0
Quadratirhynchia	0	0	0	0	0	0	0	0	0	0
Rhactorhynchia	0	0	0	0	0	0	0	0	0	0
Somalirhynchia	0	0	0	0	0	0	0	0	0	0
Tetrarhynchia	0	0	0	0	0	0	0	0	0	0
Apertirhynchella	0	0	0	0	0	0	0	0	0	0
Calcirhynchia	0	0	0	0	0	0	0	0	0	0
Cirpa	0	0	0	0	0	0	0	0	0	0
Euxinella	0	0	0	0	0	0	0	0	0	0
Moisseievia	0	0	0	0	0	0	0	0	0	0
Robinsonella	0	0	0	0	0	0	0	0	0	0
Salgirella	0	0	0	0	0	0	0	0	0	0
Saubachia	0	0	0	0	0	0	0	0	0	0
Vincentirhynchia	0	0	0	0	0	0	0	0	0	0
Balatonospira	0	0	0	0	0	0	0	0	0	0
Dinarispira	0	0	0	0	0	0	0	0	0	0
Koeveskallina	0	0	0	0	0	0	0	0	0	0
Nudispiriferina	0	0	0	0	0	0	0	0	0	0
Tylospiriferina	0	0	0	0	0	0	0	0	0	0
Bittnerula	0	0	0	0	0	0	0	0	0	0
Flabellocyrtia	0	0	0	0	0	0	0	0	0	0
Hirsutella	0	0	0	0	0	0	0	0	0	0
Thecocyrtella	0	0	0	0	0	0	0	0	0	0
Cyrtina	0	0	0	0	0	0	0	0	0	0
Klipsteinella	0	0	0	0	0	0	0	0	0	0
Klipsteinelloidea	0	0	0	0	0	0	0	0	0	0
Laballa	0	0	0	0	0	0	0	0	0	0
Paralepismatina	0	0	0	0	0	0	0	0	0	0
Pseudolaballa	0	0	0	0	0	0	0	0	0	0
Spinolepismatina	0	0	0	0	0	0	0	0	0	0
Bolilaspirifer	0	0	0	0	0	0	0	0	0	0
Costispiriferina	0	0	0	0	0	0	0	0	0	0
Dispiriferina	0	0	0	0	0	0	0	0	0	0
Lepismatina	0	0	0	0	0	0	0	0	0	0
Pseudocyrtina	0	0	0	0	0	0	0	0	0	0
Pseudolepismatina	0	0	0	0	0	0	0	0	0	0
Callospiriferina	0	0	0	0	0	0	0	0	0	0
Pennospiriferina	0	0	0	0	0	0	0	0	0	0
Punctospirella	0	0	0	0	0	0	0	0	0	0
Alipunctifera	0	0	0	0	0	0	0	0	0	0
Canadospira	0	0	0	0	0	0	0	0	0	0
Dentospiriferina	0	0	0	0	0	0	0	0	0	0
Orientospira	0	0	0	0	0	0	0	0	0	0
Psioidea	0	0	0	0	0	0	0	0	0	0
Psioidiella	0	0	0	0	0	0	0	0	0	0
Rastelligera	0	0	0	0	0	0	0	0	0	0
Guseriplia	0	0	0	0	0	0	0	0	0	0
Mentzeliopsis	0	0	0	0	0	0	0	0	0	0
Sinucosta	0	0	0	0	0	0	0	0	0	0
Lancangjiangia	0	0	0	0	0	0	0	0	0	0
Pseudospiriferina	0	0	0	0	0	0	0	0	0	0
Spirifer	0	0	0	0	0	0	0	0	0	0
Calyptoria	0	0	0	0	0	0	0	0	0	0
Cisnerospira	0	0	0	0	0	0	0	0	0	0
Liospiriferina	0	0	0	0	0	0	0	0	0	0
Madoia	0	0	0	0	0	0	0	0	0	0
Mentzelia	0	0	0	0	0	0	0	0	0	0
Mentzelioides	0	0	0	0	0	0	0	0	0	0
Paralaballa	0	0	0	0	0	0	0	0	0	0
Paramentzelia	0	0	0	0	0	0	0	0	0	0
Spiriferina	0	0	0	0	0	0	0	0	0	0
Tethyspira	0	0	0	0	0	0	0	0	0	0
Viligella	0	0	0	0	0	0	0	0	0	0
Dagyspirifer	0	0	0	0	0	0	0	0	0	0
Pseudospondylospira	0	0	0	0	0	0	0	0	0	0
Spondylospira	0	0	0	0	0	0	0	0	0	0
Vitimetula	0	0	0	0	0	0	0	0	0	0
Zugmayerella	0	0	0	0	0	0	0	0	0	0
Suessia	0	0	0	0	0	0	0	0	0	0
Cadomella	0	0	0	0	0	0	0	0	0	0
Angustothyris	0	0	0	0	0	0	0	0	0	0
Arcosarina	0	0	0	0	0	0	0	0	0	0
Caucasothyris	0	0	0	0	0	0	0	0	0	0
Cubanothyris	0	0	0	0	0	0	0	0	0	0
Cystothyris	0	0	0	0	0	0	0	0	0	0
Paradoxothyris	0	0	0	0	0	0	0	0	0	0
Praecubanothyris	0	0	0	0	0	0	0	0	0	0
Rhaetina	0	0	0	0	0	0	0	0	0	0
Rhaetinopsis	0	0	0	0	0	0	0	0	0	0
Sangiaothyris	0	0	0	0	0	0	0	0	0	0
Epithyroides	0	0	0	0	0	0	0	0	0	0
Aulacothyropsis	0	0	0	0	0	0	0	0	0	0
Camerothyris	0	0	0	0	0	0	0	0	0	0
Pseudorugitela	0	0	0	0	0	0	0	0	0	0
Deslongchampsithyris	0	0	0	0	0	0	0	0	0	0
Dictyothyris	0	0	0	0	0	0	0	0	0	0
Adygella	0	0	0	0	0	0	0	0	0	0
Arctothyris	0	0	0	0	0	0	0	0	0	0
Coenothyris	0	0	0	0	0	0	0	0	0	0
Cruratula	0	0	0	0	0	0	0	0	0	0
Ninglongothyris	0	0	0	0	0	0	0	0	0	0
Propygope	0	0	0	0	0	0	0	0	0	0
Sulcatothyris	0	0	0	0	0	0	0	0	0	0
Tibetothyris	0	0	0	0	0	0	0	0	0	0
Tunethyris	0	0	0	0	0	0	0	0	0	0
Albasphe	0	0	0	0	0	0	0	0	0	0
Eudesia	0	0	0	0	0	0	0	0	0	0
Flabellothyris	0	0	0	0	0	0	0	0	0	0
Xenorina	0	0	0	0	0	0	0	0	0	0
Costoconcha	0	0	0	0	0	0	0	0	0	0
Hesperithyris	0	0	0	0	0	0	0	0	0	0
Wittenburgella	0	0	0	0	0	0	0	0	0	0
Eodallina	0	0	0	0	0	0	0	0	0	0
Monsardithyris	0	0	0	0	0	0	0	0	0	0
Stroudithyris	0	0	0	0	0	0	0	0	0	0
Arabatia	0	0	0	0	0	0	0	0	0	0
Avonothyris	0	0	0	0	0	0	0	0	0	0
Bihenithyris	0	0	0	0	0	0	0	0	0	0
Cererithyris	0	0	0	0	0	0	0	0	0	0
Ectyphoria	0	0	0	0	0	0	0	0	0	0
Loboidothyris	0	0	0	0	0	0	0	0	0	0
Plectothyris	0	0	0	0	0	0	0	0	0	0
Praesphaeroidothyris	0	0	0	0	0	0	0	0	0	0
Pseudoglossothyris	0	0	0	0	0	0	0	0	0	0
Ptyctothyris	0	0	0	0	0	0	0	0	0	0
Sphaeroidothyris	0	0	0	0	0	0	0	0	0	0
Stiphrothyris	0	0	0	0	0	0	0	0	0	0
Wattonithyris	0	0	0	0	0	0	0	0	0	0
Cuersithyris	0	0	0	0	0	0	0	0	0	0
Inaequalis	0	0	0	0	0	0	0	0	0	0
Lobothyris	0	0	0	0	0	0	0	0	0	0
Rhapidothyris	0	0	0	0	0	0	0	0	0	0
Telothyris	0	0	0	0	0	0	0	0	0	0
Tubithyris	0	0	0	0	0	0	0	0	0	0
Anadyrella	0	0	0	0	0	0	0	0	0	0
Buckmanithyris	0	0	0	0	0	0	0	0	0	0
Linguithyris	0	0	0	0	0	0	0	0	0	0
Nucleata	0	0	0	0	0	0	0	0	0	0
Phymatothyris	0	0	0	0	0	0	0	0	0	0
Orthotoma	0	0	0	0	0	0	0	0	0	0
Lychnothyris	0	0	0	0	0	0	0	0	0	0
Merophricus	0	0	0	0	0	0	0	0	0	0
Plectoconcha	0	0	0	0	0	0	0	0	0	0
Conarothyris	0	0	0	0	0	0	0	0	0	0
Epithyris	0	0	0	0	0	0	0	0	0	0
Euidothyris	0	0	0	0	0	0	0	0	0	0
Gigantothyris	0	0	0	0	0	0	0	0	0	0
Millythyris	0	0	0	0	0	0	0	0	0	0
Oligorhytisia	0	0	0	0	0	0	0	0	0	0
Petalothyris	0	0	0	0	0	0	0	0	0	0
Plectoidothyris	0	0	0	0	0	0	0	0	0	0
Securithyris	0	0	0	0	0	0	0	0	0	0
Terebratella	0	0	0	0	0	0	0	0	0	0
Terebratula	0	0	0	0	0	0	0	0	0	0
Antiptychina	0	0	0	0	0	0	0	0	0	0
Aulacothyris	0	0	0	0	0	0	0	0	0	0
Aulacothyroides	0	0	0	0	0	0	0	0	0	0
Bakonyithyris	0	0	0	0	0	0	0	0	0	0
Calpella	0	0	0	0	0	0	0	0	0	0
Cincta	0	0	0	0	0	0	0	0	0	0
Fimbriothyris	0	0	0	0	0	0	0	0	0	0
Gemerithyris	0	0	0	0	0	0	0	0	0	0
Kolymithyris	0	0	0	0	0	0	0	0	0	0
Menathyris	0	0	0	0	0	0	0	0	0	0
Neozeilleria	0	0	0	0	0	0	0	0	0	0
Obovothyris	0	0	0	0	0	0	0	0	0	0
Ornithella	0	0	0	0	0	0	0	0	0	0
Plesiothyris	0	0	0	0	0	0	0	0	0	0
Rugitela	0	0	0	0	0	0	0	0	0	0
Sacothyris	0	0	0	0	0	0	0	0	0	0
Securina	0	0	0	0	0	0	0	0	0	0
Silesiathyris	0	0	0	0	0	0	0	0	0	0
Tauromenia	0	0	0	0	0	0	0	0	0	0
Zeilleria	0	0	0	0	0	0	0	0	0	0
Zugmayeria	0	0	0	0	0	0	0	0	0	0
Adygellopsis	0	0	0	0	0	0	0	0	0	0
Eplenyithyris	0	0	0	0	0	0	0	0	0	0
Lobothyroides	0	0	0	0	0	0	0	0	0	0
Pamirothyris	0	0	0	0	0	0	0	0	0	0
Papodina	0	0	0	0	0	0	0	0	0	0
Peristerothyris	0	0	0	0	0	0	0	0	0	0
Pseudorhaetina	0	0	0	0	0	0	0	0	0	0
Viallithyris	0	0	0	0	0	0	0	0	0	0
Zhidothyris	0	0	0	0	0	0	0	0	0	0
Bactrynium	0	0	0	0	0	0	0	0	0	0
Enallothecidea	0	0	0	0	0	0	0	0	0	0
Hungaritheca	0	0	0	0	0	0	0	0	0	0
Protolacazella	0	0	0	0	0	0	0	0	0	0
Moorellina	0	0	0	0	0	0	0	0	0	0
Pachymoorellina	0	0	0	0	0	0	0	0	0	0
Bittnerella	0	0	0	0	0	0	0	0	0	0
Thecospirella	0	0	0	0	0	0	0	0	0	0
Thecospira	0	0	0	0	0	0	0	0	0	0
Diastopora	0	3	1	0	0	1	3	20	29	6
Entalophora	0	0	0	0	0	0	0	0	0	0
Microeciella	0	0	0	0	0	0	0	0	0	0
Stomatopora	0	0	0	0	0	0	0	0	0	0
Braiesopora	0	0	0	0	0	0	0	0	0	0
Buria	0	0	0	0	0	0	0	0	0	0
Corynotrypoides	0	0	0	0	0	0	0	0	0	0
Ramia	0	0	0	0	0	0	0	0	0	0
Reptomultisparsa	0	0	0	0	0	0	0	0	0	0
Reptonodicava	0	0	0	0	0	0	0	0	0	0
Cassianopora	0	0	0	0	0	0	0	0	0	0
Cyclotrypa	0	0	0	0	0	0	0	0	0	0
Cystitrypa	0	0	0	0	0	0	0	0	0	0
Tebitopora	0	0	0	0	0	0	0	0	0	0
Reptonoditrypa	0	0	0	0	0	0	0	0	0	0
Monotrypa	0	0	0	0	0	0	0	0	0	0
Paralioclema	0	0	0	0	0	0	0	0	0	0
Styloclema	0	0	0	0	0	0	0	0	0	0
Arcticopora	0	0	0	0	0	0	0	0	0	0
Dyscritellopsis	0	0	0	0	0	0	0	0	0	0
Zozariella	0	0	0	0	0	0	0	0	0	0
Dyscritella	0	0	0	0	0	0	0	0	0	0
Pseudobatostomella	0	0	0	0	0	0	0	0	0	0
Diaphragmopora	0	0	0	0	0	0	0	0	0	0
Stenodiscus	0	0	0	0	0	0	0	0	0	0
Flustra	0	0	0	0	0	0	0	0	0	0
Leioclema	0	0	0	0	0	0	0	0	0	0
