taxon	int1	int2	int3	int4	int5	int6	int7	int8	int9	int10
Acanthochirana	0	47	14	18	5	4	1	11	3	3
Aeger	0	0	0	0	0	0	0	0	0	0
Magila	0	0	0	0	0	0	0	0	0	0
Acanthocarpus	0	0	0	0	0	0	0	0	0	0
Callianassa	0	0	0	0	0	0	0	0	0	0
Clytiella	0	0	0	0	0	0	0	0	0	0
Clytiopsis	0	0	0	0	0	0	0	0	0	0
Paraclytiopsis	0	0	0	0	0	0	0	0	0	0
Coleia	0	0	0	0	0	0	0	0	0	0
Hellerocaris	0	0	0	0	0	0	0	0	0	0
Proeryon	0	0	0	0	0	0	0	0	0	0
Pseudocoleia	0	0	0	0	0	0	0	0	0	0
Tropifer	0	0	0	0	0	0	0	0	0	0
Eocarcinus	0	0	0	0	0	0	0	0	0	0
Eryma	0	0	0	0	0	0	0	0	0	0
Palaeastacus	0	0	0	0	0	0	0	0	0	0
Phlyctisoma	0	0	0	0	0	0	0	0	0	0
Pustulina	0	0	0	0	0	0	0	0	0	0
Stenodactylina	0	0	0	0	0	0	0	0	0	0
Cycleryon	0	0	0	0	0	0	0	0	0	0
Eryon	0	0	0	0	0	0	0	0	0	0
Rosenfeldia	0	0	0	0	0	0	0	0	0	0
Wrangelleryon	0	0	0	0	0	0	0	0	0	0
Glyphea	0	0	0	0	0	0	0	0	0	0
Triasiglyphea	0	0	0	0	0	0	0	0	0	0
Goniodromites	0	0	0	0	0	0	0	0	0	0
Eoprosopon	0	0	0	0	0	0	0	0	0	0
Lissocardia	0	0	0	0	0	0	0	0	0	0
Paralitogaster	0	0	0	0	0	0	0	0	0	0
Pseudoglyphea	0	0	0	0	0	0	0	0	0	0
Mecochirus	0	0	0	0	0	0	0	0	0	0
Praeatya	0	0	0	0	0	0	0	0	0	0
Palaeopagurus	0	0	0	0	0	0	0	0	0	0
Archaeopalinurus	0	0	0	0	0	0	0	0	0	0
Palinurina	0	0	0	0	0	0	0	0	0	0
Pemphix	0	0	0	0	0	0	0	0	0	0
Antrimpos	0	0	0	0	0	0	0	0	0	0
Bombur	0	0	0	0	0	0	0	0	0	0
Penaeus	0	0	0	0	0	0	0	0	0	0
Glaessnericaris	0	0	0	0	0	0	0	0	0	0
Cryptopagurus	0	0	0	0	0	0	0	0	0	0
Schobertella	0	0	0	0	0	0	0	0	0	0
Gracilimanus	0	0	0	0	0	0	0	0	0	0
Gypsonicus	0	0	0	0	0	0	0	0	0	0
Tetrachelus	0	0	0	0	0	0	0	0	0	0
Venipagurus	0	0	0	0	0	0	0	0	0	0
Atergatis	0	0	0	0	0	0	0	0	0	0
Aspidogaster	0	0	0	0	0	0	0	0	0	0
Dusa	0	0	0	0	0	0	0	0	0	0
Hefriga	0	0	0	0	0	0	0	0	0	0
Klytia	0	0	0	0	0	0	0	0	0	0
Olinaecaris	0	0	0	0	0	0	0	0	0	0
Orhomalus	0	0	0	0	0	0	0	0	0	0
Palaxius	0	0	0	0	0	0	0	0	0	0
Polyonyx	0	0	0	0	0	0	0	0	0	0
Eonatatolana	0	0	0	0	0	0	0	0	0	0
Palaega	0	0	0	0	0	0	0	0	0	0
Urda	0	0	0	0	0	0	0	0	0	0
Cyclosphaeroma	0	0	0	0	0	0	0	0	0	0
Elioserolis	0	0	0	0	0	0	0	0	0	0
Isopodites	0	0	0	0	0	0	0	0	0	0
Triassphaeroma	0	0	0	0	0	0	0	0	0	0
Schimperella	0	0	0	0	0	0	0	0	0	0
Jurapseudes	0	0	0	0	0	0	0	0	0	0
Opthalmapseudes	0	0	0	0	0	0	0	0	0	0
