taxon	int1	int2	int3	int4	int5	int6	int7	int8	int9	int10
Aplocoma	0	4	8	10	2	4	10	1	2	13
Arenorbis	0	0	0	0	0	0	0	0	0	0
Geocoma	0	0	0	0	0	0	0	0	0	0
Sinosura	0	0	0	0	0	0	0	0	0	0
Sigsbeia	0	0	0	0	0	0	0	0	0	0
Inexpectacantha	0	0	0	0	0	0	0	0	0	0
Leadagmara	0	0	0	0	0	0	0	0	0	0
Ophiacantha	0	0	0	0	0	0	0	0	0	0
Ophioderma	0	0	0	0	0	0	0	0	0	0
Palaeocoma	0	0	0	0	0	0	0	0	0	0
Mesophiomusium	0	0	0	0	0	0	0	0	0	0
Ophiolepis	0	0	0	0	0	0	0	0	0	0
Ophiomusium	0	0	0	0	0	0	0	0	0	0
Aspiduriella	0	0	0	0	0	0	0	0	0	0
Eirenura	0	0	0	0	0	0	0	0	0	0
Ophiocrossota	0	0	0	0	0	0	0	0	0	0
Ophiocten	0	0	0	0	0	0	0	0	0	0
Ophiura	0	0	0	0	0	0	0	0	0	0
Stephanouropsis	0	0	0	0	0	0	0	0	0	0
Ophiotrapezium	0	0	0	0	0	0	0	0	0	0
Ophiuricoma	0	0	0	0	0	0	0	0	0	0
Ophioflabellum	0	0	0	0	0	0	0	0	0	0
