taxon	int1	int2	int3	int4	int5	int6	int7	int8	int9	int10
Discoidella	0	0	0	0	0	0	0	0	0	1	
Polycope	0	1	1	1	1	1	1	0	0	1	
Circulina	0	0	0	0	0	0	1	0	0	0	
Bektasia	0	0	0	0	0	0	0	0	1	1	
Cavussurella	0	0	0	0	0	0	0	1	1	1	
Recytella	0	0	0	0	0	0	0	0	0	1	
Cytherella	0	1	1	1	1	1	1	0	1	0	
Cytherelloidea	0	1	1	1	1	1	1	0	0	0	
Platella	0	0	0	0	1	0	0	0	0	0	
Acratia	0	0	0	1	1	1	0	0	0	1	
Anisobairdia	0	0	0	1	1	0	0	0	0	0	
Bairdia	0	0	1	1	1	1	1	0	1	1	
Bairdiacypris	0	0	1	1	1	1	1	0	1	1	
Bairdiolites	0	0	0	0	0	0	1	0	0	0	
Bolzibairdia	0	0	0	0	0	0	1	0	0	0	
Carinobairdia	0	0	0	0	0	0	1	0	0	0	
Ceratobairdia	0	0	0	0	0	1	0	0	0	1	
Cornutobairdia	0	0	0	0	0	0	1	0	0	0	
Dicerobairdia	0	0	0	0	0	0	1	0	1	0	
Fabalicypris	0	0	1	0	1	1	0	0	0	1	
Hiatobairdia	0	0	0	0	0	0	1	1	1	0	
Isobythocypris	0	0	1	1	1	1	0	0	0	0	
Krausella	0	0	0	1	0	0	0	0	0	0	
Lobobairdia	0	0	0	1	0	0	1	1	0	0	
Mirabairdia	0	0	0	0	0	0	0	0	1	0	
Nodobairdia	0	0	0	0	0	0	1	0	1	0	
Paraglyptobairdia	0	0	0	0	0	0	0	0	1	0	
Ptychobairdia	0	0	1	1	1	1	1	1	1	1	
Pustulobairdia	0	0	0	0	0	1	0	0	0	0	
Triebelina	0	0	0	0	0	0	1	0	0	0	
Urobairdia	0	0	0	0	0	0	1	1	0	0	
Pseudobythocypris	0	0	0	0	0	0	0	0	1	0	
Acanthoscapha	0	0	0	0	0	0	0	0	0	1	
Nagyella	0	0	0	0	0	0	0	0	0	1	
Rhombocythere	0	0	0	0	0	0	0	1	0	1	
Bythocypris	0	1	1	1	1	1	1	0	0	1	
Covracythere	0	0	0	0	0	0	0	1	0	1	
Cuneoceratina	0	0	0	1	0	0	0	0	0	0	
Monoceratina	0	1	1	1	0	0	1	0	0	1	
Triceratina	0	0	1	0	0	0	1	0	0	0	
Paracypris	0	1	1	1	1	0	0	0	0	0	
Dettermania	0	0	0	0	0	0	0	0	0	1	
Hungarella	0	0	1	1	1	0	0	0	1	1	
Judahella	0	0	0	0	0	0	1	0	1	1	
Cytheropteron	0	0	1	1	0	0	0	0	0	0	
Infracytheropteron	0	0	1	0	0	0	0	0	0	0	
Metacytheropteron	0	0	0	0	0	0	1	0	0	0	
Procytherura	0	0	1	1	0	0	0	0	0	0	
Lutkevichinella	0	0	0	0	0	0	1	0	0	0	
Movschovitschia	0	0	0	0	0	0	0	0	1	0	
Healdia	0	0	0	0	0	0	1	0	1	1	
Ledahia	0	0	1	1	1	0	0	0	0	0	
Ogmoconcha	0	0	1	1	1	1	1	1	1	1	
Ogmoconchella	0	0	1	1	1	1	1	0	0	0	
Pseudohealdia	0	0	0	1	0	0	0	0	0	0	
Kerocythere	0	0	0	0	0	0	1	1	1	0	
Krithe	0	0	0	0	0	0	0	0	1	0	
Liasina	0	0	1	1	1	0	0	0	0	0	
Pseudomacrocypris	0	0	1	1	1	0	0	0	0	0	
Acrocythere	0	1	1	1	0	0	0	0	0	0	
Wicherella	0	0	0	1	0	0	0	0	0	0	
Gramannicythere	0	0	1	1	0	0	0	0	0	0	
Kinkelinella	0	1	1	1	1	1	0	0	1	0	
Cardobairdia	0	0	1	1	1	0	0	0	0	0	
Aaleniella	0	1	1	0	0	0	0	0	0	0	
Aneisohealdia	0	0	0	0	0	0	0	0	0	1	
Aphelocythere	0	1	1	0	0	0	0	0	0	0	
Bythoceratina	0	0	0	1	0	1	0	0	0	0	
Cytheropterina	0	1	1	0	0	0	0	0	0	0	
Eucytherura	0	0	1	1	0	0	0	0	0	0	
Gammacythere	0	0	0	1	0	0	0	0	0	0	
Gramannella	0	0	1	1	0	0	0	0	0	0	
Leviella	0	0	0	0	0	0	1	0	1	0	
Lophodentina	0	0	0	0	1	0	0	0	0	0	
Mostlerella	0	0	0	0	0	0	1	0	0	0	
Nanacythere	0	0	0	0	0	1	0	0	0	0	
Nemoceratina	0	0	0	0	0	0	0	0	0	1	
Otocythere	0	1	1	0	0	0	0	0	0	0	
Paradoxostoma	0	0	1	1	0	0	0	0	0	0	
Paranotacythere	0	0	1	0	0	0	0	0	0	0	
Pleurifera	0	0	1	1	0	0	0	0	0	0	
Pleurocythere	0	0	1	0	0	0	0	0	0	0	
Pontocyprella	0	0	0	1	1	1	0	0	0	0	
Praeschuleridea	0	1	1	0	0	0	0	0	0	0	
Procytheridea	0	0	1	1	0	0	0	0	0	0	
Pulviella	0	0	0	0	0	0	0	0	0	1	
Renngartenella	0	0	0	0	0	0	0	0	1	0	
Rutlandella	0	0	1	0	0	0	0	0	0	0	
Simeonella	0	0	0	0	0	0	0	0	1	1	
Spinocypris	0	0	0	0	0	0	0	0	1	0	
Trachycythere	0	0	1	1	0	0	0	0	0	0	
Triadohealdia	0	0	0	0	0	0	0	0	0	1	
Wellandia	0	0	1	0	0	0	0	0	0	0	
Triassocypris	0	0	0	0	0	0	0	0	1	0	
