taxon	int1	int2	int3	int4	int5	int6	int7	int8	int9	int10
Athyris	0	0	0	0	0	0	0	0	1	1	
Anisactinella	0	0	0	0	0	0	0	0	1	1	
Anomactinella	0	0	0	0	0	0	0	0	1	0	
Clavigera	0	0	0	0	0	0	1	0	0	0	
Dioristella	0	0	0	0	0	0	0	0	1	1	
Diplospirella	0	0	0	0	0	0	0	0	1	1	
Euractinella	0	0	0	0	0	0	0	0	1	0	
Majkopella	0	0	0	0	0	0	1	0	0	0	
Misolia	0	0	0	0	0	0	0	1	0	0	
Ochotathyris	0	0	0	0	0	0	0	1	0	0	
Oxycolpella	0	0	0	0	0	0	1	1	1	0	
Pentactinella	0	0	0	0	0	0	0	0	1	0	
Pexidella	0	0	0	0	0	0	0	0	1	0	
Spirigerellina	0	0	0	0	0	0	0	0	0	1	
Stolzenburgiella	0	0	0	0	0	0	1	0	1	0	
Tetractinella	0	0	0	0	0	0	0	0	1	1	
Amphiclina	0	0	0	0	0	0	1	1	1	0	
Amphiclinodonta	0	0	0	1	1	0	0	1	1	0	
Carinokoninckina	0	0	0	0	0	0	0	1	1	0	
Ctenokoninckina	0	0	0	0	0	0	0	1	1	0	
Koninckella	0	0	1	1	0	0	0	0	1	0	
Koninckina	0	0	0	0	1	0	1	1	1	0	
Koninckodonta	0	0	1	1	1	0	0	0	0	0	
Lamellokoninckina	0	0	0	0	0	0	0	1	1	0	
Septamphiclina	0	0	0	0	0	0	0	1	0	0	
Cassianospira	0	0	0	0	0	0	0	0	1	1	
Hungarispira	0	0	0	0	0	0	0	1	1	0	
Neoretzia	0	0	0	0	0	0	1	1	1	0	
Schwagerispira	0	0	0	0	0	0	0	1	1	1	
Retzia	0	0	0	0	0	0	0	0	1	0	
Pseudokoninckina	0	0	0	0	0	0	0	0	0	1	
Spirigera	0	0	0	0	0	0	0	0	1	0	
Acanthothiris	0	1	0	0	0	0	0	0	0	0	
Acanthothyropsis	0	1	0	0	0	0	0	0	0	0	
Caucasorhynchia	0	0	0	0	0	0	0	1	1	1	
Hagabirhynchia	0	0	0	0	0	0	0	1	0	0	
Maorirhynchia	0	0	0	0	0	0	0	1	1	1	
Neofascicosta	0	0	0	0	0	0	0	1	1	0	
Austrirhynchia	0	0	0	0	0	0	1	0	0	0	
Decurtella	0	0	0	0	0	0	0	1	0	1	
Excavatorhynchia	0	0	0	0	0	0	0	0	1	0	
Apringia	0	0	0	1	1	0	0	0	0	0	
Jakubirhynchia	0	0	1	1	1	1	0	0	0	0	
Megapringia	0	0	0	1	0	0	0	0	0	0	
Pseudogibbirhynchia	0	1	1	1	0	0	0	0	0	0	
Serratapringia	0	0	0	1	0	0	0	0	0	0	
Soaresirhynchia	0	1	1	0	0	0	0	0	0	0	
Stolmorhynchia	0	1	1	1	0	1	0	0	0	0	
Veghirhynchia	0	0	0	0	0	0	1	1	1	0	
Alebusirhynchia	0	0	0	1	0	0	0	0	0	0	
Aucklandirhynchia	0	1	1	1	0	0	0	0	0	0	
Costirhynchopsis	0	0	0	0	0	0	0	0	1	1	
Eurysites	0	1	0	0	0	0	0	0	0	0	
Fissirhynchia	0	0	0	0	0	0	1	1	1	0	
Flabellirhynchia	0	1	0	0	0	0	0	0	0	0	
Globirhynchia	0	1	1	0	0	0	0	0	0	0	
Granulirhynchia	0	1	0	0	0	0	0	0	0	0	
Halorellina	0	0	0	0	0	0	0	1	0	0	
Lacunaerhynchia	0	1	0	0	0	0	0	0	0	0	
Lamellaerhynchia	0	0	0	1	0	0	0	0	0	0	
Parvirhynchia	0	1	0	0	0	0	0	0	0	0	
Rudirhynchia	0	0	1	1	0	0	0	0	0	0	
Septocyclothyris	0	0	0	0	0	0	0	1	0	0	
Squamirhynchia	0	1	0	1	1	0	0	0	0	0	
Timorhynchia	0	0	0	0	0	0	0	1	1	1	
Yidunella	0	0	0	0	0	0	1	1	1	0	
Yulongella	0	0	0	0	0	0	0	1	0	0	
Rhynchonellina	0	0	0	0	1	0	0	0	0	0	
Sulcirostra	0	0	0	0	1	1	0	0	1	0	
Crurirhynchia	0	0	0	0	0	0	0	1	0	1	
Cryptorhynchia	0	1	0	0	0	0	0	0	0	0	
Dierisma	0	0	0	0	0	0	0	1	0	0	
Septocrurella	0	1	0	0	0	0	0	0	0	0	
Halorella	0	0	0	0	0	0	1	1	1	0	
Halorelloidea	0	0	0	0	0	0	0	1	1	0	
Aparimarhynchia	0	0	0	0	0	0	0	0	0	1	
Austriellula	0	0	1	0	0	0	0	1	1	1	
Capillirostra	0	0	0	1	0	0	0	0	0	0	
Costinorella	0	0	0	0	0	0	0	0	0	1	
Diholkorhynchia	0	0	0	0	0	0	0	0	0	1	
Fenyveskutella	0	0	0	1	0	0	0	0	0	0	
Holcorhynchella	0	0	0	0	0	0	0	0	0	1	
Holcorhynchia	0	0	1	0	1	0	0	1	1	0	
Kericserella	0	0	0	1	0	0	0	0	0	0	
Laevorhynchia	0	0	0	0	0	0	0	0	1	0	
Maxillirhynchia	0	0	1	0	0	0	1	1	0	0	
Nannirhynchia	0	0	1	1	0	0	0	0	0	0	
Norella	0	0	0	0	0	0	0	1	1	1	
Osmarella	0	0	0	0	0	0	1	0	0	0	
Paronarhynchia	0	0	0	1	0	0	0	0	0	0	
Piarorhynchella	0	0	0	0	0	0	0	0	0	1	
Pisirhynchia	0	0	1	1	1	0	0	0	1	0	
Praemonticlarella	0	1	1	0	0	0	0	0	0	0	
Pseudohalorella	0	0	0	0	0	0	1	1	0	0	
Scalpellirhynchia	0	1	1	1	0	0	0	0	0	0	
Wairakirhynchia	0	0	0	0	0	0	0	0	0	1	
Ochotorhynchia	0	0	0	0	1	1	0	0	0	0	
Anarhynchia	0	0	0	1	0	0	0	0	0	0	
Carapezzia	0	0	0	0	0	1	0	0	0	0	
Peregrinelloidea	0	0	0	1	0	0	0	0	0	0	
Bodrakella	0	0	0	1	0	0	0	0	0	0	
Amoenirhynchia	0	0	0	0	0	0	0	0	1	0	
Lokutella	0	0	0	1	0	0	0	0	0	0	
Prionorhynchia	0	1	1	1	1	1	0	0	0	0	
Sphenorhynchia	0	1	0	0	0	0	0	0	0	0	
Caledorhynchia	0	1	0	0	1	0	0	0	0	0	
Capillirhynchia	0	1	0	0	0	0	0	0	0	0	
Choffatirhynchia	0	0	1	0	0	0	0	0	0	0	
Cuneirhynchia	0	0	0	1	1	1	0	0	0	0	
Curtirhynchia	0	1	0	0	0	0	0	0	0	0	
Furcirhynchia	0	0	1	1	1	1	0	0	0	0	
Grestenella	0	0	0	0	0	1	0	0	0	0	
Herangirhynchia	0	1	1	1	1	1	1	0	0	0	
Himalairhynchia	0	0	0	0	0	0	0	1	0	0	
Homoeorhynchia	0	1	1	1	1	1	0	0	1	0	
Murihikurhynchia	0	0	0	0	1	1	1	1	1	0	
Nudirostralina	0	0	0	0	0	0	0	0	1	1	
Omolonella	0	0	0	0	0	0	0	1	0	0	
Piarorhynchia	0	0	1	1	1	1	1	1	1	0	
Planirhynchia	0	0	0	1	0	0	1	0	1	0	
Ptilorhynchia	0	1	0	0	0	0	0	0	0	0	
Ptyctorhynchia	0	1	1	0	0	0	0	0	0	0	
Rhynchonella	0	1	0	1	1	1	1	1	1	0	
Rhynchonelloidea	0	1	1	1	0	0	0	0	0	0	
Rhynchonelloidella	0	1	1	0	0	0	0	0	0	0	
Rimirhynchia	0	0	0	1	1	0	0	0	0	0	
Rimirhynchopsis	0	0	0	0	0	0	0	1	1	0	
Saccorhynchia	0	0	0	0	0	0	0	1	0	0	
Sakawairhynchia	0	1	1	1	1	1	1	1	1	1	
Sinuplicorhynchia	0	0	0	0	0	0	0	1	1	0	
Slovenirhynchia	0	0	0	1	0	0	0	0	0	0	
Sulcorhynchia	0	0	0	0	0	0	0	1	1	0	
Trichorhynchia	0	1	0	0	0	0	0	0	0	0	
Volirhynchia	0	0	0	0	0	0	0	0	1	1	
Burmirhynchia	0	1	1	0	0	0	0	0	0	0	
Costirhynchia	0	1	0	0	0	0	1	0	1	0	
Cymatorhynchia	0	1	0	0	0	0	0	0	0	0	
Daghanirhynchia	0	1	0	0	0	0	0	0	0	0	
Druganirhynchia	0	1	0	0	0	0	0	0	0	0	
Eoseptaliphoria	0	0	0	0	0	0	0	1	0	0	
Gibbirhynchia	0	0	1	1	1	0	0	0	0	0	
Grandirhynchia	0	0	0	1	1	0	0	0	0	0	
Kallirhynchia	0	1	1	0	0	0	0	0	0	0	
Kutchirhynchia	0	1	0	0	0	0	0	0	0	0	
Obsoletirhynchia	0	1	0	0	0	0	0	0	0	0	
Orlovirhynchia	0	0	0	1	0	0	0	0	0	0	
Pontaltorhynchia	0	0	0	1	1	0	0	0	0	0	
Pycnoria	0	1	0	0	0	0	0	0	0	0	
Quadratirhynchia	0	0	1	1	1	0	0	0	0	0	
Rhactorhynchia	0	1	0	0	0	0	0	0	0	0	
Somalirhynchia	0	1	0	0	0	0	0	0	0	0	
Tetrarhynchia	0	0	1	1	1	1	0	0	0	0	
Apertirhynchella	0	0	0	0	0	0	0	0	1	0	
Calcirhynchia	0	0	0	1	1	1	1	0	0	0	
Cirpa	0	0	1	1	1	1	0	0	0	0	
Euxinella	0	0	0	0	0	0	1	1	1	0	
Moisseievia	0	0	0	0	0	0	0	1	0	0	
Robinsonella	0	0	0	0	0	0	1	1	1	0	
Salgirella	0	0	0	1	1	1	0	0	0	0	
Saubachia	0	0	0	0	0	1	0	0	0	0	
Vincentirhynchia	0	0	1	1	1	1	1	0	0	0	
Balatonospira	0	0	0	0	0	0	0	1	1	0	
Dinarispira	0	0	0	0	0	0	0	0	0	1	
Koeveskallina	0	0	0	0	0	0	0	0	0	1	
Nudispiriferina	0	0	0	0	0	0	0	0	0	1	
Tylospiriferina	0	0	0	0	0	0	0	1	1	0	
Bittnerula	0	0	0	0	0	0	0	0	1	0	
Flabellocyrtia	0	0	0	0	0	0	0	0	0	1	
Hirsutella	0	0	0	0	0	0	0	0	1	1	
Thecocyrtella	0	0	0	0	0	0	0	1	1	1	
Cyrtina	0	0	0	0	0	0	1	0	1	0	
Klipsteinella	0	0	0	0	0	0	0	0	1	0	
Klipsteinelloidea	0	0	0	0	0	0	0	1	0	0	
Laballa	0	0	0	0	0	0	1	1	1	0	
Paralepismatina	0	0	0	0	0	0	0	0	0	1	
Pseudolaballa	0	0	0	0	0	0	0	0	1	0	
Spinolepismatina	0	0	0	0	0	0	0	1	1	0	
Bolilaspirifer	0	0	0	0	0	0	1	1	0	0	
Costispiriferina	0	0	0	0	0	0	1	1	1	0	
Dispiriferina	0	0	1	1	1	1	0	0	0	0	
Lepismatina	0	0	0	0	0	0	0	1	1	1	
Pseudocyrtina	0	0	0	0	0	0	0	1	0	0	
Pseudolepismatina	0	0	0	0	0	0	0	1	0	0	
Callospiriferina	0	0	1	1	1	1	0	0	0	0	
Pennospiriferina	0	0	0	0	0	0	0	0	1	1	
Punctospirella	0	0	0	0	0	0	0	0	1	1	
Alipunctifera	0	0	0	0	0	0	0	0	1	1	
Canadospira	0	0	0	0	0	0	1	0	1	0	
Dentospiriferina	0	0	0	0	0	0	0	0	1	0	
Orientospira	0	0	0	0	0	0	0	1	0	0	
Psioidea	0	0	0	0	0	0	0	1	0	0	
Psioidiella	0	0	0	0	0	0	0	0	1	0	
Rastelligera	0	0	0	0	0	0	1	1	1	0	
Guseriplia	0	0	0	0	0	0	0	1	0	0	
Mentzeliopsis	0	0	0	0	0	0	0	0	1	1	
Sinucosta	0	0	0	0	0	0	1	1	1	1	
Lancangjiangia	0	0	0	0	0	0	0	1	1	0	
Pseudospiriferina	0	0	0	0	0	0	0	0	0	1	
Spirifer	0	0	0	0	0	0	0	0	1	0	
Calyptoria	0	0	1	0	0	0	0	0	0	0	
Cisnerospira	0	0	1	1	1	0	0	0	0	0	
Liospiriferina	0	0	1	1	1	1	0	0	0	0	
Madoia	0	0	0	0	0	0	0	0	0	1	
Mentzelia	0	0	0	0	0	0	1	1	1	1	
Mentzelioides	0	0	0	0	0	0	0	1	1	0	
Paralaballa	0	0	0	0	0	0	0	1	0	0	
Paramentzelia	0	0	0	0	0	0	0	1	1	0	
Spiriferina	0	1	1	1	1	1	1	1	1	1	
Tethyspira	0	0	0	0	0	0	0	0	0	1	
Viligella	0	0	0	0	0	0	1	1	0	0	
Dagyspirifer	0	0	0	0	0	0	0	1	0	0	
Pseudospondylospira	0	0	0	0	0	0	0	1	0	0	
Spondylospira	0	0	0	0	0	0	1	1	1	0	
Vitimetula	0	0	0	0	0	0	0	1	0	0	
Zugmayerella	0	0	0	0	0	0	1	1	1	0	
Suessia	0	0	0	1	0	0	0	0	0	0	
Cadomella	0	0	1	1	0	0	0	0	0	0	
Angustothyris	0	0	0	0	0	0	0	0	0	1	
Arcosarina	0	0	0	0	0	0	0	1	1	0	
Caucasothyris	0	0	0	0	0	0	0	1	0	0	
Cubanothyris	0	0	0	0	0	0	0	1	1	0	
Cystothyris	0	0	0	0	0	0	0	1	0	0	
Paradoxothyris	0	0	0	0	0	0	0	1	1	0	
Praecubanothyris	0	0	0	0	0	0	0	1	0	0	
Rhaetina	0	0	0	0	0	0	1	1	1	1	
Rhaetinopsis	0	0	0	0	0	0	0	1	1	0	
Sanqiaothyris	0	0	0	0	0	0	0	1	1	0	
Epithyroides	0	0	0	0	0	0	0	1	1	0	
Aulacothyropsis	0	0	0	0	0	0	1	1	1	0	
Camerothyris	0	0	0	0	0	0	0	0	1	1	
Pseudorugitela	0	0	0	0	0	0	0	1	0	0	
Deslongchampsithyris	0	0	0	1	0	0	0	0	0	0	
Dictyothyris	0	1	0	0	0	0	0	0	0	0	
Adygella	0	0	0	0	0	0	0	1	1	1	
Arctothyris	0	0	0	0	0	0	0	0	0	1	
Coenothyris	0	0	0	0	0	0	0	1	1	1	
Cruratula	0	0	0	0	0	0	0	1	1	1	
Ninglangothyris	0	0	0	0	0	0	0	0	1	1	
Propygope	0	0	0	0	0	0	0	0	1	0	
Sulcatothyris	0	0	0	0	0	0	0	0	1	0	
Tibetothyris	0	0	0	0	0	0	0	1	1	0	
Tunethyris	0	0	0	0	0	0	0	1	1	0	
Albasphe	0	0	0	0	0	0	0	0	0	1	
Eudesia	0	1	0	0	0	0	0	0	0	0	
Flabellothyris	0	0	1	0	0	0	0	0	0	0	
Xenorina	0	1	0	0	0	0	0	0	0	0	
Costoconcha	0	0	0	0	0	0	0	1	1	0	
Hesperithyris	0	0	0	1	1	0	0	0	0	0	
Wittenburgella	0	0	0	0	0	0	0	1	0	0	
Eodallina	0	0	0	0	0	0	0	1	0	0	
Monsardithyris	0	1	1	0	0	0	0	0	0	0	
Stroudithyris	0	1	1	0	0	0	0	0	0	0	
Arabatia	0	1	0	0	0	0	0	0	0	0	
Avonothyris	0	1	0	0	0	0	0	0	0	0	
Bihenithyris	0	1	0	0	0	0	0	0	0	0	
Cererithyris	0	1	0	0	0	0	0	0	0	0	
Ectyphoria	0	0	0	0	1	0	0	0	0	0	
Loboidothyris	0	1	1	1	1	0	0	1	0	0	
Plectothyris	0	1	0	0	0	0	0	0	0	0	
Praesphaeroidothyris	0	0	0	1	0	0	0	0	0	0	
Pseudoglossothyris	0	1	0	0	0	0	0	0	0	0	
Ptyctothyris	0	1	0	0	0	0	0	0	0	0	
Sphaeroidothyris	0	1	1	1	0	0	0	0	0	0	
Stiphrothyris	0	1	0	0	0	0	0	0	0	0	
Wattonithyris	0	1	0	0	0	0	0	0	0	0	
Cuersithyris	0	0	1	1	1	0	0	0	0	0	
Inaequalis	0	0	0	1	0	0	0	0	0	0	
Lobothyris	0	1	1	1	1	1	1	1	1	1	
Lophrothyris	0	1	0	0	0	0	0	0	0	0	
Rhapidothyris	0	0	1	1	1	0	0	0	0	0	
Telothyris	0	0	1	1	0	0	0	0	0	0	
Tubithyris	0	1	0	0	0	0	0	0	0	0	
Anadyrella	0	0	0	0	0	0	0	1	0	0	
Buckmanithyris	0	0	0	1	0	0	0	0	0	0	
Linguithyris	0	1	1	1	1	1	0	0	0	0	
Nucleata	0	0	0	1	0	0	0	0	0	0	
Phymatothyris	0	0	1	1	1	1	0	0	0	0	
Orthotoma	0	0	0	1	1	0	0	0	0	0	
Lychnothyris	0	0	0	1	0	0	0	0	0	0	
Merophricus	0	0	0	1	1	0	0	0	0	0	
Plectoconcha	0	0	0	0	0	0	0	1	0	0	
Conarothyris	0	1	0	0	0	0	0	0	0	0	
Epithyris	0	1	0	0	0	0	0	0	0	0	
Euidothyris	0	1	0	0	0	0	0	0	0	0	
Gigantothyris	0	1	0	0	0	0	0	0	0	0	
Millythyris	0	1	0	0	0	0	0	0	0	0	
Oligorhytisia	0	1	0	0	0	0	0	0	0	0	
Petalothyris	0	1	0	0	0	0	0	0	0	0	
Plectoidothyris	0	1	0	0	0	0	0	0	0	0	
Securithyris	0	0	0	1	0	0	0	0	0	0	
Terebratella	0	0	1	0	0	0	0	0	0	0	
Terebratula	0	1	1	1	1	1	1	1	1	0	
Antiptychina	0	1	0	0	1	0	0	0	0	0	
Aulacothyris	0	1	1	1	1	0	0	1	1	1	
Aulacothyroides	0	0	0	0	0	0	0	1	1	1	
Bakonithyris	0	0	0	0	0	1	0	0	0	0	
Bakonyithyris	0	0	1	1	1	1	0	0	0	0	
Calpella	0	0	0	0	1	0	0	0	0	0	
Cincta	0	0	1	1	1	0	0	0	0	0	
Fimbriothyris	0	0	0	1	1	0	0	0	0	0	
Gemerithyris	0	0	0	0	0	0	0	1	1	0	
Kolymithyris	0	0	0	0	0	0	1	1	1	0	
Menathyris	0	0	0	0	0	0	0	0	0	1	
Neozeilleria	0	1	1	0	0	0	0	0	0	0	
Obovothyris	0	1	0	0	0	0	0	0	0	0	
Ornithella	0	0	0	1	0	0	0	1	0	0	
Plesiothyris	0	0	0	1	0	0	0	0	0	0	
Rugitela	0	1	0	0	0	0	0	0	0	0	
Sacothyris	0	0	0	0	0	0	1	1	1	0	
Securina	0	0	0	1	1	1	0	0	0	0	
Silesiathyris	0	0	0	0	0	0	0	1	0	1	
Tauromenia	0	0	0	1	0	0	0	0	0	0	
Zeilleria	0	1	1	1	1	1	1	1	1	0	
Zugmayeria	0	0	0	0	0	0	1	0	0	0	
Adygellopsis	0	0	0	0	0	0	0	1	0	0	
Eplenyithyris	0	0	1	1	0	0	0	0	0	0	
Lobothyroides	0	0	0	0	0	0	0	1	1	0	
Pamirothyris	0	0	0	0	0	0	0	1	0	0	
Papodina	0	0	0	1	0	0	0	0	0	0	
Peristerothyris	0	0	0	1	0	0	0	0	0	0	
Pseudorhaetina	0	0	0	0	0	0	0	1	0	0	
Viallithyris	0	0	1	1	1	0	0	0	0	0	
Zhidothyris	0	0	0	0	0	0	0	1	0	0	
Bactrynium	0	0	0	0	0	0	1	0	0	0	
Enallothecidea	0	1	0	0	0	0	0	0	0	0	
Hungaritheca	0	0	0	0	0	0	0	0	1	0	
Protolacazella	0	1	0	0	0	0	0	0	0	0	
Moorellina	0	0	0	0	0	0	0	1	0	0	
Pachymoorellina	0	1	0	0	0	0	0	0	0	0	
Bittnerella	0	0	0	0	0	0	0	0	1	0	
Thecospirella	0	0	0	0	0	0	0	0	1	0	
Thecospira	0	0	0	0	0	0	1	1	1	0	
