taxon	min	max
Eonavicula	172.2	215.25
Elegantarca	239.25	239.25
Hoferia	207.95	232
Limopsis	172.2	190.8
Catella	172.2	232
Grammatodon	172.2	239.25
Macrodon	226.5	239.25
Parallelodon	172.2	239.25
Pichleria	226.5	239.25
Antarctica	172.2	172.2
Antiquicyprina	172.2	172.2
Integricardium	172.2	201.3
Protocardia	172.2	232
Septocardia	203.35	232
Crenotrapezium	176.2	199.3
Eomiodon	172.2	201.3
Tulongocardium	203.35	215.25
Quenstedtia	172.2	190.8
Corbicellopsis	172.2	180.5
Sakawanella	226.5	226.5
Tancredia	172.2	239.25
Tellina	172.2	239.25
Langvophorus	203.35	215.25
Astarte	172.2	239.25
Balantioselena	239.25	239.25
Coelastarte	172.2	201.3
Coelopis	172.2	239.25
Hemimenia	172.2	172.2
Neocrassina	172.2	201.3
Nicaniella	172.2	201.3
Notoastarte	172.2	172.2
Opis	172.2	215.25
Opisoma	172.2	199.3
Oxyloma	172.2	172.2
Praeconia	172.2	215.25
Pressastarte	187.55	190.8
Cardinia	172.2	239.25
Minepharus	207.95	232
Pseudastarte	195.3	201.3
Torastarte	176.2	203.35
Cardita	172.2	232
Palaeocardita	203.35	239.25
Tutcheria	176.2	232
Venericardia	172.2	190.8
Hiatella	195.3	239.25
Myophoricardium	203.35	239.25
Myophoriopis	203.35	239.25
Pseudocorbula	203.35	239.25
Ampezzania	207.95	215.25
Paramegalodus	203.35	215.25
Pomarangina	203.35	232
Protodiceras	187.55	190.8
Antiquilima	172.2	239.25
Badiotella	226.5	239.25
Ctenostreon	172.2	203.35
Lima	172.2	239.25
Limatula	172.2	239.25
Limea	172.2	239.25
Mysidioptera	203.35	239.25
Plagiostoma	172.2	239.25
Pseudolimea	172.2	239.25
Serania	203.35	215.25
Cavilucina	172.2	199.3
Corbis	226.5	232
Haastina	172.2	172.2
Lucina	172.2	239.25
Luciniola	187.55	203.35
Mesomiltha	172.2	203.35
Pseudomiltha	172.2	180.5
Schafhaeutlia	203.35	239.25
Sphaeriola	172.2	201.3
Mactromya	172.2	239.25
Unicardium	172.2	239.25
Ceratomyopsis	172.2	180.5
Ceromyopsis	172.2	172.2
Cornucardia	226.5	232
Dicerocardium	203.35	226.5
Physocardia	226.5	239.25
Pseudisocardia	172.2	172.2
Conchodon	203.35	207.95
Megalodon	203.35	239.25
Neomegalodon	203.35	239.25
Pachyrisma	172.2	199.3
Pterocardia	172.2	180.5
Quemocuomegalodon	207.95	215.25
Rhaetomegalodon	203.35	215.25
Triadomegalodon	203.35	232
Wallowaconcha	203.35	215.25
Hippopodium	172.2	203.35
Curionia	203.35	239.25
Healeya	203.35	215.25
Kalentera	172.2	226.5
Permophorus	203.35	239.25
Triaphorus	207.95	239.25
Myoconcha	172.2	239.25
Pseudomyoconcha	203.35	239.25
Arctomytiloides	176.2	201.3
Inoceramus	172.2	172.2
Parainoceramus	172.2	201.3
Pseudomytiloides	172.2	201.3
Retroceramus	172.2	172.2
Kolymia	172.2	239.25
Aviculomyalina	226.5	239.25
Myalina	226.5	239.25
Mysidiella	203.35	239.25
Promysidiella	207.95	239.25
Jurassicorbula	172.2	180.5
Pseudosaxicava	172.2	201.3
Arcomytilus	172.2	180.5
Falcimytilus	172.2	239.25
Inoperna	172.2	215.25
Lithophaga	172.2	239.25
Lycettia	172.2	199.3
Modiolus	172.2	239.25
Protopis	226.5	239.25
Isoarca	172.2	190.8
Lapteviella	239.25	239.25
Malletia	172.2	239.25
Palaeoneilo	176.2	239.25
Prosoleptus	226.5	239.25
Taimyrodon	239.25	239.25
Dacromya	172.2	239.25
Eleganuculana	203.35	232
Mesosaccella	172.2	215.25
Nuculana	172.2	239.25
Veteranella	207.95	239.25
Xiaoshuiculana	203.35	215.25
Ryderia	176.2	203.35
Nucula	172.2	239.25
Nuculoma	172.2	232
Palaeonucula	172.2	239.25
Trigonucula	203.35	239.25
Rollieria	172.2	200.1
Aguilerella	172.2	203.35
Bakevellia	172.2	239.25
Costigervillia	172.2	180.5
Cuneigervillia	172.2	201.3
Gervillancea	207.95	232
Gervillaria	172.2	239.25
Gervillella	172.2	215.25
Gervillia	172.2	239.25
Hoernesia	203.35	239.25
Kedonella	176.2	180.5
Kobayashites	172.2	180.5
Cassianella	203.35	239.25
Exogyra	172.2	201.3
Gryphaea	172.2	232
Liostrea	172.2	239.25
Nanogyra	172.2	199.3
Aparimella	226.5	239.25
Daonella	226.5	239.25
Halobia	203.35	239.25
Taimyrolobia	226.5	232
Eligmus	172.2	172.2
Gervilleioperna	172.2	199.3
Isognomon	172.2	232
Lithiotis	187.55	199.3
Mytiloperna	172.2	201.3
Waagenoperna	207.95	239.25
Actinostreon	172.2	232
Lopha	172.2	239.25
Umbrostrea	203.35	239.25
Krumbeckiella	203.35	226.5
Manticula	172.2	226.5
Oretia	207.95	226.5
Atrina	172.2	239.25
Pinna	172.2	239.25
Trichites	172.2	215.25
Amonotis	207.95	232
Bositra	172.2	239.25
Posidonotis	176.2	199.3
Arcavicula	203.35	239.25
Avicularea	203.35	239.25
Pseudaucella	176.2	190.8
Pteria	172.2	239.25
Rhaetavicula	203.35	203.35
Pulvinites	172.2	190.8
Heligmus	172.2	172.2
Enantiostreon	239.25	239.25
Harpax	176.2	215.25
Cercomya	172.2	232
Laternula	172.2	239.25
Platymyoidea	172.2	215.25
Anomia	172.2	239.25
Placunopsis	172.2	239.25
Neopecten	207.95	215.25
Primahinnites	203.35	215.25
Anningella	195.3	201.3
Etalia	239.25	239.25
Atreta	172.2	239.25
Protostrea	239.25	239.25
Cingentolium	172.2	172.2
Entolioides	207.95	239.25
Entolium	172.2	239.25
Somapecten	172.2	180.5
Filopecten	203.35	239.25
Kolymonectes	180.5	215.25
Eumorphotis	187.55	239.25
Leptochondria	207.95	239.25
Palaeolima	239.25	239.25
Monotis	203.35	215.25
Otapiria	172.2	239.25
Weyla	176.2	201.3
Arctotis	172.2	199.3
Jianchuania	203.35	215.25
Meleagrinella	172.2	239.25
Oxytoma	172.2	239.25
Aequipecten	172.2	239.25
Agerchlamys	176.2	232
Amusium	172.2	239.25
Camptonectes	172.2	239.25
Chlamys	172.2	239.25
Eopecten	172.2	239.25
Hinnites	172.2	232
Hunanonectes	200.1	239.25
Indopecten	203.35	232
Loxochlamys	239.25	239.25
Lyriochlamys	172.2	215.25
Nevadapecten	239.25	239.25
Ochotochlamys	176.2	239.25
Pleuronectites	207.95	239.25
Praechlamys	239.25	239.25
Pseudentolium	172.2	190.8
Pseudopecten	172.2	201.3
Radulonectites	187.55	201.3
Spondylopecten	172.2	180.5
Tosapecten	203.35	232
Plicatula	172.2	239.25
Pseudoplacunopsis	203.35	239.25
Parvamussium	172.2	239.25
Propeamussium	172.2	172.2
Newaagia	203.35	239.25
Persia	201.3	215.25
Pseudomonotis	172.2	239.25
Ceratomya	172.2	195.3
Gresslya	172.2	239.25
Makoiamya	203.35	215.25
Myopholas	172.2	180.5
Pteromya	201.3	203.35
Antiquicorbula	203.35	215.25
Corbulomima	172.2	180.5
Pleuromya	172.2	239.25
Ochotomya	203.35	215.25
Ouamouia	203.35	226.5
Somareoides	226.5	232
Weixiella	203.35	215.25
Arcomya	172.2	239.25
Goniomya	172.2	215.25
Homomya	172.2	239.25
Osteomya	172.2	199.3
Pachymya	172.2	239.25
Pholadomya	172.2	203.35
Anomalopleuroides	203.35	232
Girardotia	172.2	180.5
Cuspidaria	172.2	239.25
Magnolobia	239.25	239.25
Terquemia	172.2	239.25
Antijanira	232	239.25
Bittneria	203.35	232
Cochlearites	187.55	190.8
Crenamussium	207.95	232
Hokonuia	207.95	232
Langsonella	203.35	239.25
Lithioperna	187.55	187.55
Mytiloceramus	172.2	201.3
Ornithopecten	207.95	239.25
Pergamidia	207.95	232
Septihoernesia	207.95	239.25
Songdaella	203.35	239.25
Stefaninia	239.25	239.25
Mesoneilo	203.35	215.25
Nucinella	172.2	201.3
Burmesia	200.1	232
Thracia	172.2	215.25
Groeberella	172.2	199.3
Frenguelliella	172.2	232
Jaworskiella	176.2	201.3
Quadratojaworskiella	172.2	201.3
Myophorella	172.2	190.8
Scaphorella	172.2	239.25
Vaugonia	172.2	201.3
Caledogonia	215.25	226.5
Costatoria	203.35	239.25
Elegantinia	203.35	239.25
Gruenewaldia	203.35	232
Heminajas	226.5	239.25
Liotrigonia	187.55	239.25
Myophoria	203.35	239.25
Neoschizodus	203.35	239.25
Agonisca	239.25	239.25
Praegonia	239.25	239.25
Prosogyrotrigonia	195.3	232
Schizodus	203.35	239.25
Geratrigonia	176.2	201.3
Guineana	203.35	232
Kyushutrigonia	207.95	232
Maoritrigonia	203.35	232
Minetrigonia	203.35	232
Modesticoncha	203.35	215.25
Myophorigonia	203.35	232
Neuquenitrigonia	172.2	180.5
Trigonia	172.2	239.25
Anodontophora	207.95	239.25
Cardinioides	187.55	239.25
Janaija	239.25	239.25
Unionites	203.35	239.25
Atalantia	226.5	226.5
Erugonia	203.35	207.95
Prorotrigonia	207.95	232
Trigonodus	207.95	239.25
Pachycardia	226.5	239.25
Anisocardia	172.2	199.3
Coelocyprina	172.2	190.8
Isocyprina	172.2	207.95
Plesiocyprina	172.2	203.35
Pronoella	172.2	190.8
Pseudotrapezium	172.2	201.3
Rollierella	172.2	180.5
Pullastra	203.35	203.35
Solenomorpha	226.5	239.25
Laubeia	226.5	232
Taeniodon	200.1	203.35
