taxon	int1	int2	int3	int4	int5	int6	int7	int8	int9	int10
Acanthochirana	0	0	0	0	0	0	0	1	0	0	
Aeger	0	1	0	0	1	0	1	0	1	1	
Callianassa	0	0	1	0	0	0	0	0	0	0	
Clytiopsis	0	0	0	0	0	0	0	0	0	1	
Paraclytiopsis	0	0	0	0	0	0	0	0	1	0	
Coleia	0	0	0	1	1	0	0	0	1	0	
Proeryon	0	0	1	0	0	0	0	0	0	0	
Pseudocoleia	0	0	0	0	0	0	0	1	0	0	
Eocarcinus	0	0	0	1	0	0	0	0	0	0	
Eryma	0	1	1	1	1	0	0	0	0	0	
Palaeastacus	0	1	0	0	0	0	0	0	0	0	
Pustulina	0	0	0	0	1	0	0	0	0	0	
Eryon	0	0	0	0	0	1	0	0	0	0	
Rosenfeldia	0	0	0	0	0	0	0	1	0	0	
Wrangelleryon	0	0	0	0	0	1	0	0	0	0	
Glyphea	0	1	1	1	1	1	0	1	0	0	
Pseudoglyphea	0	0	0	1	1	0	0	0	0	0	
Mecochirus	0	1	1	0	1	0	0	0	0	0	
Palaeopagurus	0	0	1	0	0	0	0	0	0	0	
Archaeopalinurus	0	0	0	0	0	0	0	1	0	0	
Pemphix	0	0	0	0	0	0	0	0	0	1	
Antrimpos	0	0	0	0	0	1	0	1	1	1	
Bombur	0	0	0	0	0	0	0	0	1	0	
Penaeus	0	0	0	0	0	1	0	0	0	0	
Glaessnericaris	0	0	0	0	0	0	0	1	0	0	
Cryptopagurus	0	0	0	1	0	0	0	0	0	0	
Schobertella	0	0	0	1	0	1	0	0	0	0	
Gracilimanus	0	1	0	0	0	0	0	0	0	0	
Gypsonicus	0	1	0	0	0	0	0	0	0	0	
Tetrachela	0	0	0	0	0	0	0	0	1	0	
Venipagurus	0	0	0	0	1	0	0	0	0	0	
Aspidogaster	0	0	0	0	0	0	0	0	0	1	
Dusa	0	0	0	0	0	0	0	1	0	0	
Orhomalus	0	0	1	1	0	0	0	0	0	0	
Palaxius	0	0	0	0	0	0	0	1	0	0	
Polyonyx	0	1	0	0	0	0	0	0	0	0	
Eonatatolana	0	1	0	0	0	0	0	0	0	0	
Palaega	0	1	0	0	0	0	0	0	0	0	
Urda	0	1	0	0	0	0	0	0	0	0	
Schimperella	0	0	0	0	0	0	0	0	0	1	
Jurapseudes	0	1	1	0	0	0	0	0	0	0	
