taxon	min	max
Acrosmilia	172.2	172.2
Proleptophyllia	172.2	201.3
Actinaraea	172.2	199.3
Actinastrea	172.2	239.25
Allocoeniopsis	172.2	201.3
Chondrocoenia	203.35	212.875
Coenastraea	172.2	172.2
Enallocoenia	172.2	190.8
Stelidioseris	195.3	199.3
Stephanastrea	176.2	180.5
Craterastraea	172.2	172.2
Alpinophyllia	203.35	232
Alpinoseris	203.35	203.35
Stuoresimorpha	203.35	215.25
Amphiastrea	172.2	172.2
Bathmosmilia	172.2	172.2
Ceratocoenia	187.55	190.8
Cladophyllia	172.2	190.8
Hispaniastraea	190.8	195.3
Keriophyllia	172.2	172.2
Lochmaeosmilia	172.2	172.2
Quenstedtiphyllia	203.35	232
Andemantastraea	172.2	180.5
Ovalastraeopsis	172.2	172.2
Trigerastraea	172.2	187.55
Vallimeandropsis	172.2	172.2
Astraeomorpha	203.35	239.25
Parastraeomorpha	203.35	215.25
Seriastraea	203.35	232
Haplaraea	172.2	172.2
Astrocoenia	172.2	215.25
Axosmilia	172.2	172.2
Thecocyathus	172.2	199.3
Trochocyathus	172.2	190.8
Craspedosmilia	226.5	232
Myriophyllum	187.55	239.25
Omphalophyllia	207.95	239.25
Omphalophylliopsis	187.55	239.25
Rhopalodendron	207.95	232
Flexastrea	207.95	215.25
Khytrastrea	207.95	232
Margarogyra	207.95	215.25
Nevadoseris	207.95	215.25
Noriphyllia	207.95	232
Pokljukosmilia	207.95	232
Cuifastraea	203.35	212.875
Gillastraea	207.95	212.875
Tropiphyllum	203.35	232
Curtoseris	203.35	215.25
Mesomorpha	172.2	239.25
Cycliphyllia	203.35	215.25
Kompsasteria	203.35	215.25
Cyclophyllopsis	172.2	187.55
Melikerona	172.2	172.2
Dichopsammia	187.55	190.8
Calamophylliopsis	172.2	190.8
Dermosmilia	172.2	172.2
Dimorphomeandra	172.2	172.2
Epistreptophyllum	172.2	187.55
Stibastrea	172.2	172.2
Cardiastraea	172.2	176.2
Distichophyllia	203.35	232
Toechastraea	203.35	239.25
Prodonacosmilia	172.2	199.3
Duncanosmilia	195.3	201.3
Macgeopsis	172.2	176.2
Pseudisastraea	172.2	172.2
Sakalavastraea	172.2	180.5
Stephanaxocoenia	172.2	172.2
Funginella	187.55	190.8
Gablonzeria	203.35	239.25
Gigantostylis	203.35	203.35
Guembelastraea	203.35	232
Stuoresia	203.35	232
Dimorphastraeopsis	172.2	172.2
Intersmilia	172.2	199.3
Kobyastraea	172.2	172.2
Aggomorphastraea	172.2	172.2
Astraeofungia	172.2	172.2
Brachyseris	172.2	190.8
Collignonastraea	172.2	180.5
Comophyllia	172.2	190.8
Dimorphastrea	172.2	187.55
Fungiastraea	172.2	172.2
Latomeandra	172.2	172.2
Microphyllia	172.2	190.8
Periseris	172.2	172.2
Thamnoseris	172.2	172.2
Vallimeandra	172.2	172.2
Distichomeandra	203.35	207.95
Margarophyllia	226.5	239.25
Margarosmilia	176.2	239.25
Neoconophyllia	239.25	239.25
Submargarosmilia	239.25	239.25
Thamnomargarosmilia	207.95	239.25
Astrea	226.5	232
Araiophyllum	172.2	232
Chomatoseris	172.2	201.3
Comoseris	172.2	190.8
Dendraraea	172.2	172.2
Dimorpharaea	172.2	172.2
Eocomoseris	195.3	232
Kobya	172.2	172.2
Litharaeopsis	172.2	172.2
Microsolena	172.2	232
Tricycloseris	172.2	190.8
Trocharea	172.2	201.3
Trochoplegma	172.2	172.2
Clausastrea	172.2	172.2
Complexastrea	172.2	172.2
Elysastraea	203.35	239.25
Goldfussastrea	172.2	180.5
Isastrea	172.2	239.25
Latiphyllia	172.2	172.2
Margarastraea	203.35	232
Montlivaltia	172.2	239.25
Paraphyllogyra	172.2	190.8
Phyllogyra	172.2	172.2
Rhabdophyllia	172.2	190.8
Thecomeandra	172.2	172.2
Thecosmilia	172.2	232
Haimeicyclus	172.2	201.3
Heterastraea	172.2	201.3
Oppelismilia	195.3	201.3
Phacelophyllia	172.2	201.3
Ampakabastraea	172.2	207.95
Areaseris	207.95	215.25
Beneckastraea	207.95	232
Campesteria	203.35	215.25
Ceriostella	203.35	239.25
Crassistella	203.35	207.95
Minasteria	207.95	215.25
Morycastraea	207.95	239.25
Pamiroseris	203.35	239.25
Rhaetiastraea	203.35	215.25
Cyathocoenia	200.1	239.25
Andrazella	207.95	239.25
Conophyllia	207.95	239.25
Hydrasmilia	207.95	232
Procyclolites	190.8	239.25
Carpathiphyllia	226.5	232
Paravolzeia	207.95	232
Pontebbastraea	203.35	232
Remismilia	203.35	239.25
Coryphyllia	187.55	239.25
Coryphyllina	203.35	203.35
Craspedophyllia	203.35	239.25
Cuifia	203.35	232
Distichoflabellum	203.35	215.25
Distichomorpha	207.95	215.25
Distichopsis	203.35	215.25
Oedalmia	203.35	215.25
Palaeastraea	203.35	239.25
Paracuifia	203.35	215.25
Primorodendron	203.35	215.25
Retiophyllia	172.2	239.25
Aplosmilia	172.2	172.2
Codonosmilia	172.2	172.2
Hexaflos	172.2	172.2
Siderosmilia	176.2	190.8
Adelocoenia	172.2	172.2
Cryptocoenia	172.2	172.2
Cyathophora	172.2	172.2
Goniocora	172.2	190.8
Heliocoenia	172.2	172.2
Procyathophora	239.25	239.25
Pseudocoenia	172.2	172.2
Pseudocoeniopsis	172.2	172.2
Stylina	172.2	215.25
Stylosmilia	172.2	199.3
Anthostylis	203.35	215.25
Cerioheterastraea	207.95	232
Coccophyllum	190.8	212.875
Discocoenia	172.2	200.1
Discocoeniopsis	187.55	201.3
Maeandrostylis	203.35	215.25
Meandrostylophyllum	203.35	203.35
Monstroseris	203.35	203.35
Pamirophyllum	203.35	215.25
Phacelepismilia	195.3	201.3
Phacelostylophyllum	190.8	232
Pinacophyllum	187.55	239.25
Protostylophyllum	226.5	232
Stylophyllopsis	187.55	239.25
Stylophyllum	203.35	215.25
Synastrea	172.2	190.8
Recticostastraea	203.35	232
Substuoresia	239.25	239.25
Thamnasteria	172.2	239.25
Thamnasteriamorpha	187.55	232
Tropidendron	207.95	239.25
Chevalieria	207.95	239.25
Alakiria	203.35	207.95
Meandrovolzeia	207.95	207.95
Volzeia	176.2	239.25
Alloiteausmilia	187.55	199.3
Archaeosmilia	187.55	201.3
Archaeosmiliopsis	187.55	201.3
Cryptosepta	200.1	201.3
Epismilia	172.2	190.8
Epismiliopsis	172.2	190.8
Pachydendron	207.95	226.5
Pachysolenia	207.95	239.25
Pachythecalis	207.95	207.95
Parapleurosmilia	172.2	187.55
Plesiophyllum	172.2	190.8
Zardinophyllum	203.35	239.25
Bavarosmilia	203.35	215.25
Furcophyllia	239.25	239.25
Koilocoenia	203.35	239.25
Lepiconus	203.35	203.35
Pachysmilia	195.3	199.3
Rodinosmilia	187.55	187.55
Thamnasterites	207.95	215.25
Tropiastraea	232	239.25
Asterias	172.2	190.8
Germanasterias	201.3	201.3
Hystriyasterias	201.3	201.3
Terminaster	172.2	199.3
Plesiastropecten	200.1	201.3
Tethyaster	172.2	172.2
Pentasteria	172.2	190.8
Berckhemeraster	239.25	239.25
Trichasteropsis	239.25	239.25
Protremaster	195.3	199.3
Comptoniaster	176.2	180.5
Galbaster	176.2	180.5
Odontaster	172.2	172.2
Noriaster	207.95	215.25
Pycinaster	172.2	190.8
Poncetaster	176.2	180.5
Stauraster	187.55	190.8
Diclidaster	200.1	200.1
Plumaster	190.8	190.8
Tropidaster	187.55	190.8
Carniaster	226.5	232
Eonavicula	172.2	215.25
Elegantarca	239.25	239.25
Hoferia	207.95	232
Limopsis	172.2	190.8
Catella	172.2	232
Grammatodon	172.2	239.25
Macrodon	226.5	239.25
Parallelodon	172.2	239.25
Pichleria	226.5	239.25
Antarctica	172.2	172.2
Antiquicyprina	172.2	172.2
Integricardium	172.2	201.3
Protocardia	172.2	232
Septocardia	203.35	232
Crenotrapezium	176.2	199.3
Eomiodon	172.2	201.3
Tulongocardium	203.35	215.25
Quenstedtia	172.2	190.8
Corbicellopsis	172.2	180.5
Sakawanella	226.5	226.5
Tancredia	172.2	239.25
Tellina	172.2	239.25
Langvophorus	203.35	215.25
Astarte	172.2	239.25
Balantioselena	239.25	239.25
Coelastarte	172.2	201.3
Coelopis	172.2	239.25
Hemimenia	172.2	172.2
Neocrassina	172.2	201.3
Nicaniella	172.2	201.3
Notoastarte	172.2	172.2
Opis	172.2	215.25
Opisoma	172.2	199.3
Oxyloma	172.2	172.2
Praeconia	172.2	215.25
Pressastarte	187.55	190.8
Cardinia	172.2	239.25
Minepharus	207.95	232
Pseudastarte	195.3	201.3
Torastarte	176.2	203.35
Cardita	172.2	232
Palaeocardita	203.35	239.25
Tutcheria	176.2	232
Venericardia	172.2	190.8
Hiatella	195.3	239.25
Myophoricardium	203.35	239.25
Myophoriopis	203.35	239.25
Pseudocorbula	203.35	239.25
Ampezzania	207.95	215.25
Paramegalodus	203.35	215.25
Pomarangina	203.35	232
Protodiceras	187.55	190.8
Antiquilima	172.2	239.25
Badiotella	226.5	239.25
Ctenostreon	172.2	203.35
Lima	172.2	239.25
Limatula	172.2	239.25
Limea	172.2	239.25
Mysidioptera	203.35	239.25
Plagiostoma	172.2	239.25
Pseudolimea	172.2	239.25
Serania	203.35	215.25
Cavilucina	172.2	199.3
Corbis	226.5	232
Haastina	172.2	172.2
Lucina	172.2	239.25
Luciniola	187.55	203.35
Mesomiltha	172.2	203.35
Pseudomiltha	172.2	180.5
Schafhaeutlia	203.35	239.25
Sphaeriola	172.2	201.3
Mactromya	172.2	239.25
Unicardium	172.2	239.25
Ceratomyopsis	172.2	180.5
Ceromyopsis	172.2	172.2
Cornucardia	226.5	232
Dicerocardium	203.35	226.5
Physocardia	226.5	239.25
Pseudisocardia	172.2	172.2
Conchodon	203.35	207.95
Megalodon	203.35	239.25
Neomegalodon	203.35	239.25
Pachyrisma	172.2	199.3
Pterocardia	172.2	180.5
Quemocuomegalodon	207.95	215.25
Rhaetomegalodon	203.35	215.25
Triadomegalodon	203.35	232
Wallowaconcha	203.35	215.25
Hippopodium	172.2	203.35
Curionia	203.35	239.25
Healeya	203.35	215.25
Kalentera	172.2	226.5
Permophorus	203.35	239.25
Triaphorus	207.95	239.25
Myoconcha	172.2	239.25
Pseudomyoconcha	203.35	239.25
Arctomytiloides	176.2	201.3
Inoceramus	172.2	172.2
Parainoceramus	172.2	201.3
Pseudomytiloides	172.2	201.3
Retroceramus	172.2	172.2
Kolymia	172.2	239.25
Aviculomyalina	226.5	239.25
Myalina	226.5	239.25
Mysidiella	203.35	239.25
Promysidiella	207.95	239.25
Jurassicorbula	172.2	180.5
Pseudosaxicava	172.2	201.3
Arcomytilus	172.2	180.5
Falcimytilus	172.2	239.25
Inoperna	172.2	215.25
Lithophaga	172.2	239.25
Lycettia	172.2	199.3
Modiolus	172.2	239.25
Protopis	226.5	239.25
Isoarca	172.2	190.8
Lapteviella	239.25	239.25
Malletia	172.2	239.25
Palaeoneilo	176.2	239.25
Prosoleptus	226.5	239.25
Taimyrodon	239.25	239.25
Dacromya	172.2	239.25
Eleganuculana	203.35	232
Mesosaccella	172.2	215.25
Nuculana	172.2	239.25
Veteranella	207.95	239.25
Xiaoshuiculana	203.35	215.25
Ryderia	176.2	203.35
Nucula	172.2	239.25
Nuculoma	172.2	232
Palaeonucula	172.2	239.25
Trigonucula	203.35	239.25
Rollieria	172.2	200.1
Aguilerella	172.2	203.35
Bakevellia	172.2	239.25
Costigervillia	172.2	180.5
Cuneigervillia	172.2	201.3
Gervillancea	207.95	232
Gervillaria	172.2	239.25
Gervillella	172.2	215.25
Gervillia	172.2	239.25
Hoernesia	203.35	239.25
Kedonella	176.2	180.5
Kobayashites	172.2	180.5
Cassianella	203.35	239.25
Exogyra	172.2	201.3
Gryphaea	172.2	232
Liostrea	172.2	239.25
Nanogyra	172.2	199.3
Aparimella	226.5	239.25
Daonella	226.5	239.25
Halobia	203.35	239.25
Taimyrolobia	226.5	232
Eligmus	172.2	172.2
Gervilleioperna	172.2	199.3
Isognomon	172.2	232
Lithiotis	187.55	199.3
Mytiloperna	172.2	201.3
Waagenoperna	207.95	239.25
Actinostreon	172.2	232
Lopha	172.2	239.25
Umbrostrea	203.35	239.25
Krumbeckiella	203.35	226.5
Manticula	172.2	226.5
Oretia	207.95	226.5
Atrina	172.2	239.25
Pinna	172.2	239.25
Trichites	172.2	215.25
Amonotis	207.95	232
Bositra	172.2	239.25
Posidonotis	176.2	199.3
Arcavicula	203.35	239.25
Avicularea	203.35	239.25
Pseudaucella	176.2	190.8
Pteria	172.2	239.25
Rhaetavicula	203.35	203.35
Pulvinites	172.2	190.8
Heligmus	172.2	172.2
Enantiostreon	239.25	239.25
Harpax	176.2	215.25
Cercomya	172.2	232
Laternula	172.2	239.25
Platymyoidea	172.2	215.25
Anomia	172.2	239.25
Placunopsis	172.2	239.25
Neopecten	207.95	215.25
Primahinnites	203.35	215.25
Anningella	195.3	201.3
Etalia	239.25	239.25
Atreta	172.2	239.25
Protostrea	239.25	239.25
Cingentolium	172.2	172.2
Entolioides	207.95	239.25
Entolium	172.2	239.25
Somapecten	172.2	180.5
Filopecten	203.35	239.25
Kolymonectes	180.5	215.25
Eumorphotis	187.55	239.25
Leptochondria	207.95	239.25
Palaeolima	239.25	239.25
Monotis	203.35	215.25
Otapiria	172.2	239.25
Weyla	176.2	201.3
Arctotis	172.2	199.3
Jianchuania	203.35	215.25
Meleagrinella	172.2	239.25
Oxytoma	172.2	239.25
Aequipecten	172.2	239.25
Agerchlamys	176.2	232
Amusium	172.2	239.25
Camptonectes	172.2	239.25
Chlamys	172.2	239.25
Eopecten	172.2	239.25
Hinnites	172.2	232
Hunanonectes	200.1	239.25
Indopecten	203.35	232
Loxochlamys	239.25	239.25
Lyriochlamys	172.2	215.25
Nevadapecten	239.25	239.25
Ochotochlamys	176.2	239.25
Pleuronectites	207.95	239.25
Praechlamys	239.25	239.25
Pseudentolium	172.2	190.8
Pseudopecten	172.2	201.3
Radulonectites	187.55	201.3
Spondylopecten	172.2	180.5
Tosapecten	203.35	232
Plicatula	172.2	239.25
Pseudoplacunopsis	203.35	239.25
Parvamussium	172.2	239.25
Propeamussium	172.2	172.2
Newaagia	203.35	239.25
Persia	201.3	215.25
Pseudomonotis	172.2	239.25
Ceratomya	172.2	195.3
Gresslya	172.2	239.25
Makoiamya	203.35	215.25
Myopholas	172.2	180.5
Pteromya	201.3	203.35
Antiquicorbula	203.35	215.25
Corbulomima	172.2	180.5
Pleuromya	172.2	239.25
Ochotomya	203.35	215.25
Ouamouia	203.35	226.5
Somareoides	226.5	232
Weixiella	203.35	215.25
Arcomya	172.2	239.25
Goniomya	172.2	215.25
Homomya	172.2	239.25
Osteomya	172.2	199.3
Pachymya	172.2	239.25
Pholadomya	172.2	203.35
Anomalopleuroides	203.35	232
Girardotia	172.2	180.5
Cuspidaria	172.2	239.25
Magnolobia	239.25	239.25
Terquemia	172.2	239.25
Antijanira	232	239.25
Bittneria	203.35	232
Cochlearites	187.55	190.8
Crenamussium	207.95	232
Hokonuia	207.95	232
Langsonella	203.35	239.25
Lithioperna	187.55	187.55
Mytiloceramus	172.2	201.3
Ornithopecten	207.95	239.25
Pergamidia	207.95	232
Septihoernesia	207.95	239.25
Songdaella	203.35	239.25
Stefaninia	239.25	239.25
Mesoneilo	203.35	215.25
Nucinella	172.2	201.3
Burmesia	200.1	232
Thracia	172.2	215.25
Groeberella	172.2	199.3
Frenguelliella	172.2	232
Jaworskiella	176.2	201.3
Quadratojaworskiella	172.2	201.3
Myophorella	172.2	190.8
Scaphorella	172.2	239.25
Vaugonia	172.2	201.3
Caledogonia	215.25	226.5
Costatoria	203.35	239.25
Elegantinia	203.35	239.25
Gruenewaldia	203.35	232
Heminajas	226.5	239.25
Liotrigonia	187.55	239.25
Myophoria	203.35	239.25
Neoschizodus	203.35	239.25
Agonisca	239.25	239.25
Praegonia	239.25	239.25
Prosogyrotrigonia	195.3	232
Schizodus	203.35	239.25
Geratrigonia	176.2	201.3
Guineana	203.35	232
Kyushutrigonia	207.95	232
Maoritrigonia	203.35	232
Minetrigonia	203.35	232
Modesticoncha	203.35	215.25
Myophorigonia	203.35	232
Neuquenitrigonia	172.2	180.5
Trigonia	172.2	239.25
Anodontophora	207.95	239.25
Cardinioides	187.55	239.25
Janaija	239.25	239.25
Unionites	203.35	239.25
Atalantia	226.5	226.5
Erugonia	203.35	207.95
Prorotrigonia	207.95	232
Trigonodus	207.95	239.25
Pachycardia	226.5	239.25
Anisocardia	172.2	199.3
Coelocyprina	172.2	190.8
Isocyprina	172.2	207.95
Plesiocyprina	172.2	203.35
Pronoella	172.2	190.8
Pseudotrapezium	172.2	201.3
Rollierella	172.2	180.5
Pullastra	203.35	203.35
Solenomorpha	226.5	239.25
Laubeia	226.5	232
Taeniodon	200.1	203.35
Amaltheus	187.55	187.55
Amauroceras	187.55	187.55
Pleuroceras	187.55	187.55
Aegasteroceras	195.3	195.3
Agassiceras	199.3	199.3
Alsatites	200.1	200.1
Arctoasteroceras	195.3	199.3
Arnioceras	195.3	199.3
Asteroceras	195.3	195.3
Bagnolites	195.3	199.3
Caenisites	199.3	199.3
Coroniceras	199.3	199.3
Eparietites	195.3	199.3
Epophioceras	195.3	199.3
Euagassiceras	199.3	199.3
Guexiceras	195.3	199.3
Hypasteroceras	195.3	199.3
Metophioceras	195.3	199.3
Parasteroceras	187.55	199.3
Pseudaetomoceras	200.1	201.3
Tipperoceras	195.3	199.3
Tmaegoceras	199.3	199.3
Vermiceras	199.3	200.1
Clydoniceras	172.2	172.2
Apoderoceras	190.8	190.8
Bakonyceras	187.55	199.3
Coeloceras	190.8	199.3
Miltoceras	187.55	199.3
Pseudoskirroceras	187.55	190.8
Tetraspidoceras	190.8	195.3
Zamaiceras	187.55	190.8
Cymbites	187.55	199.3
Hyerifalchia	195.3	199.3
Aveyroniceras	187.55	190.8
Bettoniceras	187.55	190.8
Catacoeloceras	176.2	180.5
Cetonoceras	187.55	190.8
Collina	176.2	180.5
Dactylioceras	180.5	187.55
Mesodactylites	176.2	180.5
Nodicoeloceras	180.5	180.5
Peronoceras	180.5	180.5
Porpoceras	180.5	180.5
Prodactylioceras	187.55	190.8
Reynesoceras	187.55	190.8
Reynesocoeloceras	187.55	187.55
Zugodactylites	180.5	180.5
Echioceras	195.3	195.3
Gagaticeras	195.3	195.3
Leptechioceras	195.3	195.3
Palaeoechioceras	195.3	199.3
Paltechioceras	195.3	195.3
Plesechioceras	195.3	199.3
Appenninoceras	195.3	199.3
Bifericeras	195.3	195.3
Callomoniceras	195.3	199.3
Crucilobiceras	195.3	195.3
Dubariceras	187.55	199.3
Eoamaltheus	187.55	199.3
Eoderoceras	187.55	195.3
Eteoderoceras	187.55	190.8
Fanninoceras	180.5	190.8
Hyperderoceras	190.8	190.8
Metaderoceras	190.8	190.8
Microderoceras	195.3	199.3
Paramicroderoceras	187.55	199.3
Promicroceras	195.3	199.3
Xipheroceras	195.3	195.3
Brasilia	172.2	172.2
Canavarella	172.2	172.2
Cylicoceras	172.2	172.2
Graphoceras	172.2	172.2
Hyperlioceras	172.2	172.2
Leioceras	172.2	176.2
Ludwigia	172.2	172.2
Staufenia	172.2	172.2
Abbasites	172.2	180.5
Abbasitoides	172.2	172.2
Accardia	172.2	172.2
Bredyia	172.2	180.5
Cagliceras	172.2	180.5
Crestaites	176.2	180.5
Csernyeiceras	172.2	172.2
Erycites	172.2	176.2
Erycitoides	172.2	172.2
Euaptetoceras	172.2	176.2
Eudmetoceras	172.2	172.2
Hammatoceras	172.2	176.2
Haplopleuroceras	172.2	172.2
Malladaites	172.2	176.2
Onychoceras	176.2	176.2
Planammatoceras	172.2	176.2
Pseudaptetoceras	172.2	172.2
Puchenquia	172.2	172.2
Sphaerocoeloceras	172.2	176.2
Spinammatoceras	172.2	172.2
Zurcheria	172.2	172.2
Arieticeras	172.2	187.55
Bouleiceras	176.2	180.5
Canavaria	176.2	187.55
Catulloceras	172.2	176.2
Cingolites	176.2	180.5
Cleviceras	176.2	180.5
Cotteswoldia	172.2	172.2
Dumortieria	176.2	176.2
Eleganticeras	180.5	180.5
Emaciaticeras	187.55	187.55
Fontanelliceras	180.5	187.55
Frechiella	180.5	180.5
Fuciniceras	180.5	190.8
Grammoceras	172.2	176.2
Gruneria	176.2	180.5
Harpoceras	172.2	180.5
Hildaites	180.5	180.5
Hildoceras	172.2	180.5
Hudlestonia	176.2	176.2
Jacobella	176.2	180.5
Kohaticeras	176.2	180.5
Leptaleoceras	187.55	187.55
Leukadiella	180.5	180.5
Lioceratoides	187.55	187.55
Mauretaniaceras	187.55	190.8
Mercaticeras	180.5	180.5
Nejdia	176.2	176.2
Orthildaites	180.5	180.5
Osperleioceras	176.2	180.5
Ovaticeras	180.5	180.5
Parahildaites	180.5	180.5
Paroniceras	176.2	180.5
Phlyseogrammoceras	176.2	176.2
Pleydellia	172.2	176.2
Podagrosites	176.2	180.5
Polyplectus	176.2	180.5
Protogrammoceras	180.5	190.8
Pseudogrammoceras	176.2	176.2
Pseudolillia	176.2	176.2
Pseudolioceras	172.2	180.5
Shakraceras	176.2	180.5
Taffertia	180.5	180.5
Tauromeniceras	187.55	190.8
Tiltoniceras	180.5	187.55
Tmetoceras	172.2	176.2
Troitsaia	172.2	172.2
Yakounia	176.2	176.2
Kepplerites	172.2	172.2
Aegoceras	190.8	190.8
Androgynoceras	190.8	190.8
Liparoceras	187.55	190.8
Vicininodiceras	190.8	195.3
Adnethiceras	195.3	199.3
Alocolytoceras	172.2	190.8
Analytoceras	201.3	201.3
Baltzerites	187.55	190.8
Bouhamidoceras	195.3	199.3
Castanyiceras	187.55	190.8
Ectocentrites	195.3	200.1
Eolytoceras	200.1	201.3
Exomiloceras	195.3	199.3
Galaticeras	187.55	199.3
Holcolytoceras	176.2	190.8
Kericserites	195.3	199.3
Lobolytoceras	176.2	180.5
Lytoceras	172.2	195.3
Lytotropites	195.3	199.3
Pachylytoceras	172.2	176.2
Pleuroacanthites	200.1	201.3
Pleurolytoceras	176.2	180.5
Tragolytoceras	199.3	199.3
Zaghouanites	187.55	190.8
Indocephalites	172.2	172.2
Bradfordia	172.2	172.2
Rollieria2	176.2	190.8
Docidoceras	172.2	172.2
Cheltonia	195.3	195.3
Gleviceras	190.8	195.3
Oxynoticeras	190.8	195.3
Oxynoticeroides	195.3	199.3
Paracymbites	195.3	195.3
Paroxynoticeras	195.3	195.3
Radstockiceras	190.8	195.3
Capreoliceras	187.55	190.8
Foetterleiceras	187.55	190.8
Phricodoceras	187.55	195.3
Pseuduptonia	190.8	195.3
Villania	172.2	190.8
Brodieia	176.2	176.2
Crassiceras	176.2	176.2
Esericeras	176.2	176.2
Furloceras	176.2	180.5
Haugia	172.2	176.2
Haugiella	176.2	180.5
Phymatoceras	172.2	180.5
Pseudomercaticeras	176.2	176.2
Acanthopleuroceras	190.8	199.3
Catriceras	187.55	190.8
Dayiceras	190.8	190.8
Gemmellaroceras	190.8	195.3
Jamesonites	187.55	190.8
Paratropidoceras	187.55	190.8
Parinodiceras	190.8	190.8
Platypleuroceras	190.8	190.8
Polymorphites	190.8	190.8
Tropidoceras	190.8	195.3
Uptonia	190.8	190.8
Badouxia	195.3	201.3
Caloceras	200.1	201.3
Discamphiceras	200.1	201.3
Euphyllites	200.1	201.3
Franziceras	200.1	201.3
Kammerkaroceras	200.1	200.1
Mullerites	200.1	201.3
Neophyllites	200.1	201.3
Paradiscamphiceras	200.1	201.3
Psiloceras	201.3	201.3
Psilophyllites	200.1	203.35
Sunrisites	200.1	201.3
Angulaticeras	195.3	201.3
Kammerkarites	200.1	201.3
Macrogrammites	200.1	201.3
Saxoceras	200.1	200.1
Schlotheimia	199.3	200.1
Waehneroceras	200.1	200.1
Sinuiceras	187.55	190.8
Sphenoacanthites	187.55	190.8
Asthenoceras	172.2	172.2
Fontannesia	172.2	172.2
Sonninia	172.2	172.2
Chondroceras	172.2	172.2
Iniskinites	172.2	172.2
Lilloettia	172.2	172.2
Sphaeroceras	172.2	172.2
Xenocephalites	172.2	172.2
Cadomites	172.2	172.2
Bullatimorphites	172.2	172.2
Dudresnayiceras	195.3	199.3
Oxyarietites	195.3	199.3
Riccardiceras	176.2	180.5
Asteroconites	207.95	215.25
Aulacoceras	207.95	239.25
Dictyoconites	207.95	232
Atractites	176.2	232
Calliconites	207.95	239.25
Dillerites	226.5	232
Cylindroteuthis	172.2	199.3
Prototeuthis	187.55	190.8
Belemnopsis	172.2	176.2
Bairstowius	187.55	190.8
Hastites	172.2	190.8
Pleurobelus	187.55	187.55
Rhabdobelus	172.2	176.2
Subhastites	187.55	190.8
Acrocoelites	172.2	180.5
Cuspiteuthis	176.2	180.5
Dactyloteuthis	176.2	199.3
Nipponoteuthis	195.3	199.3
Angeloteuthis	187.55	190.8
Clastoteuthis	187.55	190.8
Parapassaloteuthis	180.5	187.55
Passaloteuthis	180.5	187.55
Pseudohastites	180.5	190.8
Schwegleria	200.1	201.3
Salpingoteuthis	172.2	180.5
Belemnites	172.2	201.3
Brachybelus	172.2	199.3
Brevibelus	172.2	176.2
Chondroteuthis	180.5	180.5
Conodicoelites	172.2	190.8
Hibolites	172.2	172.2
Holcobelus	172.2	172.2
Homaloteuthis	172.2	172.2
Mesoteuthis	172.2	180.5
Nannobelus	176.2	200.1
Simpsonibelus	176.2	180.5
Sinobelemnites	226.5	232
Adygeites	203.35	203.35
Apleuroceras	232	239.25
Aplococeras	239.25	239.25
Epiceratites	226.5	226.5
Arcestes	203.35	239.25
Proarcestes	203.35	239.25
Stenarcestes	203.35	212.875
Klipsteinia	232	232
Badiotites	232	232
Arctogymnites	239.25	239.25
Pleurofrechites	239.25	239.25
Tuchodiceras	239.25	239.25
Carnites	226.5	232
Alkaites	239.25	239.25
Bugunzhites	239.25	239.25
Ceratites	232	239.25
Chieseiceras	239.25	239.25
Detoniceras	239.25	239.25
Halilucites	239.25	239.25
Kellnerites	239.25	239.25
Latemarites	239.25	239.25
Nevadites	239.25	239.25
Paraceratites	239.25	239.25
Parakellnerites	239.25	239.25
Reitziites	239.25	239.25
Rossiceras	226.5	232
Stoppaniceras	239.25	239.25
Xenoprotrachyceras	239.25	239.25
Yangites	239.25	239.25
Choristoceras	203.35	207.95
Vandaites	203.35	203.35
Cladiscites	203.35	239.25
Hypocladiscites	207.95	232
Paracladiscites	203.35	232
Sphaerocladiscites	232	239.25
Clionitites	215.25	239.25
Leconteia	226.5	232
Clydonites	212.875	212.875
Cochloceras	207.95	207.95
Paracochloceras	203.35	203.35
Cycloceltites	203.35	207.95
Neotenoceras	226.5	232
Ophiorhabdoceras	207.95	215.25
Orthoceltites	232	239.25
Ticinites	239.25	239.25
Didymites	212.875	212.875
Neodidymites	207.95	215.25
Distichites	212.875	212.875
Ectolcites	212.875	212.875
Leiodistichites	207.95	215.25
Paradistichites	212.875	212.875
Pleurodistichites	212.875	212.875
Trachypleuraspidites	212.875	212.875
Dronovites	207.95	215.25
Eosagenites	226.5	239.25
Episculites	212.875	212.875
Hypisculites	212.875	212.875
Parisculites	207.95	232
Anagymnites	239.25	239.25
Epigymnites	239.25	239.25
Gymnites	232	239.25
Paragymnites	207.95	215.25
Phyllytoceras	203.35	232
Protoplatytes	203.35	207.95
Amarassites	212.875	212.875
Anatomites	215.25	215.25
Barrandeites	226.5	239.25
Catenohalorites	207.95	215.25
Eusagenites	226.5	226.5
Gnomohalorites	207.95	207.95
Halorites	207.95	212.875
Hyattites	207.95	207.95
Miltites	215.25	215.25
Paraguembelites	207.95	207.95
Parajuvavites	212.875	212.875
Ptycharcestes	207.95	232
Sagenites	203.35	212.875
Trachysagenites	226.5	226.5
Tropihalorites	207.95	215.25
Tropijuvavites	226.5	232
Heraclites	212.875	212.875
Wangoceras	207.95	207.95
Hungarites	239.25	239.25
Joannites	215.25	239.25
Romanites	232	239.25
Bacchites	226.5	226.5
Dimorphites	207.95	207.95
Discomalayites	207.95	215.25
Dryojuvavites	207.95	215.25
Epijuvavites	207.95	215.25
Goniojuvavites	226.5	232
Gonionotites	215.25	226.5
Griesbachites	215.25	226.5
Guembelites	207.95	207.95
Indojuvavites	207.95	207.95
Juvavites	215.25	215.25
Malayites	215.25	215.25
Margarijuvavites	226.5	232
Omojuvavites	207.95	215.25
Projuvavites	226.5	226.5
Pseudocardioceras	215.25	215.25
Dieneria	226.5	226.5
Klamathites	226.5	226.5
Parahauerites	226.5	226.5
Lecanites	232	239.25
Coroceras	232	232
Lobites	232	239.25
Paralobites	232	232
Intornites	239.25	239.25
Longobardites	239.25	239.25
Megaphyllites	203.35	239.25
Nitanoceras	239.25	239.25
Gabboceras	203.35	203.35
Lissonites	207.95	207.95
Metasibirites	203.35	232
Tozeria	203.35	203.35
Eonathorstites	239.25	239.25
Indigirites	239.25	239.25
Nathorstites	232	239.25
Stolleyites	232	239.25
Tsvetkovites	239.25	239.25
Nairites	212.875	212.875
Noridiscites	212.875	212.875
Norites	239.25	239.25
Parathisbites	212.875	212.875
Phormedites	212.875	212.875
Eupinacoceras	207.95	215.25
Pinacoceras	203.35	232
Nevadisculites	239.25	239.25
Arctoptychites	239.25	239.25
Aristoptychites	239.25	239.25
Flexoptychites	239.25	239.25
Istreites	239.25	239.25
Ptychites	239.25	239.25
Peripleurites	207.95	207.95
Rhabdoceras	203.35	207.95
Rimkinites	239.25	239.25
Sageceras	232	239.25
Eremites	226.5	226.5
Sandlingites	226.5	226.5
Shastites	226.5	232
Traskites	226.5	226.5
Sphingites	232	239.25
Alloclionites	212.875	212.875
Bihatites	207.95	215.25
Brouwerites	212.875	212.875
Eosteinmannites	207.95	215.25
Metaclionites	207.95	215.25
Nannosteinmannites	207.95	215.25
Steinmannites	207.95	212.875
Discoptychites	239.25	239.25
Parasturia	239.25	239.25
Sturia	232	239.25
Drumoceras	239.25	239.25
Thanamites	239.25	239.25
Acanthothetidites	207.95	215.25
Eothetidites	207.95	215.25
Helictites	212.875	212.875
Idaoceras	207.95	215.25
Leislingites	207.95	212.875
Nassichukites	207.95	207.95
Parathetidites	212.875	212.875
Pseudothetidites	212.875	212.875
Thetidites	212.875	212.875
Hadrothisbites	226.5	232
Metathisbites	207.95	215.25
Mojsisovicsites	215.25	215.25
Stikinoceras	215.25	215.25
Thisbites	226.5	226.5
Tropithisbites	226.5	232
Acanthinites	212.875	215.25
Acanthodrepanites	207.95	215.25
Ammotibetites	207.95	215.25
Anatibetites	212.875	212.875
Carinacanthites	207.95	215.25
Cyrtopleurites	212.875	212.875
Dimorphotoceras	215.25	215.25
Dionites	207.95	207.95
Drepanites	212.875	212.875
Gandakites	207.95	215.25
Hauerites	212.875	212.875
Himavatites	212.875	239.25
Lanpingoceras	207.95	215.25
Lipuites	215.25	215.25
Mesohimavatites	207.95	215.25
Metacarnites	212.875	215.25
Neohimavatites	212.875	212.875
Neotibetites	207.95	212.875
Nodotibetites	215.25	215.25
Oxytibetites	207.95	215.25
Palicites	215.25	215.25
Paratibetites	207.95	215.25
Prodrepanites	207.95	215.25
Sirenotibetites	207.95	215.25
Thiniites	207.95	215.25
Tibetites	212.875	212.875
Xenodrepanites	207.95	232
Anasirenites	226.5	232
Anolcites	239.25	239.25
Arctoarpadites	226.5	232
Arctosirenites	226.5	226.5
Argolites	239.25	239.25
Argosirenites	212.875	212.875
Arpadites	232	239.25
Asklepioceras	232	239.25
Austrotrachyceras	226.5	232
Boreotrachyceras	226.5	232
Brotheotrachyceras	226.5	232
Daxatina	232	239.25
Dittmarites	232	232
Eoprotrachyceras	239.25	239.25
Frankites	232	239.25
Hannaoceras	226.5	226.5
Haoceras	239.25	239.25
Hisnitites	226.5	232
Liardites	239.25	239.25
Maclearnoceras	239.25	239.25
Meginoceras	239.25	239.25
Muensterites	232	239.25
Neoprotrachyceras	226.5	232
Neosirenites	226.5	232
Norosirenites	215.25	226.5
Okhototrachyceras	226.5	232
Pamphagosirenites	226.5	226.5
Paratrachyceras	226.5	239.25
Protrachyceras	232	239.25
Pseudosirenites	207.95	212.875
Pterosirenites	215.25	215.25
Seimkanites	226.5	232
Silenticeras	232	239.25
Sinomeginoceras	239.25	239.25
Sirenites	232	232
Sirenotrachyceras	232	239.25
Spirogmoceras	226.5	226.5
Striatosirenites	232	239.25
Sympolycyclus	232	239.25
Trachyceras	226.5	239.25
Trachystenoceras	226.5	226.5
Yakutosirenites	226.5	232
Zestoceras	226.5	239.25
Discostyrites	207.95	215.25
Styrites	215.25	215.25
Tardeceras	226.5	226.5
Tornquistites	226.5	226.5
Tropiceltites	207.95	207.95
Acanthotropites	226.5	232
Anatropites	226.5	232
Arctotropites	226.5	232
Arietoceltites	207.95	226.5
Discotropites	207.95	226.5
Euisculites	215.25	226.5
Gymnotropites	226.5	226.5
Homerites	226.5	226.5
Hoplotropites	226.5	226.5
Indonesites	226.5	226.5
Jovites	226.5	226.5
Margarites	226.5	232
Margaritropites	226.5	226.5
Microtropites	226.5	226.5
Paratropites	226.5	226.5
Pleurotropites	226.5	232
Sibyllites	232	239.25
Tropites	226.5	226.5
Paraganides	226.5	226.5
Loligosepia	180.5	203.35
Cenoceras	172.2	239.25
Digonioceras	172.2	199.3
Ophionautilus	172.2	176.2
Clydonautilus	207.95	239.25
Cosmonautilus	212.875	232
Proclydonautilus	203.35	239.25
Styrionautilus	207.95	239.25
Gonionautilus	207.95	207.95
Grypoceras	207.95	239.25
Gryponautilus	207.95	239.25
Paranautilus	207.95	239.25
Perunautilus	207.95	215.25
Belmonticeras	172.2	180.5
Ligeiceras	172.2	199.3
Pseudaganides	172.2	199.3
Siberionautilus	207.95	215.25
Clymenonautilus	207.95	232
Juvavionautilus	207.95	232
Oxynautilus	207.95	215.25
Syringoceras	207.95	239.25
Syringonautilus	232	239.25
Encoiloceras	207.95	226.5
Enoploceras	207.95	239.25
Germanonautilus	203.35	239.25
Grumantoceras	226.5	232
Holconautilus	207.95	239.25
Mojsvaroceras	207.95	239.25
Phloioceras	207.95	239.25
Pleuronautilus	207.95	239.25
Sibyllonautilus	203.35	239.25
Yakutionautilus	212.875	212.875
Michelinoceras	207.95	239.25
Orthoceras	207.95	239.25
Trematoceras	203.35	239.25
Belemnoteuthis	187.55	190.8
Discophyllites	215.25	232
Rhacophyllites	203.35	232
Tragorhacoceras	207.95	215.25
Fergusonites	200.1	201.3
Juraphyllites	180.5	199.3
Nevadaphyllites	195.3	201.3
Paradasyceras	195.3	201.3
Togaticeras	195.3	201.3
Tragophylloceras	190.8	190.8
Adabofoloceras	172.2	172.2
Calaiceras	187.55	187.55
Calliphylloceras	172.2	201.3
Hantkeniceras	187.55	187.55
Holcophylloceras	172.2	190.8
Partschiceras	172.2	195.3
Phylloceras	172.2	232
Ptychophylloceras	172.2	176.2
Zetoceras	172.2	199.3
Eopsiloceras	207.95	207.95
Indigirophyllites	226.5	239.25
Metatirolites	226.5	239.25
Mojsvarites	203.35	232
Monophyllites	215.25	239.25
Palaeophyllites	239.25	239.25
Simonyceras	226.5	239.25
Ussurites	239.25	239.25
Wopfingites	207.95	207.95
Arctophyllites	226.5	232
Kolymophylloceras	200.1	201.3
Platyphylloceras	176.2	201.3
Schistophylloceras	195.3	201.3
Yukagirites	187.55	199.3
Lioteuthis	180.5	180.5
Celtites	226.5	232
Kasimlarceltites	226.5	232
Homeroceras	226.5	232
Ausseites	187.55	232
Odoghertyceras	200.1	201.3
Osperlioceras	176.2	180.5
Palaeocomaster	172.2	201.3
Bilecicrinus	190.8	195.3
Capsicocrinus	190.8	190.8
Cotylederma	180.5	195.3
Dinardocrinus	176.2	180.5
Eudesicrinus	172.2	190.8
Eugeniacrinites	172.2	190.8
Gutticrinus	187.55	187.55
Paraeotylederma	176.2	180.5
Plicatocrinus	172.2	190.8
Quenstedticrinus	187.55	195.3
Sacariaerinus	176.2	195.3
Tetracrinus	172.2	195.3
Cassianocrinus	226.5	232
Chelocrinus	232	239.25
Encrinus	203.35	239.25
Zardinicrinus	226.5	232
Ainigmacrinus	232	239.25
Traumatocrinus	232	239.25
Vostocovacrinus	232	232
Eocomatula	187.55	215.25
Holocrinus	232	239.25
Bakonycrinus	207.95	232
Balanocrinus	172.2	239.25
Chariocrinus	172.2	180.5
Chladocrinus	172.2	232
Isocrinus	172.2	239.25
Tyrolecrinus	172.2	239.25
Cenocrinus	172.2	190.8
Paracomatula	172.2	207.95
Pentacrinites	172.2	239.25
Seirocrinus	172.2	215.25
Tulipacrinus	203.35	232
Hispidocrinus	172.2	195.3
Laevigatocrinus	232	239.25
Margocrinus	172.2	172.2
Procomaster	176.2	180.5
Singularocrinus	215.25	215.25
Terocrinus	172.2	215.25
Tollmannicrinus	239.25	239.25
Amaltheocrinus	180.5	199.3
Shroshaecrinus	176.2	195.3
Praetetracrinus	172.2	180.5
Dadocrinus	239.25	239.25
Millericrinus	172.2	199.3
Neodadocrinus	187.55	195.3
Pomatocrinus	172.2	201.3
Souticrinus	195.3	195.3
Somphocrinus	226.5	226.5
Axicrinus	226.5	239.25
Ossicrinus	232	239.25
Osteocrinus	203.35	239.25
Poculicrinus	226.5	232
Lanternocrinus	203.35	215.25
Lotocrinus	203.35	203.35
Nasutocrinus	207.95	212.875
Leocrinus	203.35	215.25
Acariaeocrinus	195.3	199.3
Bihaticrinus	207.95	215.25
Nodolanx	226.5	239.25
Annaecoelia	203.35	232
Russospongia	203.35	215.25
Tolminothalamia	226.5	239.25
Vesicocaulis	207.95	239.25
Yukonella	207.95	215.25
Astrosclera	172.2	215.25
Aliabadia	207.95	215.25
Anguispongia	207.95	215.25
Cavusonella	215.25	239.25
Molengraaffia	203.35	232
Hartmanina	232	239.25
Colospongia	203.35	239.25
Hajarispongia	207.95	215.25
Kashanella	207.95	232
Parauvanella	203.35	239.25
Platythalamiella	203.35	239.25
Antalythalamia	207.95	215.25
Cryptocoelia	203.35	239.25
Sphaerothalamia	207.95	215.25
Enoplocoelia	215.25	239.25
Girtycoelia	215.25	239.25
Henricellum	207.95	239.25
Phraethalamia	207.95	239.25
Polyedra	203.35	239.25
Sollasia	215.25	239.25
Globucatenula	207.95	215.25
Cystothalamia	207.95	239.25
Diecithalamia	226.5	239.25
Delijania	207.95	215.25
Prosiphonella	226.5	232
Olangocoelia	239.25	239.25
Palermocoelia	203.35	215.25
Asiphothalamia	207.95	215.25
Parastylothalamia	207.95	215.25
Euepirrhysia	226.5	232
Grossotubenella	215.25	239.25
Leiospongia	232	239.25
Permocorynella	207.95	232
Precorynella	203.35	239.25
Preperonidella	203.35	239.25
Salzburgia	203.35	239.25
Amblysiphonella	203.35	239.25
Calabrisiphonella	207.95	215.25
Discosiphonella	207.95	239.25
Polycystocoelia	207.95	239.25
Himatella	226.5	232
Marawandia	207.95	215.25
Sestrostomella	172.2	239.25
Battaglia	207.95	215.25
Deningeria	207.95	239.25
Panormida	207.95	215.25
Paradeningeria	203.35	232
Sahraja	203.35	215.25
Senowbaridaryana	203.35	232
Seranella	203.35	232
Solenolmia	203.35	239.25
Welteria	203.35	226.5
Lutia	207.95	215.25
Prestellispongia	207.95	215.25
Vermispongiella	207.95	215.25
Musandamia	207.95	215.25
Naybandella	207.95	215.25
Pamirothalamia	207.95	215.25
Pamiroverticillites	207.95	215.25
Sphaeroverticillites	207.95	215.25
Thaumastocoelia	203.35	239.25
Madonia	207.95	215.25
Actinospongiella	203.35	203.35
Paelospongia	207.95	239.25
Atrochaetetes	207.95	232
Cassianochaetes	232	232
Ceratoporella	172.2	239.25
Reticulocoelia	207.95	232
Cladocoropsis	172.2	199.3
Murania	172.2	215.25
Parastromatopora	172.2	215.25
Neuropora	172.2	201.3
Actinofungia	226.5	226.5
Circopora	203.35	239.25
Cylicoopsis	172.2	215.25
Ellipsactinia	172.2	215.25
Lamellata	203.35	232
Lithopora	172.2	215.25
Pamirostroma	207.95	215.25
Pantokratoria	226.5	239.25
Stromatoporellata	203.35	232
Stromatoporina	172.2	232
Stromatostroma	203.35	232
Zlambachella	203.35	203.35
Aka	232	232
Cassianothalamia	215.25	232
Alpinothalamia	207.95	239.25
Celyphia	207.95	239.25
Follicatena	203.35	239.25
Jablonskyia	226.5	239.25
Leinia	226.5	239.25
Paravesicocaulis	203.35	239.25
Pseudouvanella	207.95	215.25
Uvanella	203.35	239.25
Ceotinella	226.5	239.25
Zardinia	226.5	239.25
Cassianostroma	207.95	232
Hispidopetra	172.2	232
Petrosistroma	232	232
Costamorpha	203.35	215.25
Hymedesmia	232	232
Bauneia	172.2	215.25
Blastochaetetes	172.2	226.5
Chaetetes	187.55	239.25
Pseudoseptifer	172.2	215.25
Ptychochaetetes	172.2	212.875
Keriocoelia	207.95	232
Meandripetra	226.5	232
Pamirochaetetes	226.5	226.5
Precaratoporella	203.35	239.25
Pseudochaetetes	172.2	212.875
Sclerocoelia	226.5	232
Cheilosporites	203.35	215.25
Neoguadalupia	215.25	239.25
Cribrothalamia	203.35	215.25
Gigantothalamia	207.95	215.25
Zanklithalamia	203.35	215.25
Cinnabaria	207.95	226.5
Faniathalamia	203.35	226.5
Nevadathalamia	212.875	215.25
Polysiphospongia	203.35	215.25
Polytholosia	207.95	232
Stylothalamia	172.2	239.25
Verticillites	172.2	239.25
Platysphaerocoelia	207.95	215.25
Dactylites	176.2	239.25
Burgundia	172.2	232
Criccophorina	203.35	203.35
Radiocella	207.95	215.25
Tabasia	207.95	215.25
Lovcenipora	203.35	232
Verrucospongia	172.2	232
Eosalenia	172.2	190.8
Clypeus	172.2	172.2
Pygurus	172.2	172.2
Galeropygus	176.2	176.2
Nucleolites	172.2	172.2
Bothryopneustes	172.2	172.2
Balanocidaris	172.2	232
Cidaris	172.2	239.25
Paracidaris	172.2	239.25
Rhabdocidaris	172.2	239.25
Triassicidaris	203.35	232
Diadema	172.2	201.3
Eodiadema	176.2	200.1
Mesodiadema	176.2	239.25
Diplocidaris	172.2	187.55
Polycidaris	172.2	232
Anaulocidaris	226.5	239.25
Dicyclocidaris	226.5	232
Miocidaris	187.55	239.25
Pachycidaris	172.2	187.55
Procidaris	172.2	239.25
Serpianotiaris	239.25	239.25
Levicidaris	203.35	239.25
Megaporocidaris	226.5	239.25
Mikrocidaris	226.5	239.25
Parvicidaris	203.35	215.25
Triadocidaris	203.35	239.25
Vinchuscanchaia	195.3	215.25
Zardinechinus	195.3	239.25
Triadotiaris	226.5	239.25
Leurocidaris	226.5	239.25
Paurocidaris	226.5	239.25
Engelia	176.2	201.3
Gymnocidaris	172.2	172.2
Hemicidaris	172.2	187.55
Hessotiara	172.2	200.1
Plesiocidaris	172.2	201.3
Pseudocidaris	172.2	199.3
Sphaerotiaris	172.2	187.55
Diplopodia	172.2	201.3
Hypodiadema	172.2	190.8
Microdiadema	187.55	190.8
Polydiadema	172.2	187.55
Pseudodiadema	172.2	203.35
Trochotiara	172.2	190.8
Holectypus	172.2	190.8
Dubarechinus	187.55	187.55
Diademopsis	172.2	215.25
Hemipedina	172.2	226.5
Palaeopedina	172.2	201.3
Pedina	172.2	199.3
Pseudopedina	172.2	187.55
Jacquiertia	176.2	180.5
Leptechinus	172.2	190.8
Micropsis	172.2	180.5
Leioechinus	172.2	172.2
Tiarechinus	226.5	239.25
Atlasaster	199.3	199.3
Plesiechinus	172.2	199.3
Pygaster	172.2	187.55
Acrosalenia	172.2	180.5
Recrosalenia	172.2	172.2
Diplechinus	172.2	187.55
Echinotiara	172.2	180.5
Jeannetia	172.2	201.3
Polycyphus	172.2	172.2
Psephechinus	172.2	180.5
Parastomechinus	172.2	172.2
Pygomalus	172.2	199.3
Heterocidaris	172.2	187.55
Crinocidaris	203.35	239.25
Loriolella	187.55	187.55
Radiolus	203.35	239.25
Anoptychia	195.3	239.25
Cassianebala	232	239.25
Loxebala	226.5	232
Schafbergia	187.55	190.8
Jurilda	172.2	172.2
Promathildia	172.2	239.25
Siphonilda	207.95	215.25
Tangarilda	200.1	201.3
Tricarilda	172.2	199.3
Camponaxis	203.35	239.25
Conusella	187.55	190.8
Cristalloella	232	239.25
Graphis	172.2	180.5
Neodonaldina	187.55	239.25
Schartia	226.5	232
Tofanella	226.5	232
Usedomella	172.2	190.8
Trachoecus	226.5	232
Stuoraxis	172.2	239.25
Ampezzalina	207.95	215.25
Amphitrochus	172.2	215.25
Aristerella	187.55	199.3
Asterohelix	199.3	199.3
Blodgettella	207.95	215.25
Chartroniella	172.2	239.25
Cirsostylus	187.55	239.25
Cyclostomaria	172.2	190.8
Guizhouia	239.25	239.25
Kittlitrochus	239.25	239.25
Lyosoma	172.2	172.2
Mellarium	239.25	239.25
Nodoconus	207.95	215.25
Palaeocollonia	172.2	239.25
Paleunema	232	239.25
Praelittorina	207.95	232
Rinaldomphalus	232	239.25
Trachynerita	203.35	239.25
Urkutitoma	199.3	199.3
Ziziphinus	172.2	239.25
Ampullina	172.2	239.25
Tornatellaea	172.2	199.3
Parvulactaeon	172.2	172.2
Sulcoactaeon	172.2	172.2
Proceritella	195.3	199.3
Conactaeon	187.55	215.25
Cylindrobullina	172.2	239.25
Consobrinella	187.55	215.25
Costactaeon	172.2	180.5
Domerionina	226.5	232
Sinuarbullina	172.2	232
Striactaeonina	172.2	201.3
Collina2	176.2	239.25
Ceritella	172.2	199.3
Anomphalus	203.35	239.25
Ventricaria	172.2	232
Natiria	226.5	239.25
Woehrmannia	215.25	239.25
Euomphalus	207.95	239.25
Pentagonodiscus	172.2	195.3
Schizostoma	226.5	232
Coelocentrus	226.5	232
Maclurites	207.95	239.25
Dohmella	187.55	199.3
Platyceras	232	239.25
Pseudophorus	232	239.25
Triassocirrus	226.5	239.25
Turristylus	207.95	239.25
Ampezzamilda	232	239.25
Ampezzogyra	232	239.25
Carboninia	172.2	239.25
Spirocyclina	232	239.25
Angyomphalus	200.1	239.25
Dictyotomaria	232	239.25
Euzone	226.5	239.25
Glabrocingulum	207.95	239.25
Gosseletina	207.95	239.25
Luciellina	226.5	239.25
Eunema	232	239.25
Worthenia	187.55	239.25
Coronaria	226.5	232
Loxonema	207.95	239.25
Tyrsoecus	172.2	239.25
Murchisonia	232	239.25
Trypanocochlea	203.35	239.25
Pseudoscalites	203.35	239.25
Wortheniopsis	207.95	239.25
Polygyrina	203.35	239.25
Kokenella	207.95	239.25
Porcellia	226.5	239.25
Pseudoschizogonium	226.5	239.25
Macrochilina	226.5	232
Euthystylus	203.35	239.25
Orthostylus	226.5	232
Spirostylus	203.35	239.25
Guidonia	187.55	215.25
Bandelium	232	239.25
Rinaldoella	207.95	239.25
Wortheniella	207.95	239.25
Allocosmia	176.2	239.25
Allostrophia	207.95	239.25
Ampezzopleura	232	239.25
Andangularia	207.95	215.25
Azyga	226.5	232
Diatrypesis	172.2	215.25
Goniospira	207.95	239.25
Levipleura	176.2	199.3
Raha	226.5	239.25
Striazyga	226.5	232
Zygopleura	172.2	239.25
Tomocheilus	226.5	232
Pleurotoma	226.5	232
Hypsipleura	187.55	239.25
Cassianozyga	232	239.25
Cerithiocyga	232	239.25
Chilocyclus	172.2	239.25
Euchrysalis	172.2	239.25
Flemmingia	232	239.25
Kittlistylus	203.35	239.25
Lacunina	226.5	239.25
Pseudochrysalis	226.5	239.25
Pustulifer	203.35	239.25
Spirochrysalis	207.95	239.25
Telleria	172.2	239.25
Tretospira	200.1	239.25
Trypanostylus	203.35	239.25
Zardinistylus	232	239.25
Cortinella	232	239.25
Delphinulopsis	226.5	239.25
Hungariella	207.95	215.25
Marmolatella	226.5	239.25
Paradelphinulopsis	207.95	215.25
Platychilina	226.5	239.25
Schwardtopsis	207.95	232
Spinidelphinulopsis	207.95	215.25
Fedaiella	226.5	239.25
Cassianopsis	203.35	239.25
Colubrellopsis	226.5	239.25
Fossariopsis	232	239.25
Neritopsis	172.2	239.25
Nuetzelopsis	207.95	215.25
Weitschatopsis	207.95	215.25
Zardiniopsis	226.5	232
Palaeonarica	207.95	239.25
Pseudorthonychia	226.5	232
Ladinaticella	232	239.25
Lancedellopsis	232	239.25
Scalaneritina	226.5	232
Pachyomphalus	232	239.25
Pseudorhytidopilus	172.2	199.3
Scurriopsis	172.2	239.25
Scurria	172.2	239.25
Patella	172.2	239.25
Scalaria	226.5	239.25
Undularia	203.35	239.25
Cerithium	172.2	201.3
Cupaniella	187.55	190.8
Occidentocerithium	207.95	215.25
Cerithinella	172.2	215.25
Kosmopleura	195.3	201.3
Ladinula	207.95	239.25
Climacina	195.3	199.3
Cryptaulax	172.2	239.25
Paracerithium	172.2	239.25
Procerithium	172.2	239.25
Rhabdocolpus	172.2	215.25
Rhynchocerithium	172.2	215.25
Prostylifer	200.1	239.25
Ptychostoma	207.95	239.25
Siliquaria	172.2	239.25
Turritella	172.2	239.25
Vermicularia	207.95	239.25
Ampezzoscala	232	239.25
Camposcala	232	239.25
Acteonina	172.2	239.25
Colostracon	172.2	232
Amberleya	172.2	239.25
Dicroloma	172.2	201.3
Harpagodes	172.2	176.2
Pietteia	172.2	199.3
Toarctocera	172.2	180.5
Yunnania	207.95	239.25
Rinaldoconchus	232	239.25
Solarium	172.2	201.3
Angulataphrus	195.3	201.3
Ataphrus	172.2	199.3
Chartronella	172.2	239.25
Collonia	172.2	232
Costataphrus	195.3	199.3
Gudrunella	207.95	215.25
Lewisiella	180.5	195.3
Striatoconulus	176.2	180.5
Triangaphrus	195.3	201.3
Trochopsidea	172.2	199.3
Callotrochus	203.35	232
Capulus	172.2	232
Cirrus	172.2	232
Hamusina	172.2	201.3
Hesperocirrus	203.35	215.25
Lepidotrochus	207.95	239.25
Platyacra	176.2	203.35
Sororcula	203.35	215.25
Spirocirrus	172.2	201.3
Coelodiscus	172.2	180.5
Acrocosmia	226.5	232
Ataxotrochus	239.25	239.25
Coelochrysalis	207.95	239.25
Coelostylina	172.2	239.25
Eustylus	226.5	232
Glyptochrysalis	176.2	239.25
Helenostylina	226.5	232
Omphaloptycha	203.35	239.25
Bandellina	232	239.25
Amphitomaria	232	239.25
Colpomphalus	172.2	201.3
Discohelix	172.2	239.25
Spiniomphalus	207.95	215.25
Ambercyclus	176.2	201.3
Calliotropis	172.2	232
Eucyclomphalus	176.2	199.3
Eucyclus	172.2	232
Gerasimovcyclus	195.3	199.3
Mistelgauia	187.55	190.8
Neoeunema	226.5	232
Ooliticia	172.2	201.3
Trochonodus	207.95	215.25
Ampezzotrochus	232	239.25
Eucycloscala	172.2	239.25
Lissochilina	226.5	232
Eunemopsis	207.95	239.25
Pseudoclanculus	207.95	239.25
Austriacopsis	172.2	195.3
Emarginula	172.2	239.25
Cheilotomona	226.5	239.25
Kalchreuthia	172.2	190.8
Kittlidiscus	232	239.25
Heterospira	203.35	239.25
Lamelliphorus	172.2	176.2
Lancedellia	232	239.25
Laubella	232	239.25
Brochidiella	207.95	215.25
Brochidium	203.35	239.25
Lacuna	172.2	239.25
Maturifusus	187.55	190.8
Palaeotriton	226.5	232
Falsoebala	172.2	190.8
Amauropsis	172.2	239.25
Natica	172.2	239.25
Polinices	172.2	239.25
Ampezzonaticopsis	226.5	232
Cortinaticopsis	226.5	239.25
Dicosmos	207.95	239.25
Hologyra	226.5	239.25
Naticopsis	207.95	239.25
Neridomus	172.2	201.3
Cossmannea	172.2	172.2
Nerinea	172.2	187.55
Aptyxiella	172.2	199.3
Nerinella	172.2	201.3
Dentineritaria	226.5	239.25
Neritaria	203.35	239.25
Oncochilus	172.2	239.25
Ruganeritaria	226.5	232
Trachyneritaria	203.35	239.25
Cryptonerita	207.95	239.25
Nerita	172.2	232
Neritina	172.2	232
Protonerita	207.95	239.25
Metriomphalus	172.2	215.25
Neorthonema	226.5	232
Spirocyclus	172.2	239.25
Palaeorissoina	172.2	172.2
Phasianella	172.2	201.3
Euryalox	207.95	239.25
Trochotomaria	172.2	199.3
Bathrotomaria	172.2	195.3
Laevitomaria	172.2	190.8
Leptomaria	172.2	199.3
Murihikua	203.35	232
Ornatospira	203.35	239.25
Pleurotomaria	172.2	239.25
Pyrgotrochus	172.2	190.8
Sisenna	187.55	239.25
Tahua	207.95	239.25
Talantodiscus	172.2	203.35
Anticonulus	187.55	239.25
Dimorphotectus	172.2	232
Eocalliostoma	207.95	215.25
Proconulus	172.2	195.3
Tylotrochus	207.95	239.25
Anulifera	207.95	215.25
Atorcula	226.5	232
Chulitnacula	207.95	215.25
Lamellox	226.5	232
Moerckeia	203.35	239.25
Protorcula	203.35	239.25
Pseudomelania	172.2	239.25
Ramina	207.95	239.25
Pseudowortheniella	226.5	232
Ptychomphalina	203.35	239.25
Ptychomphalus	187.55	239.25
Angularia	207.95	239.25
Microschiza	172.2	239.25
Parangularia	207.95	232
Protofusus	203.35	239.25
Purpurina	172.2	176.2
Purpuroidea	172.2	239.25
Ebala	172.2	239.25
Rhaphistomella	203.35	239.25
Rissoina	172.2	176.2
Bralitzia	176.2	180.5
Microcheilus	232	239.25
Sabrinella	195.3	239.25
Schizogonium	232	239.25
Triassurella	226.5	232
Katosira	172.2	239.25
Kittliconcha	203.35	239.25
Rostellaria	172.2	232
Codinella	232	239.25
Stuorella	215.25	239.25
Temnotropis	226.5	239.25
Teinostoma	172.2	187.55
Calliostoma	172.2	215.25
Cantallocostoma	187.55	201.3
Chrysostoma	172.2	190.8
Eosolariella	203.35	232
Francisciconcha	187.55	190.8
Lithotrochus	180.5	201.3
Margarites2	172.2	215.25
Monodonta	172.2	232
Pachypoma	226.5	232
Plectotrochus	187.55	190.8
Rotella	226.5	232
Solarioconulus	203.35	239.25
Trochus	172.2	232
Trochotoma	172.2	239.25
Bandelastraea	226.5	232
Delphinula	226.5	232
Homalopoma	172.2	239.25
Meiersia	200.1	201.3
Sloeudaronia	226.5	232
Turbo	172.2	239.25
Zygites	207.95	239.25
Alexogyra	226.5	232
Jurassiphorus	172.2	215.25
Pileopsis	200.1	201.3
Trachybembix	232	239.25
Ueckerconulus	172.2	215.25
Acanthochirana	172.2	215.25
Aeger	172.2	239.25
Magila	172.2	180.5
Acanthocarpus	172.2	239.25
Callianassa	172.2	180.5
Clytiella	203.35	232
Clytiopsis	239.25	239.25
Paraclytiopsis	203.35	232
Coleia	172.2	232
Hellerocaris	172.2	172.2
Proeryon	172.2	180.5
Pseudocoleia	207.95	215.25
Tropifer	203.35	203.35
Eocarcinus	190.8	190.8
Eryma	172.2	199.3
Palaeastacus	172.2	199.3
Phlyctisoma	172.2	199.3
Pustulina	172.2	199.3
Stenodactylina	176.2	201.3
Cycleryon	172.2	201.3
Eryon	172.2	201.3
Rosenfeldia	207.95	215.25
Wrangelleryon	200.1	201.3
Glyphea	172.2	215.25
Triasiglyphea	203.35	232
Goniodromites	172.2	190.8
Eoprosopon	187.55	187.55
Lissocardia	239.25	239.25
Paralitogaster	239.25	239.25
Pseudoglyphea	172.2	232
Mecochirus	172.2	199.3
Praeatya	187.55	201.3
Palaeopagurus	180.5	190.8
Archaeopalinurus	207.95	215.25
Palinurina	172.2	201.3
Pemphix	239.25	239.25
Antrimpos	172.2	239.25
Bombur	172.2	232
Penaeus	172.2	201.3
Glaessnericaris	207.95	215.25
Cryptopagurus	187.55	190.8
Schobertella	187.55	201.3
Gracilimanus	172.2	172.2
Gypsonicus	172.2	172.2
Tetrachelus	226.5	232
Venipagurus	195.3	199.3
Atergatis	172.2	239.25
Aspidogaster	239.25	239.25
Dusa	172.2	215.25
Hefriga	172.2	232
Klytia	172.2	201.3
Olinaecaris	172.2	172.2
Orhomalus	172.2	190.8
Palaxius	207.95	215.25
Polyonyx	172.2	172.2
Eonatatolana	172.2	172.2
Palaega	172.2	239.25
Urda	172.2	172.2
Cyclosphaeroma	172.2	201.3
Elioserolis	207.95	207.95
Isopodites	203.35	239.25
Triassphaeroma	207.95	207.95
Schimperella	239.25	239.25
Jurapseudes	172.2	180.5
Opthalmapseudes	203.35	239.25
Aplocoma	187.55	239.25
Arenorbis	239.25	239.25
Geocoma	172.2	180.5
Sinosura	172.2	199.3
Sigsbeia	187.55	190.8
Inexpectacantha	187.55	190.8
Leadagmara	226.5	232
Ophiacantha	172.2	203.35
Ophioderma	187.55	239.25
Palaeocoma	176.2	239.25
Mesophiomusium	172.2	180.5
Ophiolepis	203.35	203.35
Ophiomusium	172.2	239.25
Aspiduriella	203.35	239.25
Eirenura	187.55	190.8
Ophiocrossota	172.2	201.3
Ophiocten	172.2	201.3
Ophiura	172.2	172.2
Stephanouropsis	239.25	239.25
Ophiotrapezium	172.2	180.5
Ophiuricoma	172.2	172.2
Ophioflabellum	207.95	215.25
Discoidella	239.25	239.25
Polycope	172.2	239.25
Circulina	203.35	239.25
Bektasia	226.5	239.25
Cavussurella	207.95	239.25
Recytella	239.25	239.25
Cytherella	172.2	239.25
Cytherelloidea	172.2	239.25
Pupperlla	195.3	199.3
Acratia	187.55	239.25
Anisobairdia	187.55	199.3
Bairdia	172.2	239.25
Bairdiacypris	176.2	239.25
Bairdiolites	203.35	239.25
Bolzibairdia	203.35	203.35
Carinobairdia	200.1	203.35
Ceratobairdia	200.1	239.25
Cornutobairdia	203.35	232
Dicerobairdia	203.35	226.5
Fabalicypris	176.2	239.25
Hiatobairdia	203.35	239.25
Isobythocypris	172.2	201.3
Krausella	187.55	190.8
Lobobairdia	187.55	215.25
Mirabairdia	226.5	239.25
Nodobairdia	203.35	239.25
Paraglyptobairdia	226.5	239.25
Ptychobairdia	172.2	239.25
Pustulobairdia	200.1	239.25
Triebelina	172.2	239.25
Urobairdia	203.35	239.25
Pseudobythocypris	226.5	239.25
Acanthoscapha	239.25	239.25
Nagyella	239.25	239.25
Rhombocythere	172.2	239.25
Bythocypris	172.2	239.25
Covracythere	207.95	239.25
Cuneoceratina	172.2	187.55
Monoceratina	172.2	239.25
Triceratina	176.2	239.25
Paracypris	172.2	239.25
Dettermania	203.35	239.25
Hungarella	176.2	239.25
Judahella	203.35	239.25
Cytheropteron	172.2	190.8
Infracytheropteron	176.2	180.5
Metacytheropteron	172.2	203.35
Procytherura	172.2	190.8
Lutkevichinella	203.35	239.25
Movschovitschia	226.5	232
Healdia	203.35	239.25
Ledahia	176.2	199.3
Ogmoconcha	176.2	239.25
Ogmoconchella	176.2	203.35
Pseudohealdia	187.55	190.8
Kerocythere	203.35	239.25
Krithe	172.2	232
Liasina	180.5	195.3
Pseudomacrocypris	172.2	199.3
Acrocythere	172.2	195.3
Wicherella	187.55	187.55
Gramannicythere	176.2	187.55
Kinkelinella	172.2	203.35
Cardobairdia	172.2	200.1
Aaleniella	172.2	201.3
Aneisohealdia	200.1	239.25
Aphelocythere	172.2	176.2
Bythoceratina	172.2	201.3
Cytheropterina	172.2	176.2
Eucytherura	172.2	190.8
Gammacythere	187.55	190.8
Gramannella	176.2	195.3
Leviella	203.35	239.25
Lophodentina	199.3	200.1
Mostlerella	203.35	239.25
Nanacythere	180.5	201.3
Nemoceratina	172.2	239.25
Otocythere	172.2	176.2
Paradoxostoma	172.2	190.8
Paranotacythere	172.2	180.5
Pleurifera	180.5	195.3
Pleurocythere	172.2	180.5
Pontocyprella	172.2	201.3
Praeschuleridea	172.2	180.5
Procytheridea	172.2	200.1
Pulviella	203.35	239.25
Renngartenella	226.5	239.25
Rutlandella	172.2	180.5
Simeonella	207.95	239.25
Spinocypris	226.5	232
Trachycythere	172.2	187.55
Triadohealdia	239.25	239.25
Triassocypris	226.5	239.25
Wellandia	176.2	176.2
Arabellites	239.25	239.25
Archaeoprion	239.25	239.25
Staurocephalites	172.2	239.25
Eunice	172.2	239.25
Palurites	172.2	239.25
Anisocerasites	172.2	239.25
Notocirrus	172.2	239.25
Halla	172.2	239.25
Schistomeringos	172.2	190.8
Goniada	172.2	239.25
Ampheticene	172.2	239.25
Arites	172.2	239.25
Glycera	172.2	239.25
Melanoraphia	199.3	199.3
Palaeoaphrodite	203.35	239.25
Paraglycerites	172.2	203.35
Parancreites	172.2	239.25
Alpinotubus	226.5	232
Barbafera	226.5	239.25
Ditrupa	172.2	190.8
Dorsoserpula	172.2	172.2
Filograna	172.2	239.25
Serpula	172.2	239.25
Cementula	172.2	199.3
Cycloserpula	172.2	176.2
Filogranula	172.2	180.5
Galeolaria	172.2	201.3
Metavermilia	172.2	180.5
Pentaditrupa	172.2	199.3
Protulophila	172.2	190.8
Rotularia	172.2	190.8
Salmacina	172.2	239.25
Sarcinella	172.2	172.2
Terebella	172.2	232
Microtubus	203.35	239.25
Spirorbis	172.2	239.25
Athyris	226.5	239.25
Anisactinella	226.5	239.25
Anomactinella	226.5	232
Clavigera	203.35	215.25
Dioristella	226.5	239.25
Diplospirella	226.5	239.25
Euractinella	226.5	239.25
Majkopella	203.35	232
Misolia	207.95	215.25
Ochotathyris	207.95	215.25
Oxycolpella	203.35	239.25
Pentactinella	226.5	239.25
Pexidella	207.95	239.25
Spirigerellina	239.25	239.25
Stolzenburgiella	203.35	239.25
Tetractinella	226.5	239.25
Amphiclina	203.35	232
Amphiclinodonta	187.55	232
Carinokoninckina	207.95	232
Koninckella	176.2	239.25
Koninckina	195.3	232
Koninckodonta	176.2	203.35
Lamellokoninckina	207.95	232
Septamphiclina	207.95	215.25
Cassianospira	226.5	239.25
Hungarispira	207.95	232
Neoretzia	203.35	239.25
Schwagerispira	207.95	239.25
Retzia	226.5	239.25
Pseudokoninckina	239.25	239.25
Spirigera	226.5	239.25
Acanthothyris	172.2	172.2
Acanthothyropsis	172.2	172.2
Caucasorhynchia	203.35	239.25
Hagabirhynchia	207.95	215.25
Maorirhynchia	207.95	239.25
Neofascicosta	203.35	239.25
Austrirhynchia	203.35	232
Decurtella	207.95	239.25
Excavatorhynchia	226.5	232
Apringia	176.2	199.3
Jakubirhynchia	176.2	201.3
Megapringia	187.55	190.8
Pseudogibbirhynchia	172.2	187.55
Serratapringia	187.55	190.8
Soaresirhynchia	172.2	176.2
Stolmorhynchia	172.2	201.3
Veghirhynchia	203.35	232
Alebusirhynchia	187.55	190.8
Aucklandirhynchia	172.2	190.8
Costirhynchopsis	226.5	239.25
Eurysites	172.2	172.2
Fissirhynchia	203.35	232
Flabellirhynchia	172.2	180.5
Globirhynchia	172.2	180.5
Granulirhynchia	172.2	172.2
Halorellina	203.35	232
Lacunaerhynchia	172.2	172.2
Lamellaerhynchia	172.2	190.8
Parvirhynchia	172.2	172.2
Rudirhynchia	176.2	190.8
Septocyclothyris	203.35	215.25
Squamirhynchia	172.2	199.3
Timorhynchia	207.95	239.25
Yidunella	203.35	232
Yulongella	207.95	215.25
Rhynchonellina	176.2	215.25
Sulcirostra	195.3	239.25
Crurirhynchia	207.95	239.25
Cryptorhynchia	172.2	172.2
Dierisma	207.95	215.25
Septocrurella	172.2	195.3
Halorelloidea	203.35	232
Aparimarhynchia	239.25	239.25
Austriellula	207.95	239.25
Capillirostra	172.2	190.8
Costinorella	239.25	239.25
Diholkorhynchia	239.25	239.25
Fenyveskutella	187.55	190.8
Holcorhynchella	187.55	239.25
Holcorhynchia	176.2	239.25
Kericserella	187.55	190.8
Laevorhynchia	226.5	239.25
Maxillirhynchia	172.2	215.25
Nannirhynchia	172.2	190.8
Norella	207.95	239.25
Osmarella	187.55	215.25
Paronarhynchia	187.55	190.8
Piarorhynchella	239.25	239.25
Pisirhynchia	187.55	199.3
Praemonticlarella	172.2	180.5
Pseudohalorella	203.35	215.25
Scalpellirhynchia	172.2	199.3
Wairakirhynchia	239.25	239.25
Ochotorhynchia	195.3	201.3
Anarhynchia	172.2	190.8
Carapezzia	200.1	203.35
Peregrinelloidea	187.55	190.8
Bodrakella	172.2	190.8
Amoenirhynchia	226.5	232
Lokutella	187.55	199.3
Prionorhynchia	172.2	201.3
Sphenorhynchia	172.2	172.2
Caledorhynchia	172.2	199.3
Capillirhynchia	172.2	172.2
Choffatirhynchia	176.2	180.5
Cuneirhynchia	190.8	201.3
Curtirhynchia	172.2	172.2
Furcirhynchia	176.2	201.3
Grestenella	200.1	201.3
Herangirhynchia	172.2	207.95
Himalairhynchia	207.95	215.25
Homoeorhynchia	172.2	232
Murihikurhynchia	195.3	226.5
Nudirostralina	226.5	239.25
Omolonella	207.95	215.25
Piarorhynchia	176.2	239.25
Planirhynchia	187.55	232
Ptilorhynchia	172.2	172.2
Ptyctorhynchia	172.2	180.5
Rhynchonella	172.2	239.25
Rhynchonelloidea	172.2	195.3
Rhynchonelloidella	172.2	180.5
Rimirhynchia	190.8	199.3
Rimirhynchopsis	203.35	232
Saccorhynchia	207.95	215.25
Sakawairhynchia	172.2	239.25
Sinuplicorhynchia	207.95	239.25
Slovenirhynchia	187.55	187.55
Sulcorhynchia	172.2	239.25
Trichorhynchia	172.2	190.8
Volirhynchia	226.5	239.25
Burmirhynchia	172.2	180.5
Costirhynchia	172.2	232
Cymatorhynchia	172.2	172.2
Daghanirhynchia	172.2	172.2
Druganirhynchia	172.2	172.2
Eoseptaliphoria	203.35	232
Gibbirhynchia	172.2	199.3
Grandirhynchia	187.55	199.3
Kallirhynchia	172.2	180.5
Kutchirhynchia	172.2	172.2
Obsoletirhynchia	172.2	172.2
Orlovirhynchia	187.55	190.8
Pontaltorhynchia	190.8	199.3
Pycnoria	172.2	172.2
Quadratirhynchia	172.2	199.3
Rhactorhynchia	172.2	172.2
Somalirhynchia	172.2	172.2
Tetrarhynchia	172.2	201.3
Apertirhynchella	226.5	232
Calcirhynchia	187.55	200.1
Cirpa	176.2	201.3
Euxinella	203.35	232
Moisseievia	203.35	215.25
Robinsonella	203.35	232
Salgirella	172.2	201.3
Saubachia	200.1	201.3
Vincentirhynchia	176.2	207.95
Balatonospira	207.95	239.25
Dinarispira	239.25	239.25
Koeveskallina	226.5	239.25
Nudispiriferina	203.35	239.25
Tylospiriferina	203.35	232
Bittnerula	226.5	232
Flabellocyrtia	239.25	239.25
Hirsutella	226.5	239.25
Thecocyrtella	207.95	239.25
Cyrtina	203.35	239.25
Klipsteinella	226.5	232
Klipsteinelloidea	207.95	215.25
Laballa	203.35	232
Paralepismatina	203.35	239.25
Pseudolaballa	226.5	232
Spinolepismatina	207.95	232
Bolilaspirifer	203.35	215.25
Costispiriferina	203.35	232
Dispiriferina	176.2	201.3
Lepismatina	207.95	239.25
Pseudocyrtina	207.95	215.25
Pseudolepismatina	203.35	232
Callospiriferina	176.2	201.3
Pennospiriferina	226.5	239.25
Punctospirella	226.5	239.25
Alipunctifera	226.5	239.25
Canadospira	203.35	232
Dentospiriferina	226.5	232
Orientospira	207.95	215.25
Psioidea	203.35	232
Psioidiella	207.95	226.5
Rastelligera	203.35	232
Guseriplia	207.95	215.25
Mentzeliopsis	187.55	239.25
Sinucosta	203.35	239.25
Lancangjiangia	207.95	232
Pseudospiriferina	239.25	239.25
Spirifer	226.5	239.25
Calyptoria	176.2	180.5
Cisnerospira	176.2	199.3
Liospiriferina	176.2	201.3
Madoia	239.25	239.25
Mentzelia	203.35	239.25
Mentzelioides	207.95	239.25
Paralaballa	207.95	215.25
Paramentzelia	203.35	232
Spiriferina	172.2	239.25
Tethyspira	239.25	239.25
Viligella	203.35	215.25
Dagyspirifer	207.95	212.875
Pseudospondylospira	207.95	226.5
Spondylospira	203.35	226.5
Vitimetula	203.35	215.25
Zugmayerella	203.35	232
Suessia	187.55	187.55
Cadomella	176.2	190.8
Angustothyris	239.25	239.25
Arcosarina	203.35	232
Caucasothyris	207.95	215.25
Cubanothyris	207.95	232
Cystothyris	203.35	232
Paradoxothyris	203.35	239.25
Praecubanothyris	207.95	239.25
Rhaetina	195.3	239.25
Rhaetinopsis	207.95	232
Sangiaothyris	207.95	239.25
Epithyroides	203.35	239.25
Aulacothyropsis	203.35	232
Camerothyris	207.95	239.25
Pseudorugitela	207.95	215.25
Deslongchampsithyris	187.55	190.8
Dictyothyris	172.2	172.2
Adygella	207.95	239.25
Arctothyris	239.25	239.25
Coenothyris	203.35	239.25
Cruratula	207.95	239.25
Ninglongothyris	226.5	239.25
Propygope	176.2	232
Sulcatothyris	226.5	239.25
Tibetothyris	207.95	232
Tunethyris	207.95	232
Albasphe	239.25	239.25
Eudesia	172.2	172.2
Flabellothyris	172.2	180.5
Xenorina	172.2	172.2
Costoconcha	207.95	232
Hesperithyris	187.55	201.3
Wittenburgella	207.95	215.25
Eodallina	203.35	215.25
Monsardithyris	172.2	176.2
Stroudithyris	172.2	176.2
Arabatia	172.2	172.2
Avonothyris	172.2	172.2
Bihenithyris	172.2	172.2
Cererithyris	172.2	172.2
Ectyphoria	172.2	172.2
Loboidothyris	172.2	215.25
Plectothyris	172.2	172.2
Praesphaeroidothyris	187.55	190.8
Pseudoglossothyris	172.2	180.5
Ptyctothyris	172.2	172.2
Sphaeroidothyris	172.2	190.8
Stiphrothyris	172.2	172.2
Wattonithyris	172.2	172.2
Cuersithyris	176.2	199.3
Inaequalis	187.55	190.8
Lobothyris	172.2	239.25
Rhapidothyris	176.2	199.3
Telothyris	176.2	190.8
Tubithyris	172.2	172.2
Anadyrella	207.95	215.25
Buckmanithyris	180.5	190.8
Linguithyris	172.2	201.3
Nucleata	172.2	190.8
Phymatothyris	176.2	201.3
Orthotoma	180.5	199.3
Lychnothyris	187.55	190.8
Merophricus	187.55	199.3
Plectoconcha	207.95	239.25
Conarothyris	172.2	172.2
Epithyris	172.2	172.2
Euidothyris	172.2	172.2
Gigantothyris	172.2	172.2
Millythyris	172.2	172.2
Oligorhytisia	172.2	172.2
Petalothyris	172.2	172.2
Plectoidothyris	172.2	172.2
Securithyris	187.55	239.25
Terebratella	172.2	180.5
Terebratula	172.2	239.25
Antiptychina	172.2	199.3
Aulacothyris	172.2	239.25
Aulacothyroides	207.95	239.25
Bakonyithyris	176.2	201.3
Calpella	195.3	199.3
Cincta	172.2	199.3
Fimbriothyris	187.55	199.3
Gemerithyris	207.95	232
Kolymithyris	203.35	232
Menathyris	239.25	239.25
Neozeilleria	172.2	180.5
Obovothyris	172.2	172.2
Ornithella	172.2	215.25
Plesiothyris	190.8	201.3
Rugitela	172.2	180.5
Sacothyris	203.35	232
Securina	187.55	201.3
Silesiathyris	207.95	239.25
Tauromenia	187.55	203.35
Zeilleria	172.2	239.25
Zugmayeria	203.35	203.35
Adygellopsis	203.35	239.25
Eplenyithyris	176.2	190.8
Lobothyroides	203.35	232
Pamirothyris	203.35	215.25
Papodina	187.55	199.3
Peristerothyris	187.55	190.8
Pseudorhaetina	207.95	212.875
Viallithyris	176.2	199.3
Zhidothyris	207.95	215.25
Bactrynium	203.35	203.35
Enallothecidea	172.2	172.2
Hungaritheca	226.5	232
Protolacazella	172.2	172.2
Moorellina	172.2	215.25
Pachymoorellina	172.2	172.2
Bittnerella	207.95	232
Thecospirella	226.5	232
Thecospira	203.35	232
Diastopora	172.2	201.3
Entalophora	172.2	172.2
Microeciella	176.2	180.5
Stomatopora	172.2	232
Braiesopora	226.5	232
Buria	207.95	215.25
Corynotrypoides	226.5	232
Ramia	203.35	232
Reptomultisparsa	172.2	215.25
Reptonodicava	172.2	215.25
Cassianopora	207.95	215.25
Cyclotrypa	207.95	239.25
Cystitrypa	226.5	232
Tebitopora	207.95	239.25
Reptonoditrypa	239.25	239.25
Monotrypa	226.5	239.25
Paralioclema	207.95	239.25
Styloclema	207.95	215.25
Arcticopora	207.95	239.25
Dyscritellopsis	226.5	232
Zozariella	207.95	232
Dyscritella	203.35	239.25
Pseudobatostomella	203.35	239.25
Diaphragmopora	207.95	215.25
Stenodiscus	207.95	239.25
Flustra	226.5	232
Leioclema	226.5	239.25
