taxon	min	max
Arabellites	239.25	239.25
Archaeoprion	239.25	239.25
Staurocephalites	172.2	239.25
Eunice	172.2	239.25
Palurites	172.2	239.25
Anisocerasites	172.2	239.25
Notocirrus	172.2	239.25
Halla	172.2	239.25
Schistomeringos	172.2	190.8
Goniada	172.2	239.25
Ampheticene	172.2	239.25
Arites	172.2	239.25
Glycera	172.2	239.25
Melanoraphia	199.3	199.3
Palaeoaphrodite	203.35	239.25
Paraglycerites	172.2	203.35
Parancreites	172.2	239.25
Alpinotubus	226.5	232
Barbafera	226.5	239.25
Ditrupa	172.2	190.8
Dorsoserpula	172.2	172.2
Filograna	172.2	239.25
Serpula	172.2	239.25
Cementula	172.2	199.3
Cycloserpula	172.2	176.2
Filogranula	172.2	180.5
Galeolaria	172.2	201.3
Metavermilia	172.2	180.5
Pentaditrupa	172.2	199.3
Protulophila	172.2	190.8
Rotularia	172.2	190.8
Salmacina	172.2	239.25
Sarcinella	172.2	172.2
Terebella	172.2	232
Microtubus	203.35	239.25
Spirorbis	172.2	239.25
