taxon	min	max
Diastopora	172.2	201.3
Entalophora	172.2	172.2
Microeciella	176.2	180.5
Stomatopora	172.2	232
Braiesopora	226.5	232
Buria	207.95	215.25
Corynotrypoides	226.5	232
Ramia	203.35	232
Reptomultisparsa	172.2	215.25
Reptonodicava	172.2	215.25
Cassianopora	207.95	215.25
Cyclotrypa	207.95	239.25
Cystitrypa	226.5	232
Tebitopora	207.95	239.25
Reptonoditrypa	239.25	239.25
Monotrypa	226.5	239.25
Paralioclema	207.95	239.25
Styloclema	207.95	215.25
Arcticopora	207.95	239.25
Dyscritellopsis	226.5	232
Zozariella	207.95	232
Dyscritella	203.35	239.25
Pseudobatostomella	203.35	239.25
Diaphragmopora	207.95	215.25
Stenodiscus	207.95	239.25
Flustra	226.5	232
Leioclema	226.5	239.25
