taxon	int1	int2	int3	int4	int5	int6	int7	int8	int9	int10
Eonavicula	0	1	0	0	0	0	0	1	0	0	
Elegantarca	0	0	0	0	0	0	0	0	0	1	
Hoferia	0	0	0	0	0	0	0	1	1	0	
Limopsis	0	0	0	1	0	0	0	0	0	0	
Catella	0	0	0	0	0	0	1	1	1	0	
Grammatodon	0	1	1	1	1	1	1	1	1	1	
Macrodon	0	0	0	0	0	0	0	0	1	0	
Parallelodon	0	0	1	1	1	1	1	1	1	1	
Pichleria	0	0	0	0	0	0	0	0	1	1	
Antarctica	0	1	0	0	0	0	0	0	0	0	
Antiquicyprina	0	1	0	0	0	0	0	0	0	0	
Rollierella	0	1	1	0	0	0	0	0	0	0	
Integricardium	0	0	1	0	1	1	0	0	0	0	
Protocardia	0	1	1	1	1	1	1	1	1	0	
Pseudisocardia	0	1	0	0	0	1	0	0	0	0	
Septocardia	0	0	0	0	0	0	1	1	1	0	
Kalentera	0	1	0	1	1	0	1	0	0	0	
Pseudomyoconcha	0	0	0	0	0	0	0	0	1	1	
Crenotrapezium	0	0	1	1	1	0	0	0	0	0	
Eomiodon	0	1	1	1	1	1	0	0	0	0	
Netschajewia	0	0	0	0	0	0	0	0	0	1	
Permophorus	0	0	0	0	0	0	1	0	0	1	
Triaphorus	0	0	0	0	0	0	0	1	1	1	
Tulongocardium	0	0	0	0	0	0	1	1	0	0	
Quenstedtia	0	1	0	1	0	0	0	0	0	0	
Corbicellopsis	0	0	1	0	0	0	0	0	0	0	
Sakawanella	0	0	0	0	0	0	0	0	1	0	
Tancredia	0	1	1	1	1	1	1	1	0	0	
Tellina	0	0	0	1	0	0	0	0	0	0	
Langvophorus	0	0	0	0	0	0	0	1	0	0	
Astarte	0	1	1	1	1	1	1	1	0	0	
Balantioselena	0	0	0	0	0	0	0	0	0	1	
Coelastarte	0	1	0	1	0	1	0	0	0	0	
Coelopis	0	0	1	0	0	0	1	1	0	0	
Hemimenia	0	1	0	0	0	0	0	0	0	0	
Neocrassina	0	1	1	1	1	0	0	0	0	0	
Nicaniella	0	1	1	1	1	1	1	1	0	0	
Notoastarte	0	1	0	0	0	0	0	0	0	0	
Opis	0	0	1	0	0	1	1	1	0	0	
Opisoma	0	0	1	1	1	0	0	0	0	0	
Oxyloma	0	1	0	0	0	0	0	0	0	0	
Praeconia	0	0	1	0	1	1	1	1	0	0	
Pressastarte	0	0	0	1	0	0	0	0	0	0	
Cardinia	0	1	1	1	1	1	1	1	1	1	
Minepharus	0	0	0	0	0	0	0	1	1	0	
Pseudastarte	0	0	0	0	0	1	0	0	0	0	
Torastarte	0	0	0	0	1	0	1	0	0	0	
Cardita	0	0	0	0	0	1	1	1	1	0	
Palaeocardita	0	0	0	0	0	0	1	1	1	0	
Tutcheria	0	0	0	0	1	1	1	1	0	0	
Venericardia	0	0	0	1	0	0	0	0	0	0	
Hiatella	0	0	0	0	1	1	0	0	0	1	
Myophoricardium	0	0	0	0	0	0	1	1	1	1	
Myophoriopis	0	0	0	0	0	0	1	1	1	0	
Pseudocorbula	0	0	0	0	0	0	1	0	1	1	
Ampezzania	0	0	0	0	0	0	0	1	0	0	
Paramegalodus	0	0	0	0	0	0	0	1	0	0	
Pomarangina	0	0	0	0	0	0	0	0	1	0	
Protodiceras	0	0	0	1	0	0	0	0	0	0	
Antiquilima	0	0	0	1	1	1	1	1	0	1	
Badiotella	0	0	0	0	0	0	0	0	1	0	
Ctenostreon	0	1	1	1	1	1	1	0	0	0	
Lima	0	1	1	1	1	1	1	1	1	1	
Limatula	0	1	0	1	0	0	1	0	0	0	
Limea	0	0	0	1	0	1	1	1	1	1	
Mysidioptera	0	0	0	0	0	0	1	1	1	1	
Plagiostoma	0	1	1	1	1	1	1	1	1	1	
Pseudolimea	0	1	1	1	1	1	1	1	1	1	
Serania	0	0	0	0	0	0	1	1	0	0	
Cavilucina	0	1	1	1	1	0	0	0	0	0	
Corbis	0	0	0	0	0	0	0	0	1	0	
Haastina	0	1	0	0	0	0	0	0	0	0	
Lucina	0	1	1	1	1	1	0	1	1	0	
Luciniola	0	0	0	0	1	1	1	0	0	0	
Mesomiltha	0	1	1	1	1	0	1	0	0	0	
Pseudomiltha	0	0	1	0	0	0	0	0	0	0	
Schafhaeutlia	0	0	0	1	0	0	1	1	1	1	
Sphaeriola	0	0	1	0	1	0	0	0	0	0	
Mactromya	0	1	1	1	1	1	0	0	1	0	
Unicardium	0	0	0	1	1	0	0	1	0	0	
Ceratomyopsis	0	1	1	0	0	0	0	0	0	0	
Ceromyopsis	0	1	0	0	0	0	0	0	0	0	
Cornucardia	0	0	0	0	0	0	0	0	1	0	
Dicerocardium	0	0	0	0	0	0	0	1	0	0	
Physocardia	0	0	0	0	0	0	0	0	1	0	
Conchodon	0	0	0	0	0	0	1	0	0	0	
Megalodon	0	0	0	0	0	0	0	1	1	1	
Neomegalodon	0	0	0	0	0	0	1	1	1	1	
Pachyrisma	0	0	0	1	0	0	0	0	1	0	
Pterocardia	0	1	1	0	0	0	0	0	0	0	
Quemocuomegalodon	0	0	0	0	0	0	0	1	0	0	
Rhaetomegalodon	0	0	0	0	0	0	1	1	0	0	
Triadomegalodon	0	0	0	0	0	0	1	1	0	0	
Wallowaconcha	0	0	0	0	0	0	1	1	0	0	
Hippopodium	0	0	0	1	0	0	0	0	0	0	
Curionia	0	0	0	0	0	0	1	0	1	0	
Healeya	0	0	0	0	0	0	0	1	0	0	
Myoconcha	0	1	1	1	1	0	1	1	1	0	
Arctomytiloides	0	0	0	0	1	1	0	0	0	0	
Inoceramus	0	1	0	0	0	0	0	0	0	0	
Parainoceramus	0	1	1	1	1	1	0	0	0	0	
Pseudomytiloides	0	1	1	1	1	1	0	0	0	0	
Retroceramus	0	1	0	0	0	0	0	0	0	0	
Kolymia	0	1	0	1	1	1	0	1	0	0	
Aviculomyalina	0	0	0	0	0	0	0	0	1	0	
Myalina	0	0	0	0	0	0	0	0	1	1	
Mysidiella	0	0	0	0	0	0	1	1	1	0	
Promysidiella	0	0	0	0	0	0	0	0	1	1	
Jurassicorbula	0	0	1	0	0	0	0	0	0	0	
Pseudosaxicava	0	0	0	0	0	1	0	0	0	0	
Arcomytilus	0	1	1	0	0	0	0	0	0	0	
Falcimytilus	0	0	1	1	1	0	0	1	1	1	
Inoperna	0	1	1	1	0	0	1	1	0	0	
Lithophaga	0	1	1	1	0	1	0	0	1	0	
Lycettia	0	1	1	1	0	0	0	0	0	0	
Modiolus	0	1	1	1	1	1	1	1	1	1	
Protopis	0	0	0	0	0	0	0	0	0	1	
Isoarca	0	1	0	1	0	0	0	0	0	0	
Lapteviella	0	0	0	0	0	0	0	0	0	1	
Malletia	0	0	0	0	0	0	0	0	0	1	
Palaeoneilo	0	0	1	1	1	1	1	1	1	1	
Prosoleptus	0	0	0	0	0	0	0	0	1	1	
Taimyrodon	0	0	0	0	0	0	0	0	0	1	
Dacromya	0	1	1	0	0	1	1	1	1	1	
Eleganuculana	0	0	0	0	0	0	0	1	0	0	
Leda	0	0	1	0	0	0	0	1	1	0	
Mesosaccella	0	0	1	1	1	0	1	1	0	0	
Nuculana	0	1	1	1	1	1	1	1	1	1	
Veteranella	0	0	0	0	1	0	0	0	0	0	
Xiaoshuiculana	0	0	0	0	0	0	1	1	0	0	
Ryderia	0	0	0	1	1	1	1	0	0	0	
Nucula	0	1	1	1	0	1	1	1	1	1	
Nuculoma	0	0	0	1	1	1	1	1	1	0	
Palaeonucula	0	1	1	1	1	1	1	1	1	1	
Trigonucula	0	0	0	0	0	0	1	1	1	0	
Rollieria	0	0	0	0	0	1	0	0	0	0	
Aguilerella	0	1	1	1	1	1	0	0	0	0	
Bakevellia	0	0	1	1	1	1	1	1	1	1	
Costigervillia	0	0	1	0	0	0	0	0	0	0	
Cuneigervillia	0	0	0	0	0	1	0	0	0	0	
Gervillancea	0	0	0	0	0	0	0	0	1	0	
Gervillaria	0	1	1	1	1	0	1	1	0	1	
Gervillella	0	1	1	1	1	1	1	1	0	0	
Gervillia	0	0	1	1	1	1	1	1	1	1	
Hoernesia	0	0	0	0	0	0	1	1	1	1	
Kedonella	0	0	1	0	0	0	0	0	0	0	
Kobayashites	0	0	1	0	0	0	0	0	0	0	
Cassianella	0	0	0	0	0	0	1	1	1	1	
Exogyra	0	1	0	1	1	1	0	0	0	0	
Gryphaea	0	1	1	1	1	1	1	1	1	0	
Liostrea	0	1	1	1	1	1	1	1	1	1	
Nanogyra	0	1	1	0	1	0	0	0	0	0	
Aparimella	0	0	0	0	0	0	0	0	1	1	
Daonella	0	0	0	0	0	0	0	0	1	1	
Halobia	0	0	0	0	0	0	1	1	1	1	
Taimyrolobia	0	0	0	0	0	0	0	0	1	0	
Eligmus	0	1	0	0	0	0	0	0	0	0	
Gervilleioperna	0	1	0	1	1	0	0	0	0	0	
Isognomon	0	1	1	1	1	1	1	1	0	0	
Lithiotis	0	0	0	1	1	0	0	0	0	0	
Mytiloperna	0	1	1	1	0	1	0	0	0	0	
Waagenoperna	0	0	0	0	0	0	0	1	1	1	
Actinostreon	0	1	1	1	1	0	1	0	1	0	
Lopha	0	1	1	1	1	1	1	1	1	0	
Umbrostrea	0	0	0	0	0	0	1	1	1	0	
Krumbeckiella	0	0	0	0	0	0	1	1	1	0	
Manticula	0	0	0	0	0	0	0	1	1	0	
Oretia	0	0	0	0	0	0	0	0	1	0	
Atrina	0	0	0	0	0	0	0	0	0	1	
Pinna	0	1	1	1	1	1	1	1	1	1	
Trichites	0	0	1	0	0	0	0	1	0	0	
Amonotis	0	0	0	0	0	0	0	1	1	0	
Bositra	0	1	1	1	1	0	1	1	1	1	
Posidonotis	0	0	1	1	1	0	0	0	0	0	
Arcavicula	0	0	0	0	1	0	0	1	1	0	
Avicula	0	0	0	0	0	1	1	1	1	0	
Pseudaucella	0	0	1	1	0	0	0	0	0	0	
Pteria	0	1	1	1	1	1	1	1	1	1	
Rhaetavicula	0	0	0	0	0	0	1	0	0	0	
Pulvinites	0	0	0	1	0	0	0	0	0	0	
Heligmus	0	1	0	0	0	0	0	0	0	0	
Enantiostreon	0	0	0	0	0	0	0	0	0	1	
Harpax	0	0	1	1	1	1	0	0	0	0	
Cercomya	0	1	1	1	1	1	1	0	1	0	
Laternula	0	0	0	0	0	0	1	0	0	0	
Platymyoidea	0	0	0	0	0	0	0	1	0	0	
Anomia	0	1	0	0	1	1	1	0	0	0	
Placunopsis	0	1	1	1	1	1	1	1	1	1	
Neopecten	0	0	0	0	0	0	0	1	0	0	
Primahinnites	0	0	0	0	0	0	0	1	0	0	
Anningella	0	0	0	1	0	0	0	0	0	0	
Etalia	0	0	0	0	0	0	0	0	0	1	
Atreta	0	0	1	1	0	1	1	1	1	0	
Protostrea	0	0	0	0	0	0	0	0	0	1	
Cingentolium	0	1	0	0	0	0	0	0	0	0	
Entolioides	0	0	0	0	0	0	0	1	1	0	
Entolium	0	1	1	1	1	1	1	1	1	1	
Somapecten	0	0	1	0	0	0	0	0	0	0	
Filopecten	0	0	0	0	0	0	0	0	1	0	
Kolymonectes	0	0	0	1	1	1	0	0	0	0	
Eumorphotis	0	0	0	1	0	0	1	1	1	1	
Leptochondria	0	0	0	0	0	0	0	1	1	1	
Limaria	0	0	0	0	0	0	0	0	0	1	
Palaeolima	0	0	0	0	0	0	0	0	0	1	
Monotis	0	0	0	0	0	0	1	1	1	0	
Otapiria	0	0	0	1	1	1	1	1	1	0	
Weyla	0	0	1	1	1	1	0	0	0	0	
Arctotis	0	1	0	1	0	0	0	0	0	0	
Jianchuania	0	0	0	0	0	0	0	1	0	0	
Meleagrinella	0	1	1	1	1	1	1	1	1	0	
Oxytoma	0	1	1	1	1	1	1	1	1	1	
Aequipecten	0	0	1	1	1	1	0	0	0	0	
Agerchlamys	0	0	1	1	1	1	1	0	0	0	
Amusium	0	0	0	0	0	1	0	1	1	1	
Camptonectes	0	1	1	1	1	1	0	0	1	1	
Chlamys	0	1	1	1	1	1	1	1	1	1	
Eopecten	0	1	1	1	1	1	1	0	1	0	
Hinnites	0	0	0	0	0	1	0	0	1	0	
Hunanonectes	0	0	0	0	0	1	0	0	0	0	
Indopecten	0	0	0	0	0	0	1	1	1	0	
Loxochlamys	0	0	0	0	0	0	0	0	0	1	
Lyriochlamys	0	0	0	0	0	0	0	1	0	0	
Nevadapecten	0	0	0	0	0	0	0	0	0	1	
Ochotochlamys	0	0	1	1	1	1	1	1	0	0	
Pleuronectites	0	0	0	0	0	0	0	1	1	1	
Praechlamys	0	0	0	0	0	0	0	0	0	1	
Pseudentolium	0	0	0	1	0	0	0	0	0	0	
Pseudopecten	0	0	1	1	1	1	1	0	0	0	
Radulonectites	0	0	0	1	1	0	0	0	0	0	
Spondylopecten	0	0	1	0	0	0	0	0	0	0	
Tosapecten	0	0	0	0	0	0	1	1	1	0	
Plicatula	0	1	1	1	1	1	1	1	1	0	
Pseudoplacunopsis	0	0	0	0	0	0	1	1	1	1	
Parvamussium	0	1	1	1	0	1	1	1	1	1	
Propeamussium	0	1	0	0	0	0	0	0	0	0	
Newaagia	0	0	0	0	0	1	1	1	1	1	
Persia	0	0	0	0	0	1	1	1	0	0	
Pseudomonotis	0	0	1	1	0	1	1	1	1	1	
Ceratomya	0	1	1	1	1	0	0	0	0	0	
Gresslya	0	1	1	1	1	0	0	0	0	1	
Makoiamya	0	0	0	0	0	0	1	1	0	0	
Myopholas	0	1	1	0	0	0	0	0	0	0	
Pteromya	0	0	0	0	0	1	1	0	0	0	
Antiquicorbula	0	0	1	0	1	1	1	1	0	0	
Corbulomima	0	1	1	0	0	0	0	0	0	0	
Pleuromya	0	1	1	1	1	1	1	1	1	1	
Ochotomya	0	0	0	0	0	0	1	1	0	0	
Ouamouia	0	0	0	0	0	0	1	0	1	0	
Somareoides	0	0	0	0	0	0	0	0	1	0	
Weixiella	0	0	0	0	0	0	0	1	0	0	
Arcomya	0	0	1	1	1	1	0	0	0	0	
Goniomya	0	1	1	1	1	1	0	0	0	0	
Homomya	0	1	1	1	1	1	1	1	1	1	
Osteomya	0	1	1	0	1	0	0	0	0	0	
Pachymya	0	0	1	1	0	0	0	0	0	0	
Pholadomya	0	1	1	1	1	1	1	0	0	0	
Anomalopleuroides	0	0	0	0	0	0	0	0	1	0	
Girardotia	0	0	1	0	0	0	0	0	0	0	
Cuspidaria	0	0	0	1	0	0	0	0	0	0	
Terquemia	0	0	0	1	1	1	0	0	1	0	
Antijanira	0	0	0	0	0	0	0	0	1	0	
Bittneria	0	0	0	0	0	0	0	0	1	0	
Cochlearites	0	0	0	1	0	0	0	0	0	0	
Crenamussium	0	0	0	0	0	0	0	1	0	0	
Hokonuia	0	0	0	0	0	0	0	1	1	0	
Langsonella	0	0	0	0	0	0	0	0	0	1	
Lithioperna	0	0	0	1	0	0	0	0	0	0	
Mytiloceramus	0	1	0	1	0	1	0	0	0	0	
Ornithopecten	0	0	0	0	0	0	0	0	0	1	
Pergamidia	0	0	0	0	0	0	0	1	1	0	
Septihoernesia	0	0	0	0	0	0	0	0	1	0	
Songdaella	0	0	0	0	0	0	0	1	0	0	
Stefaninia	0	0	0	0	0	0	0	0	0	1	
Magnolobia	0	0	0	0	0	0	0	0	0	1	
Mesoneilo	0	0	0	0	0	0	0	1	0	0	
Nucinella	0	0	0	1	0	1	0	1	0	0	
Burmesia	0	0	0	0	0	1	1	1	0	0	
Thracia	0	1	1	0	0	1	0	1	1	0	
Groeberella	0	1	1	1	1	0	0	0	0	0	
Frenguelliella	0	0	1	1	1	0	0	0	1	0	
Jaworskiella	0	0	0	1	1	0	0	0	0	0	
Quadratojaworskiella	0	1	0	1	1	1	0	0	0	0	
Myophorella	0	1	1	1	0	0	0	0	0	0	
Scaphorella	0	1	1	0	0	0	0	0	0	0	
Vaugonia	0	1	1	1	1	1	0	0	0	0	
Caledogonia	0	0	0	0	0	0	0	1	0	0	
Costatoria	0	0	0	0	0	0	1	1	1	1	
Elegantinia	0	0	0	0	0	0	1	0	1	1	
Gruenewaldia	0	0	0	0	0	0	1	1	1	0	
Heminajas	0	0	0	0	0	0	0	0	1	0	
Liotrigonia	0	0	0	0	1	1	0	0	0	1	
Myophoria	0	0	0	0	0	0	1	1	1	1	
Neoschizodus	0	0	0	0	0	0	1	1	1	1	
Agonisca	0	0	0	0	0	0	0	0	0	1	
Praegonia	0	0	0	0	0	0	0	0	0	1	
Prosogyrotrigonia	0	0	0	0	1	1	0	0	0	0	
Schizodus	0	0	0	0	0	0	1	0	0	0	
Geratrigonia	0	0	1	0	0	1	0	0	0	0	
Guineana	0	0	0	0	0	0	0	1	1	0	
Kyushutrigonia	0	0	0	0	0	0	0	1	0	0	
Maoritrigonia	0	0	0	0	0	0	1	1	1	0	
Minetrigonia	0	0	0	0	0	0	1	1	1	0	
Modesticoncha	0	0	0	0	0	0	1	1	0	0	
Myophorigonia	0	0	0	1	1	0	1	1	1	0	
Neuquenitrigonia	0	1	1	0	0	0	0	0	0	0	
Trigonia	0	1	1	1	1	1	1	1	0	0	
Anodontophora	0	0	0	0	0	0	0	1	1	1	
Cardinioides	0	0	0	1	1	0	1	1	1	1	
Janaija	0	0	0	0	0	0	0	0	0	1	
Unionites	0	0	0	0	0	0	1	1	1	1	
Atalantia	0	0	0	0	0	0	0	0	1	0	
Erugonia	0	0	0	0	0	0	1	1	0	0	
Prorotrigonia	0	0	0	0	0	0	0	1	0	0	
Trigonodus	0	0	0	0	0	0	0	1	1	1	
Pachycardia	0	0	0	0	0	0	0	0	1	0	
Anisocardia	0	1	1	1	1	0	0	0	0	0	
Coelocyprina	0	0	0	1	0	0	0	0	0	0	
Isocyprina	0	1	1	1	1	1	1	1	0	0	
Plesiocyprina	0	0	1	0	0	0	0	0	0	0	
Pronoella	0	1	1	0	0	0	0	0	0	0	
Pseudotrapezium	0	0	1	1	1	0	0	0	0	0	
Pullastra	0	0	0	0	0	0	1	0	0	0	
Solenomorpha	0	0	0	0	0	0	0	0	1	0	
Laubeia	0	0	0	0	0	0	0	0	1	0	
Taeniodon	0	0	0	0	0	0	1	0	0	0	
