taxon	min	max	
Eonavicula	172.2	213.2
Elegantarca	239.25	239.25
Hoferia	213.2	229
Limopsis	186.75	186.75
Catella	203.35	229
Grammatodon	172.2	239.25
Macrodon	229	229
Parallelodon	178.4	239.25
Pichleria	229	239.25
Antarctica	172.2	172.2
Antiquicyprina	172.2	172.2
Rollierella	172.2	178.4
Integricardium	178.4	200.3
Protocardia	172.2	229
Pseudisocardia	172.2	200.3
Septocardia	203.35	229
Kalentera	172.2	203.35
Pseudomyoconcha	229	239.25
Crenotrapezium	178.4	195.05
Eomiodon	172.2	200.3
Netschajewia	239.25	239.25
Permophorus	203.35	239.25
Triaphorus	213.2	239.25
Tulongocardium	203.35	213.2
Quenstedtia	172.2	186.75
Corbicellopsis	178.4	178.4
Sakawanella	229	229
Tancredia	172.2	213.2
Tellina	186.75	186.75
Langvophorus	213.2	213.2
Astarte	172.2	213.2
Balantioselena	239.25	239.25
Coelastarte	172.2	200.3
Coelopis	178.4	213.2
Hemimenia	172.2	172.2
Neocrassina	172.2	195.05
Nicaniella	172.2	213.2
Notoastarte	172.2	172.2
Opis	178.4	213.2
Opisoma	178.4	195.05
Oxyloma	172.2	172.2
Praeconia	178.4	213.2
Pressastarte	186.75	186.75
Cardinia	172.2	239.25
Minepharus	213.2	229
Pseudastarte	200.3	200.3
Torastarte	195.05	203.35
Cardita	200.3	229
Palaeocardita	203.35	229
Tutcheria	195.05	213.2
Venericardia	186.75	186.75
Hiatella	195.05	239.25
Myophoricardium	203.35	239.25
Myophoriopis	203.35	229
Pseudocorbula	203.35	239.25
Ampezzania	213.2	213.2
Paramegalodus	213.2	213.2
Pomarangina	229	229
Protodiceras	186.75	186.75
Antiquilima	186.75	239.25
Badiotella	229	229
Ctenostreon	172.2	203.35
Lima	172.2	239.25
Limatula	172.2	203.35
Limea	186.75	239.25
Mysidioptera	203.35	239.25
Plagiostoma	172.2	239.25
Pseudolimea	172.2	239.25
Serania	203.35	213.2
Cavilucina	172.2	195.05
Corbis	229	229
Haastina	172.2	172.2
Lucina	172.2	229
Luciniola	195.05	203.35
Mesomiltha	172.2	203.35
Pseudomiltha	178.4	178.4
Schafhaeutlia	186.75	239.25
Sphaeriola	178.4	195.05
Mactromya	172.2	229
Unicardium	186.75	213.2
Ceratomyopsis	172.2	178.4
Ceromyopsis	172.2	172.2
Cornucardia	229	229
Dicerocardium	213.2	213.2
Physocardia	229	229
Conchodon	203.35	203.35
Megalodon	213.2	239.25
Neomegalodon	203.35	239.25
Pachyrisma	186.75	229
Pterocardia	172.2	178.4
Quemocuomegalodon	213.2	213.2
Rhaetomegalodon	203.35	213.2
Triadomegalodon	203.35	213.2
Wallowaconcha	203.35	213.2
Hippopodium	186.75	186.75
Curionia	203.35	229
Healeya	213.2	213.2
Myoconcha	172.2	229
Arctomytiloides	195.05	200.3
Inoceramus	172.2	172.2
Parainoceramus	172.2	200.3
Pseudomytiloides	172.2	200.3
Retroceramus	172.2	172.2
Kolymia	172.2	213.2
Aviculomyalina	229	229
Myalina	229	239.25
Mysidiella	203.35	229
Promysidiella	229	239.25
Jurassicorbula	178.4	178.4
Pseudosaxicava	200.3	200.3
Arcomytilus	172.2	178.4
Falcimytilus	178.4	239.25
Inoperna	172.2	213.2
Lithophaga	172.2	229
Lycettia	172.2	186.75
Modiolus	172.2	239.25
Protopis	239.25	239.25
Isoarca	172.2	186.75
Lapteviella	239.25	239.25
Malletia	239.25	239.25
Palaeoneilo	178.4	239.25
Prosoleptus	229	239.25
Taimyrodon	239.25	239.25
Dacromya	172.2	239.25
Eleganuculana	213.2	213.2
Leda	178.4	229
Mesosaccella	178.4	213.2
Nuculana	172.2	239.25
Veteranella	195.05	195.05
Xiaoshuiculana	203.35	213.2
Ryderia	186.75	203.35
Nucula	172.2	239.25
Nuculoma	186.75	229
Palaeonucula	172.2	239.25
Trigonucula	203.35	229
Rollieria	200.3	200.3
Aguilerella	172.2	200.3
Bakevellia	178.4	239.25
Costigervillia	178.4	178.4
Cuneigervillia	200.3	200.3
Gervillancea	229	229
Gervillaria	172.2	239.25
Gervillella	172.2	213.2
Gervillia	178.4	239.25
Hoernesia	203.35	239.25
Kedonella	178.4	178.4
Kobayashites	178.4	178.4
Cassianella	203.35	239.25
Exogyra	172.2	200.3
Gryphaea	172.2	229
Liostrea	172.2	239.25
Nanogyra	172.2	195.05
Aparimella	229	239.25
Daonella	229	239.25
Halobia	203.35	239.25
Taimyrolobia	229	229
Eligmus	172.2	172.2
Gervilleioperna	172.2	195.05
Isognomon	172.2	213.2
Lithiotis	186.75	195.05
Mytiloperna	172.2	200.3
Waagenoperna	213.2	239.25
Actinostreon	172.2	229
Lopha	172.2	229
Umbrostrea	203.35	229
Krumbeckiella	203.35	229
Manticula	213.2	229
Oretia	229	229
Atrina	239.25	239.25
Pinna	172.2	239.25
Trichites	178.4	213.2
Amonotis	213.2	229
Bositra	172.2	239.25
Posidonotis	178.4	195.05
Arcavicula	195.05	229
Avicula	200.3	229
Pseudaucella	178.4	186.75
Pteria	172.2	239.25
Rhaetavicula	203.35	203.35
Pulvinites	186.75	186.75
Heligmus	172.2	172.2
Enantiostreon	239.25	239.25
Harpax	178.4	200.3
Cercomya	172.2	229
Laternula	203.35	203.35
Platymyoidea	213.2	213.2
Anomia	172.2	203.35
Placunopsis	172.2	239.25
Neopecten	213.2	213.2
Primahinnites	213.2	213.2
Anningella	186.75	186.75
Etalia	239.25	239.25
Atreta	178.4	229
Protostrea	239.25	239.25
Cingentolium	172.2	172.2
Entolioides	213.2	229
Entolium	172.2	239.25
Somapecten	178.4	178.4
Filopecten	229	229
Kolymonectes	186.75	200.3
Eumorphotis	186.75	239.25
Leptochondria	213.2	239.25
Limaria	239.25	239.25
Palaeolima	239.25	239.25
Monotis	203.35	229
Otapiria	186.75	229
Weyla	178.4	200.3
Arctotis	172.2	186.75
Jianchuania	213.2	213.2
Meleagrinella	172.2	229
Oxytoma	172.2	239.25
Aequipecten	178.4	200.3
Agerchlamys	178.4	203.35
Amusium	200.3	239.25
Camptonectes	172.2	239.25
Chlamys	172.2	239.25
Eopecten	172.2	229
Hinnites	200.3	229
Hunanonectes	200.3	200.3
Indopecten	203.35	229
Loxochlamys	239.25	239.25
Lyriochlamys	213.2	213.2
Nevadapecten	239.25	239.25
Ochotochlamys	178.4	213.2
Pleuronectites	213.2	239.25
Praechlamys	239.25	239.25
Pseudentolium	186.75	186.75
Pseudopecten	178.4	203.35
Radulonectites	186.75	195.05
Spondylopecten	178.4	178.4
Tosapecten	203.35	229
Plicatula	172.2	229
Pseudoplacunopsis	203.35	239.25
Parvamussium	172.2	239.25
Propeamussium	172.2	172.2
Newaagia	200.3	239.25
Persia	200.3	213.2
Pseudomonotis	178.4	239.25
Ceratomya	172.2	195.05
Gresslya	172.2	239.25
Makoiamya	203.35	213.2
Myopholas	172.2	178.4
Pteromya	200.3	203.35
Antiquicorbula	178.4	213.2
Corbulomima	172.2	178.4
Pleuromya	172.2	239.25
Ochotomya	203.35	213.2
Ouamouia	203.35	229
Somareoides	229	229
Weixiella	213.2	213.2
Arcomya	178.4	200.3
Goniomya	172.2	200.3
Homomya	172.2	239.25
Osteomya	172.2	195.05
Pachymya	178.4	186.75
Pholadomya	172.2	203.35
Anomalopleuroides	229	229
Girardotia	178.4	178.4
Cuspidaria	186.75	186.75
Terquemia	186.75	229
Antijanira	229	229
Bittneria	229	229
Cochlearites	186.75	186.75
Crenamussium	213.2	213.2
Hokonuia	213.2	229
Langsonella	239.25	239.25
Lithioperna	186.75	186.75
Mytiloceramus	172.2	200.3
Ornithopecten	239.25	239.25
Pergamidia	213.2	229
Septihoernesia	229	229
Songdaella	213.2	213.2
Stefaninia	239.25	239.25
Magnolobia	239.25	239.25
Mesoneilo	213.2	213.2
Nucinella	186.75	213.2
Burmesia	200.3	213.2
Thracia	172.2	229
Groeberella	172.2	195.05
Frenguelliella	178.4	229
Jaworskiella	186.75	195.05
Quadratojaworskiella	172.2	200.3
Myophorella	172.2	186.75
Scaphorella	172.2	178.4
Vaugonia	172.2	200.3
Caledogonia	213.2	213.2
Costatoria	203.35	239.25
Elegantinia	203.35	239.25
Gruenewaldia	203.35	229
Heminajas	229	229
Liotrigonia	195.05	239.25
Myophoria	203.35	239.25
Neoschizodus	203.35	239.25
Agonisca	239.25	239.25
Praegonia	239.25	239.25
Prosogyrotrigonia	195.05	200.3
Schizodus	203.35	203.35
Geratrigonia	178.4	200.3
Guineana	213.2	229
Kyushutrigonia	213.2	213.2
Maoritrigonia	203.35	229
Minetrigonia	203.35	229
Modesticoncha	203.35	213.2
Myophorigonia	186.75	229
Neuquenitrigonia	172.2	178.4
Trigonia	172.2	213.2
Anodontophora	213.2	239.25
Cardinioides	186.75	239.25
Janaija	239.25	239.25
Unionites	203.35	239.25
Atalantia	229	229
Erugonia	203.35	213.2
Prorotrigonia	213.2	213.2
Trigonodus	213.2	239.25
Pachycardia	229	229
Anisocardia	172.2	195.05
Coelocyprina	186.75	186.75
Isocyprina	172.2	213.2
Plesiocyprina	178.4	178.4
Pronoella	172.2	178.4
Pseudotrapezium	178.4	195.05
Pullastra	203.35	203.35
Solenomorpha	229	229
Laubeia	229	229
Taeniodon	203.35	203.35
