taxon	min	max
Anoptychia	195.3	239.25
Cassianebala	232	239.25
Loxebala	226.5	232
Schafbergia	187.55	190.8
Jurilda	172.2	172.2
Promathildia	172.2	239.25
Siphonilda	207.95	215.25
Tangarilda	200.1	201.3
Tricarilda	172.2	199.3
Camponaxis	203.35	239.25
Conusella	187.55	190.8
Cristalloella	232	239.25
Graphis	172.2	180.5
Neodonaldina	187.55	239.25
Schartia	226.5	232
Tofanella	226.5	232
Usedomella	172.2	190.8
Trachoecus	226.5	232
Stuoraxis	172.2	239.25
Ampezzalina	207.95	215.25
Amphitrochus	172.2	215.25
Aristerella	187.55	199.3
Asterohelix	199.3	199.3
Blodgettella	207.95	215.25
Chartroniella	172.2	239.25
Cirsostylus	187.55	239.25
Cyclostomaria	172.2	190.8
Guizhouia	239.25	239.25
Kittlitrochus	239.25	239.25
Lyosoma	172.2	172.2
Mellarium	239.25	239.25
Nodoconus	207.95	215.25
Palaeocollonia	172.2	239.25
Paleunema	232	239.25
Praelittorina	207.95	232
Rinaldomphalus	232	239.25
Trachynerita	203.35	239.25
Urkutitoma	199.3	199.3
Ziziphinus	172.2	239.25
Ampullina	172.2	239.25
Tornatellaea	172.2	199.3
Parvulactaeon	172.2	172.2
Sulcoactaeon	172.2	172.2
Proceritella	195.3	199.3
Conactaeon	187.55	215.25
Cylindrobullina	172.2	239.25
Consobrinella	187.55	215.25
Costactaeon	172.2	180.5
Domerionina	226.5	232
Sinuarbullina	172.2	232
Striactaeonina	172.2	201.3
Collina	176.2	239.25
Ceritella	172.2	199.3
Anomphalus	203.35	239.25
Ventricaria	172.2	232
Natiria	226.5	239.25
Woehrmannia	215.25	239.25
Euomphalus	207.95	239.25
Pentagonodiscus	172.2	195.3
Schizostoma	226.5	232
Coelocentrus	226.5	232
Maclurites	207.95	239.25
Dohmella	187.55	199.3
Platyceras	232	239.25
Pseudophorus	232	239.25
Triassocirrus	226.5	239.25
Turristylus	207.95	239.25
Ampezzamilda	232	239.25
Ampezzogyra	232	239.25
Carboninia	172.2	239.25
Spirocyclina	232	239.25
Angyomphalus	200.1	239.25
Dictyotomaria	232	239.25
Euzone	226.5	239.25
Glabrocingulum	207.95	239.25
Gosseletina	207.95	239.25
Luciellina	226.5	239.25
Eunema	232	239.25
Worthenia	187.55	239.25
Coronaria	226.5	232
Loxonema	207.95	239.25
Tyrsoecus	172.2	239.25
Murchisonia	232	239.25
Trypanocochlea	203.35	239.25
Pseudoscalites	203.35	239.25
Wortheniopsis	207.95	239.25
Polygyrina	203.35	239.25
Kokenella	207.95	239.25
Porcellia	226.5	239.25
Pseudoschizogonium	226.5	239.25
Macrochilina	226.5	232
Euthystylus	203.35	239.25
Orthostylus	226.5	232
Spirostylus	203.35	239.25
Guidonia	187.55	215.25
Bandelium	232	239.25
Rinaldoella	207.95	239.25
Wortheniella	207.95	239.25
Allocosmia	176.2	239.25
Allostrophia	207.95	239.25
Ampezzopleura	232	239.25
Andangularia	207.95	215.25
Azyga	226.5	232
Diatrypesis	172.2	215.25
Goniospira	207.95	239.25
Levipleura	176.2	199.3
Raha	226.5	239.25
Striazyga	226.5	232
Zygopleura	172.2	239.25
Tomocheilus	226.5	232
Pleurotoma	226.5	232
Hypsipleura	187.55	239.25
Cassianozyga	232	239.25
Cerithiocyga	232	239.25
Chilocyclus	172.2	239.25
Euchrysalis	172.2	239.25
Flemmingia	232	239.25
Kittlistylus	203.35	239.25
Lacunina	226.5	239.25
Pseudochrysalis	226.5	239.25
Pustulifer	203.35	239.25
Spirochrysalis	207.95	239.25
Telleria	172.2	239.25
Tretospira	200.1	239.25
Trypanostylus	203.35	239.25
Zardinistylus	232	239.25
Cortinella	232	239.25
Delphinulopsis	226.5	239.25
Hungariella	207.95	215.25
Marmolatella	226.5	239.25
Paradelphinulopsis	207.95	215.25
Platychilina	226.5	239.25
Schwardtopsis	207.95	232
Spinidelphinulopsis	207.95	215.25
Fedaiella	226.5	239.25
Cassianopsis	203.35	239.25
Colubrellopsis	226.5	239.25
Fossariopsis	232	239.25
Neritopsis	172.2	239.25
Nuetzelopsis	207.95	215.25
Weitschatopsis	207.95	215.25
Zardiniopsis	226.5	232
Palaeonarica	207.95	239.25
Pseudorthonychia	226.5	232
Ladinaticella	232	239.25
Lancedellopsis	232	239.25
Scalaneritina	226.5	232
Pachyomphalus	232	239.25
Pseudorhytidopilus	172.2	199.3
Scurriopsis	172.2	239.25
Scurria	172.2	239.25
Patella	172.2	239.25
Scalaria	226.5	239.25
Undularia	203.35	239.25
Cerithium	172.2	201.3
Cupaniella	187.55	190.8
Occidentocerithium	207.95	215.25
Cerithinella	172.2	215.25
Kosmopleura	195.3	201.3
Ladinula	207.95	239.25
Climacina	195.3	199.3
Cryptaulax	172.2	239.25
Paracerithium	172.2	239.25
Procerithium	172.2	239.25
Rhabdocolpus	172.2	215.25
Rhynchocerithium	172.2	215.25
Prostylifer	200.1	239.25
Ptychostoma	207.95	239.25
Siliquaria	172.2	239.25
Turritella	172.2	239.25
Vermicularia	207.95	239.25
Ampezzoscala	232	239.25
Camposcala	232	239.25
Acteonina	172.2	239.25
Colostracon	172.2	232
Amberleya	172.2	239.25
Dicroloma	172.2	201.3
Harpagodes	172.2	176.2
Pietteia	172.2	199.3
Toarctocera	172.2	180.5
Yunnania	207.95	239.25
Rinaldoconchus	232	239.25
Solarium	172.2	201.3
Angulataphrus	195.3	201.3
Ataphrus	172.2	199.3
Chartronella	172.2	239.25
Collonia	172.2	232
Costataphrus	195.3	199.3
Gudrunella	207.95	215.25
Lewisiella	180.5	195.3
Striatoconulus	176.2	180.5
Triangaphrus	195.3	201.3
Trochopsidea	172.2	199.3
Callotrochus	203.35	232
Capulus	172.2	232
Cirrus	172.2	232
Hamusina	172.2	201.3
Hesperocirrus	203.35	215.25
Lepidotrochus	207.95	239.25
Platyacra	176.2	203.35
Sororcula	203.35	215.25
Spirocirrus	172.2	201.3
Coelodiscus	172.2	180.5
Acrocosmia	226.5	232
Ataxotrochus	239.25	239.25
Coelochrysalis	207.95	239.25
Coelostylina	172.2	239.25
Eustylus	226.5	232
Glyptochrysalis	176.2	239.25
Helenostylina	226.5	232
Omphaloptycha	203.35	239.25
Bandellina	232	239.25
Amphitomaria	232	239.25
Colpomphalus	172.2	201.3
Discohelix	172.2	239.25
Spiniomphalus	207.95	215.25
Ambercyclus	176.2	201.3
Calliotropis	172.2	232
Eucyclomphalus	176.2	199.3
Eucyclus	172.2	232
Gerasimovcyclus	195.3	199.3
Mistelgauia	187.55	190.8
Neoeunema	226.5	232
Ooliticia	172.2	201.3
Trochonodus	207.95	215.25
Ampezzotrochus	232	239.25
Eucycloscala	172.2	239.25
Lissochilina	226.5	232
Eunemopsis	207.95	239.25
Pseudoclanculus	207.95	239.25
Austriacopsis	172.2	195.3
Emarginula	172.2	239.25
Cheilotomona	226.5	239.25
Kalchreuthia	172.2	190.8
Kittlidiscus	232	239.25
Heterospira	203.35	239.25
Lamelliphorus	172.2	176.2
Lancedellia	232	239.25
Laubella	232	239.25
Brochidiella	207.95	215.25
Brochidium	203.35	239.25
Lacuna	172.2	239.25
Maturifusus	187.55	190.8
Palaeotriton	226.5	232
Falsoebala	172.2	190.8
Amauropsis	172.2	239.25
Natica	172.2	239.25
Polinices	172.2	239.25
Ampezzonaticopsis	226.5	232
Cortinaticopsis	226.5	239.25
Dicosmos	207.95	239.25
Hologyra	226.5	239.25
Naticopsis	207.95	239.25
Neridomus	172.2	201.3
Cossmannea	172.2	172.2
Nerinea	172.2	187.55
Aptyxiella	172.2	199.3
Nerinella	172.2	201.3
Dentineritaria	226.5	239.25
Neritaria	203.35	239.25
Oncochilus	172.2	239.25
Ruganeritaria	226.5	232
Trachyneritaria	203.35	239.25
Cryptonerita	207.95	239.25
Nerita	172.2	232
Neritina	172.2	232
Protonerita	207.95	239.25
Metriomphalus	172.2	215.25
Neorthonema	226.5	232
Spirocyclus	172.2	239.25
Palaeorissoina	172.2	172.2
Phasianella	172.2	201.3
Euryalox	207.95	239.25
Trochotomaria	172.2	199.3
Bathrotomaria	172.2	195.3
Laevitomaria	172.2	190.8
Leptomaria	172.2	199.3
Murihikua	203.35	232
Ornatospira	203.35	239.25
Pleurotomaria	172.2	239.25
Pyrgotrochus	172.2	190.8
Sisenna	187.55	239.25
Tahua	207.95	239.25
Talantodiscus	172.2	203.35
Anticonulus	187.55	239.25
Dimorphotectus	172.2	232
Eocalliostoma	207.95	215.25
Proconulus	172.2	195.3
Tylotrochus	207.95	239.25
Anulifera	207.95	215.25
Atorcula	226.5	232
Chulitnacula	207.95	215.25
Lamellox	226.5	232
Moerckeia	203.35	239.25
Protorcula	203.35	239.25
Pseudomelania	172.2	239.25
Ramina	207.95	239.25
Pseudowortheniella	226.5	232
Ptychomphalina	203.35	239.25
Ptychomphalus	187.55	239.25
Angularia	207.95	239.25
Microschiza	172.2	239.25
Parangularia	207.95	232
Protofusus	203.35	239.25
Purpurina	172.2	176.2
Purpuroidea	172.2	239.25
Ebala	172.2	239.25
Rhaphistomella	203.35	239.25
Rissoina	172.2	176.2
Bralitzia	176.2	180.5
Microcheilus	232	239.25
Sabrinella	195.3	239.25
Schizogonium	232	239.25
Triassurella	226.5	232
Katosira	172.2	239.25
Kittliconcha	203.35	239.25
Rostellaria	172.2	232
Codinella	232	239.25
Stuorella	215.25	239.25
Temnotropis	226.5	239.25
Teinostoma	172.2	187.55
Calliostoma	172.2	215.25
Cantallocostoma	187.55	201.3
Chrysostoma	172.2	190.8
Eosolariella	203.35	232
Francisciconcha	187.55	190.8
Lithotrochus	180.5	201.3
Margarites	172.2	215.25
Monodonta	172.2	232
Pachypoma	226.5	232
Plectotrochus	187.55	190.8
Rotella	226.5	232
Solarioconulus	203.35	239.25
Trochus	172.2	232
Trochotoma	172.2	239.25
Bandelastraea	226.5	232
Delphinula	226.5	232
Homalopoma	172.2	239.25
Meiersia	200.1	201.3
Sloeudaronia	226.5	232
Turbo	172.2	239.25
Zygites	207.95	239.25
Alexogyra	226.5	232
Jurassiphorus	172.2	215.25
Pileopsis	200.1	201.3
Trachybembix	232	239.25
Ueckerconulus	172.2	215.25
